en-hi
en-bn
en-te
en-ta
en-kK
en-mr
en-ml
en-pa
en-ta
en-ur
en-gu
hi-en
hi-bn
hi-te
hi-ta
hi-kK
hi-mr
hi-ml
hi-pa
hi-ta
hi-ur
hi-gu
bn-en
bn-hi
bn-te
bn-ta
bn-kK
bn-mr
bn-ml
bn-pa
bn-ta
bn-ur
bn-gu
te-en
te-hi
te-bn
te-ta
te-kK
te-mr
te-ml
te-pa
te-ta
te-ur
te-gu
ta-en
ta-hi
ta-bn
ta-te
ta-kK
ta-mr
ta-ml
ta-pa
ta-ur
ta-gu
kK-en
kK-hi
kK-bn
kK-te
kK-ta
kK-mr
kK-ml
kK-pa
kK-ta
kK-ur
kK-gu
mr-en
mr-hi
mr-bn
mr-te
mr-ta
mr-kK
mr-ml
mr-pa
mr-ta
mr-ur
mr-gu
ml-en
ml-hi
ml-bn
ml-te
ml-ta
ml-kK
ml-mr
ml-pa
ml-ta
ml-ur
ml-gu
pa-en
pa-hi
pa-bn
pa-te
pa-ta
pa-kK
pa-mr
pa-ml
pa-ta
pa-ur
pa-gu
ta-en
ta-hi
ta-bn
ta-te
ta-kK
ta-mr
ta-ml
ta-pa
ta-ur
ta-gu
ur-en
ur-hi
ur-bn
ur-te
ur-ta
ur-kK
ur-mr
ur-ml
ur-pa
ur-ta
ur-gu
gu-en
gu-hi
gu-bn
gu-te
gu-ta
gu-kK
gu-mr
gu-ml
gu-pa
gu-ta
gu-ur
