Sarcastic Test: [2, 3, 4, 9, 10, 11, 16, 20, 21, 23, 27, 31, 32, 35, 36, 38, 41, 44, 45, 47, 48, 50, 51, 56, 61, 65, 68, 69, 71, 76, 78, 79, 90, 91, 93, 94, 102, 103, 105, 106, 107, 109, 111, 113, 118, 121, 126, 127, 132, 133, 143, 144, 146, 150, 151, 152, 153, 158, 162, 164, 166, 167, 168, 170, 171, 172, 178, 179, 180, 181, 182, 187, 190, 192, 193, 194, 199, 200, 201, 203, 204, 207, 209, 210, 212, 214, 215, 216, 218, 219, 220, 221, 224, 228, 230, 237, 238, 240, 242, 244, 251, 252, 254, 258, 265, 269, 270, 271, 272, 280, 285, 287, 288, 290, 294, 298, 301, 304, 308, 313, 314, 318, 320, 325, 331, 333, 336, 337, 338, 340, 344]
Positive Test: [64, 259, 371, 386, 413, 423, 447, 535, 546, 550, 563, 613, 637, 646, 651, 684, 706, 728, 729, 747, 751, 756, 785, 807, 810, 860, 862, 925, 938, 949, 963, 967, 968]
Negative Test: [353, 360, 365, 377, 387, 396, 419, 443, 457, 458, 460, 461, 463, 464, 471, 473, 474, 475, 476, 477, 478, 479, 480, 483, 484, 487, 491, 493, 494, 496, 500, 502, 506, 510, 512, 516, 524, 528, 530, 536, 541, 542, 547, 551, 555, 562, 570, 572, 574, 599, 603, 605, 610, 614, 617, 629, 640, 645, 647, 654, 656, 658, 660, 662, 664, 666, 668, 670, 673, 675, 677, 687, 690, 692, 694, 696, 699, 701, 714, 718, 719, 730, 734, 741, 746, 755, 757, 763, 771, 775, 789, 790, 797, 805, 819, 820, 829, 833, 834, 837, 840, 845, 847, 852, 854, 856, 864, 865, 875, 877, 882, 886, 891, 895, 901, 902, 903, 905, 906, 908, 930, 942, 969, 981, 982, 984, 986, 987, 990, 994]
Sarcastic Negative: [1, 2, 3, 4, 5, 6, 7, 8, 9, 10, 11, 12, 13, 14, 15, 16, 17, 18, 19, 20, 21, 22, 23, 24, 25, 26, 27, 29, 30, 31, 32, 33, 34, 35, 36, 37, 38, 39, 40, 41, 42, 43, 44, 45, 46, 47, 48, 49, 50, 51, 53, 54, 55, 56, 57, 58, 59, 60, 61, 62, 63, 65, 66, 67, 68, 69, 70, 71, 72, 73, 74, 76, 77, 78, 79, 81, 82, 83, 84, 85, 87, 88, 89, 90, 91, 92, 93, 94, 95, 96, 97, 98, 99, 101, 102, 103, 104, 105, 106, 107, 108, 109, 110, 111, 112, 113, 114, 115, 116, 117, 118, 119, 120, 121, 122, 123, 124, 125, 126, 127, 128, 129, 130, 131, 132, 133, 134, 135, 136, 137, 138, 139, 140, 141, 142, 143, 144, 146, 147, 148, 150, 151, 152, 153, 154, 155, 156, 157, 158, 159, 160, 161, 162, 163, 164, 165, 166, 167, 168, 169, 170, 171, 172, 173, 174, 175, 176, 177, 178, 179, 180, 181, 182, 183, 184, 185, 186, 187, 188, 189, 190, 191, 192, 193, 194, 195, 196, 197, 198, 199, 200, 201, 202, 203, 204, 205, 206, 207, 208, 209, 210, 211, 212, 213, 214, 215, 216, 217, 218, 219, 220, 221, 222, 223, 224, 225, 226, 227, 228, 230, 231, 232, 233, 235, 236, 237, 238, 239, 240, 241, 242, 243, 244, 245, 246, 247, 248, 249, 250, 251, 252, 253, 254, 255, 256, 257, 258, 261, 262, 265, 267, 268, 269, 270, 271, 272, 273, 274, 275, 278, 280, 281, 282, 283, 284, 285, 286, 287, 288, 289, 290, 291, 293, 294, 295, 296, 297, 298, 299, 300, 301, 302, 303, 304, 305, 306, 307, 308, 310, 311, 312, 313, 314, 315, 316, 317, 318, 319, 320, 321, 322, 323, 324, 325, 326, 327, 329, 330, 331, 332, 333, 334, 335, 336, 337, 338, 339, 340, 341, 342, 343, 344, 345, 346, 347, 348, 349, 350]
Positive: [28, 52, 64, 75, 80, 86, 100, 145, 149, 229, 234, 259, 260, 263, 264, 266, 276, 277, 279, 292, 309, 328, 351, 352, 354, 355, 356, 357, 358, 359, 361, 362, 363, 364, 366, 367, 368, 369, 370, 371, 372, 373, 374, 375, 376, 378, 379, 380, 381, 383, 384, 385, 386, 388, 389, 390, 391, 393, 394, 395, 397, 398, 399, 400, 401, 402, 403, 404, 405, 406, 407, 408, 409, 410, 411, 412, 413, 415, 416, 418, 420, 422, 423, 424, 425, 426, 427, 428, 429, 431, 432, 433, 434, 436, 437, 438, 440, 444, 445, 446, 447, 448, 449, 452, 453, 482, 485, 486, 488, 489, 490, 499, 501, 503, 507, 509, 511, 513, 515, 517, 519, 521, 523, 525, 526, 527, 529, 531, 533, 535, 537, 539, 540, 544, 546, 548, 550, 553, 554, 556, 558, 560, 561, 563, 565, 567, 569, 571, 573, 575, 577, 579, 580, 581, 583, 585, 587, 590, 592, 594, 596, 598, 600, 602, 604, 606, 607, 609, 611, 612, 613, 615, 618, 620, 622, 624, 626, 628, 630, 631, 633, 634, 635, 637, 639, 641, 643, 644, 646, 648, 649, 651, 653, 655, 657, 659, 661, 663, 665, 667, 669, 672, 674, 676, 678, 680, 682, 684, 685, 686, 688, 689, 691, 693, 695, 697, 700, 702, 704, 706, 708, 710, 713, 715, 717, 721, 723, 724, 726, 728, 729, 731, 733, 735, 736, 737, 738, 739, 740, 743, 747, 748, 749, 750, 751, 752, 753, 754, 756, 758, 760, 761, 764, 765, 767, 769, 770, 772, 773, 774, 776, 777, 779, 780, 781, 782, 784, 785, 787, 788, 791, 792, 794, 795, 798, 801, 802, 803, 804, 806, 807, 808, 809, 810, 811, 812, 813, 816, 818, 822, 823, 824, 826, 828, 830, 831, 832, 839, 841, 843, 846, 848, 851, 853, 855, 858, 860, 861, 862, 863, 867, 872, 873, 876, 879, 881, 883, 885, 887, 894, 896, 899, 900, 907, 909, 910, 911, 912, 914, 915, 918, 920, 923, 924, 925, 926, 927, 928, 931, 933, 935, 936, 938, 939, 940, 941, 943, 944, 945, 946, 947, 948, 949, 950, 951, 952, 954, 955, 956, 957, 958, 959, 960, 961, 962, 963, 964, 965, 966, 967, 968, 970, 971, 972, 973, 974, 975, 976, 977, 978, 979, 980, 988]
Negative: [353, 360, 365, 377, 382, 387, 392, 396, 414, 417, 419, 421, 430, 435, 439, 441, 442, 443, 450, 451, 454, 455, 456, 457, 458, 459, 460, 461, 462, 463, 464, 465, 466, 467, 468, 469, 470, 471, 472, 473, 474, 475, 476, 477, 478, 479, 480, 481, 483, 484, 487, 491, 492, 493, 494, 495, 496, 497, 498, 500, 502, 504, 505, 506, 508, 510, 512, 514, 516, 518, 520, 522, 524, 528, 530, 532, 534, 536, 538, 541, 542, 543, 545, 547, 549, 551, 552, 555, 557, 559, 562, 564, 566, 568, 570, 572, 574, 576, 578, 582, 584, 586, 588, 589, 591, 593, 595, 597, 599, 601, 603, 605, 608, 610, 614, 616, 617, 619, 621, 623, 625, 627, 629, 632, 636, 638, 640, 642, 645, 647, 650, 652, 654, 656, 658, 660, 662, 664, 666, 668, 670, 671, 673, 675, 677, 679, 681, 683, 687, 690, 692, 694, 696, 698, 699, 701, 703, 705, 707, 709, 711, 712, 714, 716, 718, 719, 720, 722, 725, 727, 730, 732, 734, 741, 742, 744, 745, 746, 755, 757, 759, 762, 763, 766, 768, 771, 775, 778, 783, 786, 789, 790, 793, 796, 797, 799, 800, 805, 814, 815, 817, 819, 820, 821, 825, 827, 829, 833, 834, 835, 836, 837, 838, 840, 842, 844, 845, 847, 849, 850, 852, 854, 856, 857, 859, 864, 865, 866, 868, 869, 870, 871, 874, 875, 877, 878, 880, 882, 884, 886, 888, 889, 890, 891, 892, 893, 895, 897, 898, 901, 902, 903, 904, 905, 906, 908, 913, 916, 917, 919, 921, 922, 929, 930, 932, 934, 937, 942, 953, 969, 981, 982, 983, 984, 985, 986, 987, 989, 990, 991, 992, 993, 994]
