Output	Confidence
-1	0
1	0
-1	0
1	0
-1	0
1	0
1	0
1	0
-1	0
1	0
1	0
1	0
-1	0
-1	0
1	0
1	0
-1	0
1	0
1	0
1	0
-1	0
-1	0
1	0
-1	0
1	0
-1	0
1	0
1	0
1	0
-1	0
1	0
-1	0
-1	0
1	0
-1	0
1	0
-1	0
1	0
-1	0
1	0
-1	0
1	0
1	0
-1	0
1	0
1	0
1	0
1	0
1	0
1	0
1	0
-1	0
1	0
1	0
1	0
-1	0
-1	0
1	0
1	0
-1	0
1	0
-1	0
1	0
1	0
1	0
1	0
-1	0
-1	0
-1	0
-1	0
1	0
-1	0
-1	0
-1	0
1	0
1	0
1	0
1	0
1	0
1	0
1	0
1	0
-1	0
1	0
-1	0
1	0
1	0
1	0
-1	0
-1	0
1	0
-1	0
1	0
1	0
1	0
-1	0
1	0
1	0
1	0
-1	0
1	0
1	0
1	0
1	0
1	0
1	0
-1	0
1	0
1	0
1	0
1	0
1	0
-1	0
1	0
-1	0
1	0
1	0
1	0
-1	0
1	0
-1	0
1	0
-1	0
1	0
1	0
-1	0
-1	0
1	0
1	0
-1	0
-1	0
-1	0
1	0
1	0
-1	0
-1	0
-1	0
1	0
-1	0
1	0
1	0
-1	0
1	0
1	0
1	0
-1	0
-1	0
-1	0
1	0
1	0
-1	0
1	0
-1	0
1	0
1	0
-1	0
-1	0
-1	0
-1	0
1	0
1	0
-1	0
1	0
1	0
-1	0
-1	0
-1	0
-1	0
1	0
1	0
1	0
-1	0
-1	0
-1	0
-1	0
-1	0
1	0
-1	0
-1	0
1	0
1	0
-1	0
1	0
1	0
1	0
-1	0
-1	0
1	0
-1	0
-1	0
1	0
1	0
-1	0
-1	0
1	0
1	0
1	0
1	0
1	0
1	0
1	0
-1	0
-1	0
-1	0
1	0
1	0
-1	0
1	0
-1	0
1	0
1	0
1	0
-1	0
1	0
1	0
1	0
1	0
1	0
-1	0
1	0
1	0
1	0
1	0
1	0
-1	0
1	0
1	0
-1	0
-1	0
-1	0
-1	0
-1	0
1	0
-1	0
-1	0
1	0
-1	0
1	0
1	0
1	0
1	0
1	0
1	0
1	0
1	0
1	0
-1	0
-1	0
1	0
1	0
-1	0
1	0
-1	0
1	0
1	0
1	0
1	0
1	0
1	0
-1	0
-1	0
-1	0
1	0
-1	0
1	0
1	0
1	0
-1	0
1	0
1	0
1	0
1	0
-1	0
1	0
-1	0
1	0
-1	0
1	0
1	0
1	0
1	0
-1	0
-1	0
1	0
1	0
-1	0
1	0
1	0
1	0
1	0
-1	0
1	0
1	0
1	0
1	0
-1	0
1	0
-1	0
1	0
1	0
-1	0
1	0
1	0
1	0
1	0
-1	0
1	0
1	0
1	0
1	0
1	0
1	0
1	0
1	0
1	0
1	0
-1	0
1	0
1	0
-1	0
1	0
-1	0
1	0
-1	0
1	0
1	0
1	0
1	0
-1	0
1	0
1	0
1	0
1	0
1	0
-1	0
1	0
1	0
-1	0
-1	0
1	0
1	0
1	0
1	0
-1	0
1	0
-1	0
1	0
1	0
1	0
-1	0
1	0
1	0
-1	0
1	0
-1	0
1	0
-1	0
1	0
1	0
1	0
1	0
1	0
-1	0
1	0
-1	0
-1	0
1	0
-1	0
1	0
1	0
1	0
1	0
1	0
1	0
1	0
1	0
1	0
-1	0
1	0
-1	0
1	0
1	0
1	0
1	0
1	0
1	0
1	0
-1	0
-1	0
1	0
1	0
1	0
-1	0
-1	0
-1	0
1	0
1	0
1	0
1	0
-1	0
1	0
1	0
1	0
-1	0
1	0
-1	0
1	0
1	0
-1	0
-1	0
1	0
1	0
1	0
1	0
1	0
1	0
1	0
1	0
-1	0
1	0
-1	0
-1	0
1	0
1	0
1	0
-1	0
-1	0
1	0
1	0
-1	0
1	0
1	0
1	0
1	0
1	0
-1	0
-1	0
1	0
-1	0
1	0
1	0
1	0
-1	0
1	0
-1	0
1	0
-1	0
-1	0
-1	0
1	0
-1	0
-1	0
1	0
1	0
1	0
-1	0
1	0
1	0
-1	0
1	0
1	0
-1	0
1	0
1	0
1	0
-1	0
1	0
1	0
1	0
-1	0
-1	0
-1	0
-1	0
-1	0
1	0
-1	0
-1	0
1	0
1	0
-1	0
1	0
-1	0
-1	0
1	0
1	0
1	0
1	0
-1	0
1	0
1	0
1	0
1	0
-1	0
Accuracy	0.503042596349