Participant, DocID,ScaComp_Predicted
adityajo,1,0.4750386203
adityajo,2,0.3564715383
adityajo,3,0.5861357018
adityajo,4,0.2715632186
adityajo,5,0.2326613172
adityajo,6,0.1008010037
adityajo,7,0.7559039922
adityajo,8,0.4457029889
adityajo,9,0.3317298943
adityajo,10,0.2729143368
adityajo,11,0.2189704781
adityajo,12,0.4686946037
adityajo,13,0.5716457906
adityajo,14,0.3808338165
adityajo,15,0.6531302487
adityajo,16,0.2652788602
adityajo,17,0.4840308793
adityajo,18,0.4986589921
adityajo,19,0.8056652895
adityajo,20,0.230644635
adityajo,21,0.1610821287
adityajo,22,0.3182558932
adityajo,23,0.3446187543
adityajo,24,0.1630414494
adityajo,25,0.2866717369
adityajo,26,0.1927490596
adityajo,27,0.2411856463
adityajo,28,0.1585826458
adityajo,29,0.4218455546
adityajo,30,0.3331048697
adityajo,31,0.4041693464
adityajo,32,0.0871572066
adtiyasa,1,0.465509598
adtiyasa,2,0.4249665574
adtiyasa,3,0.6182585748
adtiyasa,4,0.2554069771
adtiyasa,5,0.317851357
adtiyasa,6,0.1353238943
adtiyasa,7,0.5369137669
adtiyasa,8,0.437802841
adtiyasa,9,0.4157629292
adtiyasa,10,0.2726941367
adtiyasa,11,0.2626426218
adtiyasa,12,0.3700048077
adtiyasa,13,0.5882615367
adtiyasa,14,0.4164764358
adtiyasa,15,0.5392625163
adtiyasa,16,0.2773432146
adtiyasa,17,0.4284163411
adtiyasa,18,0.3946681451
adtiyasa,19,0.667399497
adtiyasa,20,0.2574270033
adtiyasa,21,0.2291350942
adtiyasa,22,0.2683431886
adtiyasa,23,0.304822758
adtiyasa,24,0.2073761956
adtiyasa,25,0.3779453798
adtiyasa,26,0.2413915754
adtiyasa,27,0.2436963589
adtiyasa,28,0.1931976728
adtiyasa,29,0.4935931257
adtiyasa,30,0.3834149406
adtiyasa,31,0.4554157969
adtiyasa,32,0.0948170978
ajay,1,0.552455041
ajay,2,0.4794562533
ajay,3,0.6643465599
ajay,4,0.3585970422
ajay,5,0.3128153543
ajay,6,0.1670918671
ajay,7,0.8480590776
ajay,8,0.6057548018
ajay,9,0.4098615441
ajay,10,0.2672213265
ajay,11,0.2374865592
ajay,12,0.374051386
ajay,13,0.6812470485
ajay,14,0.8022525203
ajay,15,0.6144308012
ajay,16,0.3688785496
ajay,17,0.5531571315
ajay,18,0.3849899647
ajay,19,0.920808845
ajay,20,0.2590727945
ajay,21,0.2215156598
ajay,22,0.2675466514
ajay,23,0.3640685552
ajay,24,0.1973091628
ajay,25,0.6100498145
ajay,26,0.2181192062
ajay,27,0.268085486
ajay,28,0.224415724
ajay,29,0.4950311747
ajay,30,0.4571303266
ajay,31,0.6041229549
ajay,32,0.1063087914
arpan,1,0.5520298441
arpan,2,0.4008967553
arpan,3,0.6135505502
arpan,4,0.3107991021
arpan,5,0.2795749048
arpan,6,0.1047418741
arpan,7,0.6199765019
arpan,8,0.5158332243
arpan,9,0.3191929581
arpan,10,0.2587325618
arpan,11,0.2516363144
arpan,12,0.3549124635
arpan,13,0.4976205412
arpan,14,0.4577092384
arpan,15,0.5614610059
arpan,16,0.3247937927
arpan,17,0.5541763594
arpan,18,0.4080935511
arpan,19,0.6585006781
arpan,20,0.2130158753
arpan,21,0.1630498466
arpan,22,0.2510428831
arpan,23,0.2930406331
arpan,24,0.1977175819
arpan,25,0.3643658826
arpan,26,0.1705034491
arpan,27,0.2489359075
arpan,28,0.1852049353
arpan,29,0.5033376662
arpan,30,0.3379952694
arpan,31,0.452275313
arpan,32,0.0905851781
jayasar,1,0.5082306801
jayasar,2,0.408319544
jayasar,3,0.5553328887
jayasar,4,0.3033869859
jayasar,5,0.3191956321
jayasar,6,0.1313483615
jayasar,7,0.545015552
jayasar,8,0.4510816821
jayasar,9,0.3109542957
jayasar,10,0.2764135956
jayasar,11,0.2474423188
jayasar,12,0.3886949897
jayasar,13,0.4883590836
jayasar,14,0.4606748903
jayasar,15,0.5588585745
jayasar,16,0.249171419
jayasar,17,0.4512950803
jayasar,18,0.3806394092
jayasar,19,0.7698890895
jayasar,20,0.3553281125
jayasar,21,0.2324995376
jayasar,22,0.2593019863
jayasar,23,0.3771699586
jayasar,24,0.1973687569
jayasar,25,0.2974415955
jayasar,26,0.1894418422
jayasar,27,0.2249784688
jayasar,28,0.2121890812
jayasar,29,0.4308488581
jayasar,30,0.3191774862
jayasar,31,0.3920403411
jayasar,32,0.0961419259
kevinp,1,0.5140381469
kevinp,2,0.498211394
kevinp,3,0.6142745864
kevinp,4,0.2299718437
kevinp,5,0.2780486645
kevinp,6,0.1242106488
kevinp,7,0.5598078575
kevinp,8,0.4164272883
kevinp,9,0.3765004466
kevinp,10,0.3050969869
kevinp,11,0.2377710395
kevinp,12,0.4035545963
kevinp,13,0.5087155617
kevinp,14,0.4840007794
kevinp,15,0.4791369247
kevinp,16,0.2546802528
kevinp,17,0.481321339
kevinp,18,0.3642188094
kevinp,19,0.5556530279
kevinp,20,0.264049568
kevinp,21,0.2007205594
kevinp,22,0.2303135718
kevinp,23,0.2530334678
kevinp,24,0.1807750778
kevinp,25,0.3509040931
kevinp,26,0.2221163805
kevinp,27,0.2964322095
kevinp,28,0.2023900463
kevinp,29,0.4324567454
kevinp,30,0.3828100781
kevinp,31,0.4694843584
kevinp,32,0.0956812245
lakshya,1,0.4545075472
lakshya,2,0.4452219939
lakshya,3,0.6674370857
lakshya,4,0.2973136807
lakshya,5,0.2442397762
lakshya,6,0.1634709191
lakshya,7,0.6167906566
lakshya,8,0.4729936129
lakshya,9,0.395393003
lakshya,10,0.2541764683
lakshya,11,0.2548241547
lakshya,12,0.3582907075
lakshya,13,0.5382564242
lakshya,14,0.3954103694
lakshya,15,0.5264650664
lakshya,16,0.2703954285
lakshya,17,0.408376963
lakshya,18,0.3408059805
lakshya,19,0.5981132542
lakshya,20,0.2203897578
lakshya,21,0.2040663632
lakshya,22,0.2524414543
lakshya,23,0.2636435905
lakshya,24,0.1739648194
lakshya,25,0.4457976649
lakshya,26,0.1749812004
lakshya,27,0.2517713318
lakshya,28,0.1751314491
lakshya,29,0.4770318588
lakshya,30,0.3428948793
lakshya,31,0.4183030068
lakshya,32,0.0874964898
meghnas,1,0.536835367
meghnas,2,0.453676576
meghnas,3,0.5245134128
meghnas,4,0.2681475436
meghnas,5,0.2555115857
meghnas,6,0.1271875218
meghnas,7,0.4838432568
meghnas,8,0.4122205218
meghnas,9,0.3365962197
meghnas,10,0.2252600579
meghnas,11,0.2420735866
meghnas,12,0.3071275192
meghnas,13,0.4203731287
meghnas,14,0.3799651718
meghnas,15,0.4465410107
meghnas,16,0.251143212
meghnas,17,0.3956574828
meghnas,18,0.3308117246
meghnas,19,0.5672655329
meghnas,20,0.2437730776
meghnas,21,0.1748221937
meghnas,22,0.245945046
meghnas,23,0.2974874476
meghnas,24,0.1855554722
meghnas,25,0.4372993857
meghnas,26,0.1641915307
meghnas,27,0.2174335217
meghnas,28,0.1916627407
meghnas,29,0.4060068573
meghnas,30,0.2792621338
meghnas,31,0.3788575298
meghnas,32,0.0949196799
pratikm,1,0.4899055088
pratikm,2,0.3912239122
pratikm,3,0.4888086302
pratikm,4,0.2370800494
pratikm,5,0.3868681878
pratikm,6,0.1472152847
pratikm,7,0.5912424229
pratikm,8,0.4941431421
pratikm,9,0.3595069124
pratikm,10,0.2405368072
pratikm,11,0.304947853
pratikm,12,0.4448748001
pratikm,13,0.5297263355
pratikm,14,0.4443500867
pratikm,15,0.5526194625
pratikm,16,0.4102641054
pratikm,17,0.4146370389
pratikm,18,0.3510170153
pratikm,19,0.5892930377
pratikm,20,0.3856615096
pratikm,21,0.2030737262
pratikm,22,0.3214084496
pratikm,23,0.4465223544
pratikm,24,0.1686341933
pratikm,25,0.4810214502
pratikm,26,0.1906010818
pratikm,27,0.3805332498
pratikm,28,0.3183092034
pratikm,29,0.4277983255
pratikm,30,0.3936385107
pratikm,31,0.6866758827
pratikm,32,0.1586971321
prerana,1,0.4082704562
prerana,2,0.3603792306
prerana,3,0.4880752175
prerana,4,0.2129410306
prerana,5,0.2085986654
prerana,6,0.1219460287
prerana,7,0.5625430211
prerana,8,0.395459958
prerana,9,0.2772965206
prerana,10,0.2820044571
prerana,11,0.2013109272
prerana,12,0.3162484244
prerana,13,0.3949527272
prerana,14,0.4131636502
prerana,15,0.4333131705
prerana,16,0.2624143163
prerana,17,0.4132729789
prerana,18,0.3467685607
prerana,19,0.5375931014
prerana,20,0.2173803922
prerana,21,0.1923318195
prerana,22,0.2297847268
prerana,23,0.2552486093
prerana,24,0.1786093105
prerana,25,0.3137037435
prerana,26,0.1507822223
prerana,27,0.2569247182
prerana,28,0.1631647081
prerana,29,0.3701274032
prerana,30,0.2849886236
prerana,31,0.4951255991
prerana,32,0.1091597318
prtk,1,0.4192574431
prtk,2,0.3561125411
prtk,3,0.5047393958
prtk,4,0.2533504194
prtk,5,0.2456789802
prtk,6,0.1275908845
prtk,7,0.5081443415
prtk,8,0.4228950568
prtk,9,0.302827578
prtk,10,0.2021452656
prtk,11,0.2846168535
prtk,12,0.269305245
prtk,13,0.4208739608
prtk,14,0.3843305618
prtk,15,0.4199870954
prtk,16,0.2627748399
prtk,17,0.4080686873
prtk,18,0.3213193471
prtk,19,0.5233991151
prtk,20,0.232604172
prtk,21,0.1766830381
prtk,22,0.2348481427
prtk,23,0.2345404299
prtk,24,0.1779249652
prtk,25,0.3153992396
prtk,26,0.1406424773
prtk,27,0.2004415771
prtk,28,0.1379816331
prtk,29,0.3695259896
prtk,30,0.2651875036
prtk,31,0.3518701505
prtk,32,0.0969871503
rajitas,1,0.4373332623
rajitas,2,0.4548353445
rajitas,3,0.5642950501
rajitas,4,0.2160973373
rajitas,5,0.2457896117
rajitas,6,0.1280395962
rajitas,7,0.5262073166
rajitas,8,0.3914127858
rajitas,9,0.3096641387
rajitas,10,0.2769592026
rajitas,11,0.223419619
rajitas,12,0.363750418
rajitas,13,0.7938400204
rajitas,14,0.3639679669
rajitas,15,0.4692831654
rajitas,16,0.2964218606
rajitas,17,0.4394433091
rajitas,18,0.346721581
rajitas,19,0.7307687776
rajitas,20,0.2370987971
rajitas,21,0.1753580067
rajitas,22,0.2424721022
rajitas,23,0.408070525
rajitas,24,0.2468306707
rajitas,25,0.3675755923
rajitas,26,0.1584761227
rajitas,27,0.2176132106
rajitas,28,0.1780185936
rajitas,29,0.5203916427
rajitas,30,0.3224101954
rajitas,31,0.3908404883
rajitas,32,0.0872663141
rajkumar,1,0.5407171501
rajkumar,2,0.3598159728
rajkumar,3,0.6737045273
rajkumar,4,0.3226031059
rajkumar,5,0.3078729282
rajkumar,6,0.0999005574
rajkumar,7,0.9205062018
rajkumar,8,0.4502160908
rajkumar,9,0.5131048757
rajkumar,10,0.315698236
rajkumar,11,0.2282063255
rajkumar,12,0.4171262442
rajkumar,13,0.7412422178
rajkumar,14,0.4167614718
rajkumar,15,0.5849577757
rajkumar,16,0.1874872217
rajkumar,17,0.4903760429
rajkumar,18,0.5109647009
rajkumar,19,0.954876741
rajkumar,20,0.3527993166
rajkumar,21,0.2103643852
rajkumar,22,0.3024994491
rajkumar,23,0.4973645811
rajkumar,24,0.2176666844
rajkumar,25,0.5884562598
rajkumar,26,0.1797433408
rajkumar,27,0.2700389922
rajkumar,28,0.2067815314
rajkumar,29,0.6444938369
rajkumar,30,0.2837688086
rajkumar,31,0.5730216263
rajkumar,32,0.1025809613
shehzaad,1,0.6145914738
shehzaad,2,0.3877750614
shehzaad,3,0.7333908252
shehzaad,4,0.3256316168
shehzaad,5,0.2262353097
shehzaad,6,0.1295100937
shehzaad,7,0.5801144143
shehzaad,8,0.5483115631
shehzaad,9,0.3028648917
shehzaad,10,0.2304801517
shehzaad,11,0.251759698
shehzaad,12,0.5349154929
shehzaad,13,0.5704792768
shehzaad,14,0.4734729957
shehzaad,15,0.4672973977
shehzaad,16,0.287754362
shehzaad,17,0.5508891549
shehzaad,18,0.4173507345
shehzaad,19,0.7260390415
shehzaad,20,0.3241589372
shehzaad,21,0.1658335452
shehzaad,22,0.2242493573
shehzaad,23,0.3332219347
shehzaad,24,0.1742236796
shehzaad,25,0.4069966106
shehzaad,26,0.1759135261
shehzaad,27,0.2521634485
shehzaad,28,0.1918426936
shehzaad,29,0.3821107902
shehzaad,30,0.3428146116
shehzaad,31,0.4811422734
shehzaad,32,0.104489068
srijay,1,0.5563203986
srijay,2,0.3916579989
srijay,3,0.536000455
srijay,4,0.252439583
srijay,5,0.2371042422
srijay,6,0.1356269644
srijay,7,0.5170064367
srijay,8,0.3968946652
srijay,9,0.3096634412
srijay,10,0.2671992212
srijay,11,0.2036712174
srijay,12,0.3260862573
srijay,13,0.4230953386
srijay,14,0.3684252327
srijay,15,0.4687848704
srijay,16,0.2395263757
srijay,17,0.4380186825
srijay,18,0.3207599344
srijay,19,0.6584529753
srijay,20,0.2003047179
srijay,21,0.1966466533
srijay,22,0.2580394424
srijay,23,0.2874838065
srijay,24,0.1651015282
srijay,25,0.3346533656
srijay,26,0.1567896313
srijay,27,0.1719475959
srijay,28,0.2035349929
srijay,29,0.3304120244
srijay,30,0.3009378085
srijay,31,0.413159477
srijay,32,0.0971275801
vaibhavt,1,0.4074398487
vaibhavt,2,0.3823771148
vaibhavt,3,0.4917493211
vaibhavt,4,0.2311909761
vaibhavt,5,0.2328486385
vaibhavt,6,0.1032692525
vaibhavt,7,0.4547588559
vaibhavt,8,0.3846474007
vaibhavt,9,0.2621733659
vaibhavt,10,0.1990038319
vaibhavt,11,0.1963441301
vaibhavt,12,0.2967235282
vaibhavt,13,0.4637271654
vaibhavt,14,0.3682092498
vaibhavt,15,0.3974141798
vaibhavt,16,0.223658612
vaibhavt,17,0.3710907075
vaibhavt,18,0.3231386359
vaibhavt,19,0.592778032
vaibhavt,20,0.1903870227
vaibhavt,21,0.1569308534
vaibhavt,22,0.1913271989
vaibhavt,23,0.2485971023
vaibhavt,24,0.1694963925
vaibhavt,25,0.330730175
vaibhavt,26,0.1451162508
vaibhavt,27,0.2290158055
vaibhavt,28,0.1712269347
vaibhavt,29,0.3817651815
vaibhavt,30,0.2488736725
vaibhavt,31,0.3650151646
vaibhavt,32,0.0930189592
