Output	Confidence
1	0.500132543606
-1	0.500086759077
-1	0.500120523747
1	0.500195022016
1	0.500056894936
1	0.500088716056
1	0.500102516001
1	0.500029512271
-1	0.500092610773
1	0.500011398529
-1	0.500021886645
-1	0.500045374285
1	0.500204046589
1	0.500173253766
1	0.500013670679
-1	0.500028621615
1	0.50001040575
1	0.500028702806
-1	0.500023003485
1	0.500047396892
1	0.500033768674
1	0.500034737077
-1	0.500017733514
1	0.500069072314
1	0.500073967791
1	0.500111139369
-1	0.500162223016
1	0.500006875441
-1	0.50001835347
1	0.500025758076
1	0.500134444085
1	0.500171728926
1	0.500127783177
-1	0.500033742448
1	0.500104693616
-1	0.500118797148
1	0.500071279408
1	0.500144568817
1	0.50013511331
1	0.500086839444
1	0.500023068125
1	0.500066839895
1	0.500063829738
1	0.500208840087
1	0.50019291747
-1	0.500185082713
1	0.50004937353
1	0.500066769044
-1	0.500010840405
1	0.500039491732
1	0.500146894918
-1	0.500035550698
1	0.500155570283
-1	0.500031408158
1	0.500104595564
1	0.500081763307
1	0.500037266819
1	0.500149405203
1	0.500188684355
1	0.500027874714
1	0.500000172849
-1	0.500056325625
1	0.500210384273
-1	0.500143010902
-1	0.50009096238
1	0.500269710869
1	0.50003847981
1	0.500202441055
1	0.50027866758
1	0.50007307792
-1	0.500031732372
1	0.500013917169
1	0.500063467742
1	0.500006562319
-1	0.500295952788
1	0.500029893774
-1	0.500035928099
1	0.500099851383
1	0.500056193246
1	0.500055693598
1	0.500109143155
1	0.500017909468
-1	0.500069658867
-1	0.500064161515
1	0.500048749248
1	0.500002038667
1	0.500004877215
-1	0.500066274788
1	0.50004303095
1	0.5000343895
1	0.500062151248
-1	0.500104129367
1	0.500492302373
-1	0.500098864394
1	0.500013224615
-1	0.500014722149
1	0.500086139964
1	0.500078301898
1	0.50011584164
1	0.500052376234
-1	0.500032197185
1	0.500175190245
1	0.500094686033
-1	0.500033021649
-1	0.500043681553
-1	0.500052477126
-1	0.500063489035
1	0.500033465066
-1	0.500030779446
-1	0.500133132456
1	0.500075293686
1	0.500077721147
-1	0.500087360179
1	0.500029296929
1	0.500087276904
1	0.500052903736
1	0.500135416908
1	0.500091260117
1	0.500036875419
-1	0.500189928258
1	0.500121528646
-1	0.500031977466
1	0.500029696236
-1	0.500046981663
1	0.500059343224
1	0.500146592725
1	0.500095048276
1	0.500066313068
-1	0.500176854851
-1	0.50000684429
1	0.50004373532
-1	0.500037510362
-1	0.500011740527
-1	0.500138206809
1	0.500116770098
1	0.500025043808
-1	0.500094286351
-1	0.500281713348
1	0.500078295518
1	0.500000516137
1	0.500015667935
1	0.500054935555
-1	0.500058008157
1	0.500007569293
-1	0.50001104317
-1	0.500198011823
-1	0.50005798232
1	0.500146145337
-1	0.500044516053
1	0.50002357588
-1	0.500035236142
1	0.500171188843
1	0.500150025354
1	0.500120317085
1	0.500036807098
1	0.500199165375
1	0.500048611662
1	0.500094066509
1	0.50011952688
1	0.500036272798
1	0.500025443756
1	0.500044132398
1	0.500112336166
1	0.500119944453
1	0.50009360005
1	0.500052968051
-1	0.500181403803
-1	0.500148694276
1	0.500133117491
1	0.500108131387
-1	0.500008189976
1	0.500111243502
-1	0.500019775537
1	0.500014278992
1	0.50001948587
1	0.500116840988
1	0.500133642024
1	0.500113443234
-1	0.500011355219
-1	0.500095021603
1	0.500136585552
-1	0.500007549103
-1	0.500031084684
1	0.500043672243
1	0.500101279734
-1	0.5000630661
-1	0.500062766552
-1	0.500032643312
-1	0.500110071145
1	0.50006446903
1	0.500049152818
1	0.500159857334
1	0.500165987224
1	0.50005932173
-1	0.500077470663
1	0.500090353758
-1	0.500023808689
-1	0.500018914181
-1	0.500100929686
1	0.500047662228
-1	0.500093150482
1	0.500128402413
1	0.50010588925
-1	0.500110652922
-1	0.500074407883
1	0.500200733797
1	0.500090223196
1	0.500082884725
1	0.500019248567
1	0.500108948713
1	0.500165641918
1	0.500005726267
-1	0.500091439213
1	0.500231218606
1	0.500068550181
1	0.500153402497
1	0.500167905389
-1	0.500105581977
1	0.500266877327
1	0.500178618302
1	0.500113397053
-1	0.500124811277
1	0.500013897849
-1	0.500000124319
-1	0.500036305474
1	0.500211510144
1	0.500081792774
1	0.500056637829
1	0.500188589286
1	0.500047741731
1	0.500049919075
-1	0.500029283495
1	0.500030126594
1	0.500043198028
1	0.500140207272
1	0.50002800211
1	0.500274566629
-1	0.500014898367
1	0.50014923028
1	0.500142556759
-1	0.500224737133
1	0.500013106156
1	0.500069638053
1	0.500019864401
1	0.500010259397
-1	0.500020262485
-1	0.500013314449
1	0.500003097356
-1	0.500051372981
1	0.500183682394
1	0.500131445859
1	0.500344409042
-1	0.500087445274
1	0.500014963386
1	0.500128694439
1	0.500230233774
1	0.50025615991
-1	0.500102094539
1	0.500072663421
-1	0.500019792631
1	0.500010609291
1	0.50004975385
1	0.500100634859
1	0.500120641832
1	0.500080947926
1	0.500062992117
-1	0.500029776974
-1	0.500071196841
1	0.500030470648
-1	0.500083683479
1	0.500112243768
1	0.500296857307
1	0.500026143959
1	0.500044010414
1	0.500110028157
-1	0.500021180081
1	0.500131986368
-1	0.500003435986
1	0.500001986003
1	0.500052470563
1	0.500035764694
1	0.500132071061
-1	0.500019260364
1	0.500084848352
-1	0.500112111797
1	0.50006105327
1	0.500013430859
1	0.500232770565
-1	0.500198854344
1	0.50001772035
-1	0.500030528536
-1	0.500026611691
1	0.500029254655
1	0.500013449137
1	0.500085984543
1	0.500187407588
-1	0.500081781083
-1	0.500018967917
1	0.500053529415
1	0.50000138722
1	0.500062915896
1	0.500063657663
1	0.500046566098
-1	0.500008959754
1	0.500024399214
1	0.500082150339
1	0.500017967713
-1	0.500070302755
-1	0.500010781215
1	0.500058138456
1	0.500095137635
1	0.500024042465
1	0.500101193232
-1	0.500001960808
-1	0.500027254441
-1	0.500056337377
1	0.50010549732
-1	0.500026828003
-1	0.500075881298
1	0.500030009329
1	0.500099404204
1	0.500093121768
1	0.500044600322
1	0.500119610678
1	0.50003730163
-1	0.500018492121
-1	0.500068247518
1	0.500052762761
-1	0.500024848266
-1	0.500062394869
1	0.500034784354
1	0.500015208843
1	0.500156552481
-1	0.500091305051
1	0.500084220346
1	0.50013725549
1	0.500084034258
1	0.500027387685
-1	0.500105249747
-1	0.50002146166
1	0.500076806219
1	0.500004170535
1	0.5000834533
1	0.50007648171
-1	0.50004976341
1	0.500122904934
-1	0.50000061812
1	0.500019661924
1	0.500042481029
1	0.500046374508
1	0.500227414691
1	0.500092466394
-1	0.500085084321
-1	0.500033558351
1	0.500003565351
1	0.500131070431
-1	0.500122517796
1	0.500121377778
1	0.500012566228
1	0.500148398198
1	0.500228939592
1	0.500064980877
1	0.500070085902
1	0.500098038079
1	0.500096847292
1	0.500077051176
1	0.500045605954
1	0.500203804897
1	0.500144447998
-1	0.500031823689
1	0.500077395944
1	0.500019164014
1	0.500145758623
1	0.500097148616
-1	0.500010996287
-1	0.500059511284
1	0.500091014381
1	0.500021198011
1	0.500170635457
-1	0.500156328958
1	0.500169860344
1	0.500126256689
1	0.500041669958
1	0.500059114304
-1	0.500083543697
-1	0.50005470517
1	0.500021375755
1	0.500231878379
1	0.500141838239
-1	0.500123691416
-1	0.500004870845
-1	0.500027085361
1	0.500082013121
-1	0.500034842928
-1	0.500108986181
1	0.500286943027
1	0.50006734951
-1	0.500029944679
1	0.500001776542
1	0.500036958001
-1	0.500156325107
-1	0.500024199054
1	0.500208275103
-1	0.500087470147
1	0.500047741485
1	0.500194980208
1	0.500065133343
-1	0.500002115431
1	0.500102327825
1	0.500116142433
1	0.500109049838
1	0.500078482143
-1	0.500010028317
1	0.500328378872
-1	0.50000677483
1	0.50016166264
1	0.50010654749
-1	0.500028425077
1	0.500071234635
1	0.50011021826
1	0.500073894341
-1	0.500106454184
-1	0.500040858846
1	0.500062998228
-1	0.500117423794
1	0.500046685644
-1	0.500035035606
1	0.500045667991
-1	0.500003361866
1	0.500022364712
1	0.500185665751
-1	0.500125400039
1	0.500057314501
1	0.500096646266
1	0.500024491561
1	0.500061046683
1	0.500212967357
-1	0.500021891101
1	0.500163955871
-1	0.500008620232
1	0.500131747818
-1	0.500044847656
1	0.500002842252
1	0.500041794993
1	0.500183586389
1	0.500065159541
1	0.500125885494
1	0.500182701027
-1	0.500057101164
1	0.500023076286
-1	0.500015561599
-1	0.500041891808
1	0.500168754429
1	0.500121184385
1	0.500155033017
1	0.500172118023
1	0.500101403164
1	0.50008121338
1	0.500085152349
-1	0.500008819595
1	0.50004360504
1	0.50002072904
-1	0.500203557637
-1	0.500191036002
-1	0.50000536968
-1	0.500008789418
1	0.500008191781
-1	0.500027367343
-1	0.500062812106
-1	0.500033244268
1	0.500005403963
1	0.500215357131
-1	0.500009575616
-1	0.500021365674
1	0.500067721642
1	0.500125616054
1	0.500095850843
-1	0.500007449799
-1	0.50004364554
1	0.500068369363
-1	0.500137399775
1	0.500129077683
1	0.500078162958
1	0.500056075395
-1	0.500187333765
1	0.500107980177
1	0.50008631037
-1	0.500049677793
1	0.500076249994
1	0.500270702393
-1	0.500042120765
1	0.500168682641
1	0.500093017202
1	0.500010133925
1	0.500101107825
-1	0.500185120549
-1	0.50007242938
-1	0.500032330786
1	0.50001582656
1	0.500058285662
1	0.500065477121
1	0.500083795485
1	0.500042200765
1	0.500101994283
1	0.500111988475
1	0.500011735703
-1	0.500077163228
1	0.500192958479
1	0.500035433328
1	0.50024347778
1	0.500052288407
-1	0.500053471243
-1	0.500104836481
-1	0.500049749822
1	0.500043514675
1	0.500003097356
-1	0.500143922419
-1	0.500071173261
1	0.500046893914
-1	0.500030723325
1	0.500126897277
1	0.500056174326
1	0.500026926318
1	0.500128478495
1	0.500105840924
1	0.500221848759
1	0.500130787972
1	0.500084251542
1	0.500003077108
-1	0.500080872295
1	0.500177204888
-1	0.500025618601
-1	0.500078358638
-1	0.500022669416
1	0.50010931166
1	0.500183665863
1	0.500096271157
1	0.500094134217
1	0.500042047487
1	0.500117275133
1	0.500069187068
1	0.500240269745
1	0.500020864867
1	0.500038638579
1	0.500217971693
-1	0.500147529915
1	0.50003988785
1	0.50000851832
1	0.500172090493
1	0.500084516768
1	0.500034504958
1	0.500027407008
-1	0.500022318544
-1	0.500090457439
-1	0.500094086756
1	0.500035618222
1	0.500050181722
1	0.500009142169
1	0.500103099677
-1	0.50002141736
-1	0.500026105465
1	0.500216064738
-1	0.500006573924
1	0.500065491757
-1	0.500066904444
1	0.500057958984
Accuracy	0.659010600707