Sentence	CorDist	DP	Ddensity	DisCon	L	Pnoun	SC	OOV	AvgWrdLen	FlipCount	SubjectiveCount	SubjectiveScore	Perplexity	SCI_label
613	0	4	1	0	2	1	0.5	0.3333333333	5	0	1	0.13	300	1000
18	0	2	0.58	1	12	0.17	1.75	0.2	6	1	2	0.63	83.6956531048	1000
652	0	1	1.4	0	5	0.6	1.8	0.2380952381	4	0	1	0.38	300	1000
33	5	4	0.73	0	11	0.36	1.45	0.2702702703	5	0	1	0.13	28.5817087212	1000
592	0	1	1	0	3	0.67	1	0.25	4	0	0	0	300	1000
760	0	3	1.2	0	4	0.4	1	0.36	5	0	2	0.63	139.496834112	1000
721	0	4	2	1	2	0.5	0.5	0.4	6	0	1	0.13	113.531731093	1000
664	0	1	1	0	2	1	0.5	0.25	7	0	0	0	300	1000
737	0	5	2	0	2	0.5	0.5	0.4545454545	5	0	0	0	12.0636714185	1000
719	0	3	0.86	1	7	0.71	1.29	0.5714285714	5	0	0	0	50.4513600065	1000
620	0	0	1.33	1	2	0.33	0.5	0.4166666667	6	0	0	0	128.608212174	1000
663	0	6	0.8	0	5	0.8	1.4	0.3076923077	4	0	1	0.13	214.859746302	983.72
733	0	3	1.2	0	7	0.2	0.43	0.2727272727	5	0	1	0.63	300	929.4857142857
777	0	1	0.75	0	4	0.5	0.5	0.2631578947	5	0	1	0.38	57.1115035313	872.6
687	0	1	1.33	0	3	0.67	1	0.21875	5	0	0	0	32.1528491581	865.1666666667
326	20	3	1.05	1	22	0.27	2.09	0.1470588235	3	2	4	1.19	83.1156190287	833.3636363637
49	0	4	0.89	0	18	0.39	2.5	0.2058823529	4	0	1	0.13	54.263313716	831.0185185185
79	0	2	0.75	0	12	0.25	1.75	0.6363636364	5	2	3	0.38	75.9004670677	824.0833333333
701	0	2	0.6	0	5	0.6	1.2	0.1363636364	4	0	0	0	66.831031625	823.8
28	0	3	0.82	2	11	0.18	1.45	0.375	5	1	3	0.71	67.3850110417	814.5454545455
908	0	5	1.2	2	4	0	0.75	0.3333333333	5	0	0	0	26.2357307159	813.0833333333
596	0	4	0.5	0	3	0.5	1	0.3333333333	4	0	1	0.63	14.1868457693	812.0666666667
317	6	4	0.96	1	24	0.11	2.29	0.3157894737	5	0	5	1	55.3347259946	800.7083333334
74	4	10	0.87	2	14	0.2	2	0.3214285714	4	0	4	2	26.2121391902	790.0357142857
990	0	2	1.2	0	5	0.4	2	0.2352941176	4	0	0	0	111.3491143	768.56
794	0	2	1.4	0	5	0.6	1	0.347826087	7	0	1	0.13	300	767.6666666667
216	0	6	0.86	1	21	0.23	3.19	0.3125	4	2	3	0.54	27.6180394801	764.2380952381
584	0	1	0.67	0	4	0.33	0.25	0.4	4	0	1	0.63	55.8465505486	750.2
677	0	5	1.14	0	5	0.29	1.2	0.4444444444	4	0	1	0.13	196.303642709	748
402	0	7	1	1	11	0.18	1.18	0.1111111111	4	1	4	1.13	17.6350734608	747.7575757576
880	2	5	0.71	0	10	0.43	0.8	0.3333333333	5	0	0	0	300	736.5
556	0	2	1.25	0	6	0.25	0.33	0.1666666667	5	0	0	0	45.1465313962	729.8333333333
77	6	2	0.78	2	23	0.35	2.22	0.5	5	0	1	0.63	55.5622892067	721.7391304348
141	2	4	1	0	12	0.25	1.25	0.4482758621	5	1	2	0.25	56.0249302322	721.35
849	0	2	1.33	0	3	0.33	0.33	0.3125	11	0	0	0	300	704.1333333333
114	4	1	0.4	0	10	0.7	2.3	0.2941176471	3	0	0	0	300	698.64
2	9	3	0.9	2	21	0.1	2.24	0.3	4	0	2	0.63	21.4770890671	698.1714285714
590	0	7	1	1	13	0.33	1.08	0.2727272727	3	0	3	0.75	27.6219140001	694.0256410256
205	0	7	0.71	3	30	0.21	2.97	0.2424242424	4	2	4	1.25	20.7124756378	688.1466666667
670	3	3	1	1	13	0.5	0.15	0.4	5	0	1	0.13	300	686.3461538462
29	0	3	0.96	3	28	0.11	2.64	0.56	5	1	4	1.06	99.1211876528	683.3571428571
1	10	4	0.78	0	24	0.33	1.63	0.4285714286	4	1	3	0.88	45.6646749672	681.9861111111
750	0	7	1.1	0	9	0.5	2	0.2631578947	3	0	1	0.13	153.512410128	681.8888888889
718	0	6	1	2	10	0.75	0.3	0.3571428571	5	0	1	0.63	18.0464501654	675.5333333333
395	0	8	1	0	10	0.3	1.2	0.4444444444	5	2	4	0.5	58.7417308849	674.36
19	0	6	1	1	23	0.17	3.26	0.2608695652	3	0	3	1	29.9615658345	670.6231884058
10	0	2	0.73	0	15	0.13	1.4	0.4375	5	2	5	0.73	51.9809269929	670
433	0	10	1.25	0	12	0.08	1.08	0.2962962963	4	0	3	0.88	19.0615199121	668.25
30	0	8	1	1	10	0.2	1.4	0.25	3	0	1	0.5	20.5975824101	667.1
984	5	3	1.5	1	6	0.5	1.33	0.5	4	0	1	0.38	155.521279904	656.5416666667
1022	0	6	0.8	1	5	0.4	0.8	0.4444444444	5	1	2	0.69	217.461182573	651.45
501	0	4	1.29	0	14	0.14	1.64	0.4285714286	4	0	1	0.13	34.9337587488	645.4761904762
513	0	2	0.71	1	14	0.36	2.07	0.3333333333	5	0	2	0.5	79.030361317	642.7619047619
926	0	6	2	0	2	0.5	0.5	0.1739130435	6	0	1	0.63	13.7939083246	637.5
156	0	2	0.62	0	21	0.33	2.19	0.2307692308	4	1	2	0.25	57.5978832462	632.7238095238
298	0	5	0.94	2	18	0.22	1.78	0.3	5	1	4	0.59	87.0290025691	630.0555555555
610	0	5	1.4	2	5	0.4	3	0.3333333333	5	0	1	0.38	24.289567261	626.72
820	0	7	1	1	6	0.67	1.5	0.4444444444	4	0	0	0	56.4266719226	624.5
32	0	4	0.84	2	19	0.26	1.53	0.3333333333	4	0	1	0.25	24.6264669404	623.0701754386
538	0	2	0.88	1	17	0.35	1.76	0.4545454545	5	0	1	0.38	85.0803116603	623
762	3	5	0.63	0	7	0.5	1.71	0.2105263158	4	0	1	0.25	115.491816257	621.8
31	3	3	0.72	1	18	0.33	1.72	0.25	5	0	3	0.5	66.9879504471	621.4444444445
267	20	3	0.97	3	29	0.21	2.48	0.4666666667	5	0	3	1.5	72.9877653348	619.1379310345
966	0	3	1.5	0	4	0	0.75	0.3076923077	5	0	0	0	45.9922681289	616.75
16	17	6	1	5	36	0.25	2.67	0.1153846154	3	1	3	0.79	40.321641653	614.9305555556
9	0	3	0.75	2	12	0.08	2.42	0.1142857143	5	1	4	0.94	50.0975656513	613.9166666667
919	0	6	1.67	0	3	0.67	0.67	0.45	5	0	0	0	300	612.8
430	0	3	0.87	0	15	0.2	1.53	0.2972972973	4	1	2	0.56	32.4740419597	607.8222222222
56	0	5	1.18	2	11	0.27	1	0.3333333333	4	1	2	0.19	28.3599799416	607.3636363637
161	0	2	0.69	1	26	0.38	2.85	0.2692307692	6	2	7	2.46	103.826230997	606.5128205128
986	0	3	0.75	0	4	0.5	1.5	0.5161290323	4	0	1	0.13	180.949669874	597.4
23	0	6	0.53	1	21	0.24	1.67	0.2608695652	4	1	3	1.04	37.1667390716	597.0476190476
325	0	2	1.11	1	18	0.26	1.28	0.3461538462	4	0	1	0.38	30.4847662494	595.3
116	0	1	0.57	0	14	0.14	2.21	0.3333333333	5	0	3	1.25	61.8349017412	591.1428571429
617	0	7	1.13	1	10	0.38	1	0.5454545455	5	1	2	0.13	30.1222312193	588.66
594	0	6	1	1	8	0.5	0	0.5454545455	4	0	1	0.13	43.7066607442	585.2916666667
163	0	2	0.68	0	19	0.26	2.58	0.2857142857	5	1	3	0.54	48.5764386355	584.2315789474
780	0	4	1	0	7	0.5	0	0.28	2	0	0	0	94.70121553	584
136	0	5	0.73	4	15	0.2	2.47	0.7272727273	5	1	4	0.88	60.3749723112	583.8666666667
441	0	5	1.18	0	22	0.27	1.59	0.2608695652	4	0	3	1	22.3939193595	581.8068181819
503	0	2	1	1	13	0.31	1.23	0.3703703704	4	0	1	0.63	55.30660101	579.8205128205
795	0	6	0.33	0	6	1	2.5	0.5	6	0	0	0	176.38732696	579.4
612	0	6	0.75	1	8	0.5	2.75	0.6	4	1	2	0.63	34.0421847264	577.0833333333
211	8	3	0.87	1	15	0.33	1.67	0.3125	3	1	2	0.56	32.7492172844	575.0933333333
839	0	9	0.88	0	10	0.25	1	0.3	3	0	2	0.5	11.3937773628	572.4
888	8	3	0.68	1	18	0.32	1.67	0.625	4	0	3	0.88	168.335675327	572.0833333333
585	0	2	1.09	0	11	0.36	1.55	0.2647058824	5	2	4	0.88	72.3612810631	571.8545454545
1014	0	4	1	0	12	0.22	1.08	0.3333333333	4	0	2	0.38	300	571.5833333333
658	0	4	1	0	5	0.5	0.6	0.4666666667	6	0	0	0	222.718648942	570.6
64	5	5	0.79	1	28	0.26	1.11	0.3157894737	4	2	3	0.58	24.1409669624	568.5
711	0	5	1.17	0	6	0.17	1.83	0.5	4	0	0	0	281.983719607	567.3
12	0	6	1.14	2	14	0.29	1.43	0.3	4	0	1	0.25	18.0317316027	566.7321428572
767	0	4	0.57	1	7	0.86	1.43	0.2666666667	4	0	0	0	123.832006904	565.2571428571
763	0	4	1.33	1	6	0.67	0.17	0.1176470588	4	0	1	0.5	38.773787166	564.0833333334
189	17	4	1	6	32	0.18	2.31	0.3636363636	3	4	6	1.71	60.6148946965	563.296875
666	4	0	0.75	0	12	0.58	1.5	0.3181818182	5	0	0	0	300	556
1029	0	9	1	0	7	0.2	0.43	0.380952381	4	0	0	0	49.2601359523	555.7142857143
1006	0	7	1	1	5	0.17	1.6	0.4864864865	4	0	0	0	7.9960746717	555.4
730	0	0	1.5	0	4	0.5	0.75	0.2	4	0	0	0	10.3481374251	552.45
289	0	2	0.73	1	11	0.36	1.55	0.4	5	1	2	0.31	160.810659421	552.2181818182
100	0	4	0.91	1	11	0.27	1.36	0.2222222222	5	1	4	0.69	73.6650052782	551
186	0	2	0.64	0	11	0.18	1.73	0.2162162162	5	1	3	0.5	90.3856633377	548.4545454545
598	0	3	0.74	3	27	0.33	2.56	0.2592592593	4	1	2	0.81	29.0326926032	547.3950617284
203	0	4	0.53	2	15	0.33	2.53	0.3181818182	6	0	2	0.38	46.2422037567	546.9333333334
586	0	3	0.73	3	15	0.2	2	0.4137931034	5	0	1	0.25	81.9054807525	543.5333333333
852	0	5	1.88	0	7	0.38	1.71	0.3333333333	3	0	0	0	28.5077527229	543.3428571429
458	6	5	1.03	2	33	0.24	2.61	0.3214285714	3	0	4	1.38	31.870854444	539.7777777778
256	0	9	1.14	2	14	0.21	1.57	0.0909090909	3	1	2	0.38	22.6306429307	539.2142857143
421	6	6	0.86	3	14	0.29	1.71	0.5	4	1	4	1.13	32.3894698174	537.3928571429
61	0	8	1	2	20	0.2	2.15	0.2058823529	4	3	4	0.81	30.456559974	537.1666666667
151	0	5	0.96	3	23	0.22	3.96	0.5	5	1	3	0.67	34.9797214248	534.3188405797
103	8	2	1.19	1	30	0.13	2.23	0.3103448276	3	1	4	0.91	17.9216109521	533.9
251	9	4	0.9	5	41	0.34	4.05	0.0714285714	4	0	1	0.63	40.5957573576	533.674796748
449	0	2	0.88	0	16	0.19	2.31	1	6	0	1	0.25	90.7688515011	531.8375
866	0	2	1	2	14	0.43	1.43	0.4	5	0	2	1.13	195.097167427	531.2857142857
657	0	4	0.8	0	5	0.8	2	0.3076923077	4	0	2	0.5	20.573363156	529
981	0	6	1.5	0	4	0.5	1	0.3636363636	7	0	1	0.13	245.052751952	526.45
708	0	5	1.4	0	7	0.2	0.57	0.1818181818	5	0	1	0.88	46.8692607097	526.3428571429
115	0	3	0.9	2	21	0.24	1.52	0.4117647059	4	2	3	0.92	52.5497967236	522.6190476191
199	0	3	0.96	2	23	0.3	2.48	0.1944444444	5	2	4	1	80.5924086962	518.2695652174
865	0	6	0.83	0	6	0.17	1.17	0.2307692308	4	0	1	0.38	178.239891883	518
659	0	6	1	0	6	0.5	1.5	0.4482758621	5	0	1	0.25	167.26503117	517
121	0	9	0.73	0	17	0.13	1.53	0.3846153846	3	0	1	0.5	19.5165161078	515.6176470588
764	2	1	1	0	6	0.5	0	0.4	5	0	0	0	300	515.3
636	0	4	0.88	1	8	0.38	1.25	0.4	4	0	0	0	300	512.9583333333
647	0	3	0.83	0	6	0.33	1	0.3571428571	4	0	0	0	74.6469645705	510.8666666667
935	0	8	1.14	1	7	0.71	1.14	0.4583333333	5	0	0	0	33.3051463735	510.5238095238
1036	0	5	1.25	0	4	0.5	1	0.5384615385	6	0	1	0.5	300	508.5625
534	0	1	0.75	1	16	0.38	1.5	0.2857142857	6	1	3	0.54	41.5178061755	505.46875
557	29	4	0.92	3	38	0.24	2.5	0.375	4	3	8	1.69	42.9801280665	503.3223684211
376	0	5	0.64	0	11	0.27	1.36	0.48	5	0	1	0.38	66.2559167016	502.0681818182
520	0	2	1	2	15	0.4	1.53	0.4230769231	5	0	0	0	217.275181003	500.9
71	8	4	0.79	1	33	0.27	2.73	0.2727272727	5	2	5	1.83	70.2518849968	498.7212121212
403	0	7	0.7	0	10	0.3	1.3	0.4210526316	4	0	3	1.88	81.7400563966	498.625
689	0	10	1.17	0	5	0.33	1.2	0.4166666667	4	0	0	0	43.8633255238	498.4
494	9	4	0.95	2	20	0.35	1.5	0.5	5	2	4	0.91	55.406582088	498.13
736	0	1	0.86	0	6	0.57	1	0.2352941176	6	0	1	0.13	300	498.0666666667
944	0	5	1	1	13	0.43	1.38	0.3333333333	4	0	0	0	68.1374780854	498
809	0	1	1.5	2	11	0	0	0.3076923077	4	0	1	0.63	96.2871580969	497.3939393939
231	0	4	0.83	1	18	0.28	2.06	0.3714285714	5	0	4	1	41.4142503452	497.2361111111
7	0	2	0.74	1	19	0.26	2.47	0.4	5	1	4	0.88	154.255541079	497.1578947368
1030	0	2	1.25	1	7	0.25	0.29	0.4761904762	5	0	0	0	27.5902973198	496.3928571429
457	0	1	0.73	2	15	0.33	2.13	0.1818181818	6	2	3	1.04	132.739009151	495.4533333333
779	1	4	1	1	14	0.23	1.29	0.3703703704	5	1	3	0.71	67.293246259	494.8571428572
11	4	7	1.04	4	40	0.19	1.33	0.5454545455	4	2	7	1.27	73.4211940339	493.76875
968	2	3	1.29	1	12	0.29	0.67	0.3333333333	3	0	0	0	30.5053112591	493.5
196	7	5	0.82	3	33	0.24	2.45	0.3214285714	4	0	2	0.88	32.9308332307	493.0202020202
555	5	5	0.67	0	12	0.25	2.08	0.5	3	0	0	0	24.5121765073	491.1666666667
227	0	4	0.73	6	33	0.33	2.61	0.21875	4	0	2	0.88	60.7811747821	488.296969697
564	10	7	0.86	0	13	0.29	2.31	0.2	4	0	2	1.13	25.9171421278	484.8461538462
223	0	4	0.73	1	17	0.27	1.59	0.3	4	0	1	0.13	46.7874773725	484.7941176471
873	0	7	1.5	0	3	0	0.67	0.4705882353	5	0	1	0.13	19.9143790608	482.4
799	2	4	0.73	2	14	0.47	1.36	0.5	5	1	2	0.13	151.229285465	481.6666666666
158	10	6	1.13	4	31	0.25	0.26	0.3611111111	4	0	1	0.63	35.4468758681	480.5967741936
678	0	4	0.71	1	7	0.43	1.57	0.55	4	0	1	0.25	287.712398562	480.0571428571
160	0	5	0.83	2	12	0.25	1.83	0.275862069	5	0	1	0.5	73.3146604601	479.9666666667
832	0	5	0.29	1	7	0.86	2.14	0.4285714286	5	0	1	0.13	300	479.8571428572
159	2	4	1.1	0	20	0.2	2.25	0.2777777778	4	1	3	0.71	26.271991039	479.7
47	16	4	0.94	2	18	0.11	1.94	0.3636363636	5	0	5	1.88	46.4656410849	479.4814814815
529	0	4	0.68	1	19	0.37	2.21	0.56	5	1	2	0.44	21.9918658593	478.5789473684
898	0	5	1.25	0	4	0.5	1.5	0.5	3	0	1	0.25	40.4457202921	478.55
675	0	5	1	1	9	0.38	1.11	0.5882352941	5	0	2	0.5	123.509114725	477.7111111111
247	0	5	0.81	1	16	0.31	2.13	0.4615384615	5	0	3	1.13	61.7559755843	476.1875
1024	0	4	1.17	0	7	0.5	1.14	0.4117647059	4	0	0	0	119.008502025	475.1714285714
691	8	3	0.8	2	19	0.4	0.79	0.3	4	1	4	0.69	49.5540389741	474.4210526316
551	0	6	0.89	5	37	0.22	1.95	0.3125	5	1	4	0.75	45.1385050026	474.1513513514
975	0	5	1.5	1	7	0.25	0.43	0.1818181818	6	0	1	0.63	48.3671431828	474.1428571429
467	0	8	1	0	14	0.29	1.64	0.275862069	5	0	3	0.88	48.3297520559	473.8392857143
977	0	4	0.71	0	7	0.57	1.14	0.4444444444	4	0	0	0	263.327698593	473.6096571429
742	3	4	1.17	2	15	0.17	0.33	0.3846153846	4	0	1	0.63	37.2175254928	473.4666666667
956	0	14	0.57	1	7	0.71	1.71	0.1612903226	4	0	1	0.5	110.244951506	472.5714285715
604	0	6	0.46	0	12	0.77	1.92	0.5	4	0	1	0.38	300	470.3541666667
561	0	9	1.22	1	13	0.33	0.77	0.3684210526	5	0	0	0	40.1652276007	469.1794871795
237	0	5	0.93	1	14	0.14	3.21	0.2608695652	4	0	1	0.75	33.7213924218	466.5857142857
696	0	8	1	0	8	0.25	0.38	0.32	4	0	0	0	122.719498423	464.53125
1016	0	3	1.5	0	4	0.75	0.75	0.3	5	0	0	0	108.667807869	464.5
142	20	5	0.91	2	22	0.18	1.64	0.4482758621	5	1	3	0.54	81.1841762252	464.2121212121
490	9	5	0.83	1	31	0.28	2.77	0.2083333333	4	0	2	1	45.384953588	463.8467741936
747	0	1	0.67	1	8	0.67	1.63	0.35	9	0	0	0	300	461.475
858	0	2	1	1	8	0.38	1	0.3043478261	6	0	0	0	300	459.53125
65	0	4	0.82	3	30	0.36	0.57	0.3333333333	3	0	3	0.88	20.6096310758	458.5333333333
192	0	4	1.11	0	22	0.33	1.41	0.25	4	0	0	0	68.1724511462	457.2545454545
235	0	6	0.81	1	27	0.22	2.37	0.3636363636	4	1	3	0.63	31.5403484368	456.2777777778
971	0	2	0.83	1	5	0.5	1	0.1176470588	6	0	0	0	300	455.88
906	11	5	1	2	13	0.33	1.85	0.7	4	0	1	0.13	42.5759654213	454.4230769231
911	0	6	1.25	1	8	0.38	1.63	0.2903225806	4	0	2	0.75	58.9756234358	454.05
45	0	3	0.83	5	30	0.27	3.4	0.1666666667	5	3	5	0.75	49.7331346434	452.7
574	11	3	0.91	2	32	0.41	2.25	0.3703703704	5	2	3	0.33	71.2805843826	451.4895833333
583	0	2	0.7	0	10	0.3	1.5	0.1935483871	5	0	2	0.63	47.3168737457	451.46
967	0	6	1	0	10	0.36	1.3	0.3214285714	3	0	0	0	26.8633286726	450.74
123	8	4	0.8	0	15	0.2	1.73	0.5625	4	0	2	0.5	30.917098735	449.7833333333
259	0	6	0.86	3	35	0.26	2.74	0.2121212121	4	0	1	0.38	43.3023076941	449.2928571429
901	0	6	0.92	1	16	0.38	1.38	0.3783783784	5	0	1	0.63	73.2272994398	449.0208333333
985	0	5	1.14	0	7	0.57	1.14	0.3461538462	4	0	0	0	37.6324785014	448.6857142857
221	20	5	0.97	2	35	0.19	3.37	0.1666666667	3	2	5	1.05	42.0998895886	447.9657142857
34	0	3	0.94	3	31	0.19	2.94	0.25	4	1	3	0.54	36.2355453931	447.6129032258
278	0	6	0.7	1	30	0.3	2.87	0.3333333333	4	3	5	1.6	97.4362130946	447.0466666667
766	9	7	0.69	1	13	0.54	1.77	0.5238095238	4	0	2	0.75	79.721286324	446.8615384615
442	0	4	0.71	5	38	0.26	2.32	0.380952381	5	1	6	1.13	46.5131482163	446.5684210526
309	27	3	0.78	3	36	0.19	2.44	0.44	5	4	8	2.09	36.932282341	443.8333333333
607	4	5	1	1	17	0.27	0.76	0.5454545455	4	1	2	0.13	79.2803404925	443
126	9	4	0.8	1	15	0.33	1.87	0.3571428571	5	0	2	1.38	34.1691112631	442.9666666667
322	15	3	0.85	2	34	0.24	2.26	0.4074074074	5	2	4	2.09	39.2654918186	442.580882353
244	0	7	1	2	14	0.29	1.64	0.28	4	0	2	1.13	29.6795299647	441.8
21	5	4	0.58	0	12	0.25	2.17	0.32	2	0	1	0.38	23.4097470815	441.25
900	3	6	0.9	0	9	0.2	1.33	0.4	4	0	0	0	300	440.75
685	0	3	1	1	7	0.71	1.29	0.3333333333	6	0	0	0	42.4384548735	440.3714285714
283	4	9	0.93	1	15	0.2	1.53	0.2333333333	4	0	0	0	30.6209617615	439.4444444444
547	10	3	0.86	2	39	0.29	0.49	0.4761904762	5	4	8	1.97	50.8830481943	438.358974359
472	0	1	0.7	0	19	0.4	1.74	0.3076923077	5	1	4	0.88	177.387687809	438.2763157895
786	0	6	1.5	0	8	0.25	2.13	0.3870967742	4	0	0	0	35.1185687592	437.55
164	0	3	0.93	3	29	0.24	2.59	0.2857142857	5	2	5	0.75	119.475166147	437.2586206897
128	0	4	0.57	2	14	0.36	1.93	0.3157894737	5	0	3	1.25	83.1394352102	437.1428571429
336	0	6	1	5	26	0.23	2.31	0.2777777778	5	0	1	0.25	39.1643209786	436.6538461539
625	5	0	0.78	0	9	0.56	3.11	0.4	5	0	0	0	300	436.4888888889
851	0	6	1	0	6	0.33	1	0.2307692308	5	0	1	0.13	32.7543580495	435.1666666667
315	0	2	0.79	0	19	0.37	1.74	0.3913043478	4	0	2	0.25	27.7756713923	432.8289473684
358	0	2	0.79	0	26	0.29	2.54	0.2121212121	5	2	4	1.19	90.8132164976	432.7692307692
62	18	5	1.24	2	38	0.08	2.92	0.2857142857	4	7	11	1.57	41.1991251121	432.7017543859
22	9	4	1.05	1	19	0.16	1.84	0.1764705882	4	1	3	1.08	40.725046641	432.652631579
639	3	6	0.86	0	14	0.43	1.93	0.3461538462	4	0	2	0.25	100.051414082	432
320	0	4	1	3	13	0.23	1.77	0.3846153846	6	1	4	1.5	108.070429282	430.2307692308
744	0	5	1.1	1	9	0.2	2.44	0.4117647059	4	0	1	0.63	70.6662255584	429.6111111111
630	2	5	1.5	1	13	0.25	0.23	0.125	3	1	2	0.63	56.2052105746	429.282051282
218	7	3	0.88	1	26	0.19	1.85	0.28125	4	2	3	0.21	26.5358588331	428.4230769231
603	0	5	0.71	0	7	0.43	2.57	0.3225806452	4	0	0	0	191.463225317	428
970	0	17	2	0	5	0.4	1.2	0.3333333333	4	0	1	0.5	60.653271957	427.65
595	0	3	0.56	1	18	0.33	2.17	0.5	5	2	3	0.67	64.6917475004	426.7444444444
709	0	1	1	2	7	0.75	0.43	0.4193548387	5	1	3	0.21	300	426.6785714286
285	1	6	0.83	4	29	0.21	1.97	0.2941176471	4	2	4	1.06	49.2310442924	426.3655172414
96	0	4	1.17	3	23	0.26	1.74	0.25	4	0	1	0.38	23.0848670743	426.0608695652
562	0	7	0.67	1	18	0.56	2	0.2258064516	6	0	4	1.25	290.701715183	425.8194444444
378	0	4	0.88	4	17	0.38	0.47	0.4444444444	5	0	3	1.25	36.9609645765	425.7882352941
728	0	3	0.89	1	9	0.44	1.67	0.3461538462	4	0	1	0.13	92.2261061284	425.6222222222
43	5	3	0.83	2	24	0.17	2	0.2692307692	4	1	2	0.25	43.273630801	425.2638888889
201	3	6	0.81	1	27	0.33	2.41	0.3076923077	4	3	5	1.05	36.6971564029	424.7259259259
811	0	4	1.25	2	12	0.5	2.5	0.0625	3	0	1	0.13	28.1238323477	422.8333333333
276	0	4	0.91	1	13	0.27	1.38	0.3333333333	3	0	1	0.13	87.5711317276	422.7384615385
85	0	4	0.91	2	22	0.27	2.68	0.2857142857	4	1	4	0.53	50.3653397782	422.625
519	22	6	0.75	1	24	0.25	2.17	0.9473684211	5	0	1	0.63	40.4075790037	421.6145833334
137	0	5	0.84	1	19	0.26	1.63	0.4166666667	3	1	3	1.17	40.598815777	421.5964912281
867	0	5	1	1	9	0.71	0.78	0.375	7	0	0	0	300	420.6388888889
3	0	6	0.82	1	22	0.32	1.77	0.3846153846	4	1	2	0.44	26.530569412	419.6727272727
135	0	5	0.88	2	16	0.25	1.69	0.15	5	0	2	0.63	40.1059786334	419.6375
1042	0	11	0.8	0	7	0.4	0.57	0.2941176471	3	0	0	0	16.3571301808	419.2142857143
448	3	3	0.73	0	15	0.2	2.13	0.4	4	1	4	1	66.0595226607	418.48
311	3	6	1	3	31	0.13	5.23	0.3333333333	4	3	5	1.25	28.2134803583	418.0322580645
270	0	8	0.92	1	12	0.25	1.92	0.4285714286	4	0	1	0.63	17.0849077534	417.3166666667
371	9	4	0.72	3	30	0.14	2.1	0.25	5	1	2	0.19	91.6191574042	415.6888888889
439	0	6	0.81	1	21	0.38	2.1	0.3947368421	4	1	4	0.75	56.9234383085	415.6380952381
280	0	6	1.27	0	11	0.18	1.82	0.2	3	0	2	0.25	22.2114504621	415.5272727273
101	7	6	1.1	0	10	0.3	1.4	0.34375	3	0	2	0.25	11.1528871108	415.22
775	0	9	1.25	1	8	0.38	1.5	0.4482758621	3	0	2	0.63	50.7964698829	415.21875
665	2	3	1.5	1	10	0	0.3	0.25	3	0	1	0.13	202.882595317	415.16
105	4	2	0.83	1	30	0.17	2.87	0.2307692308	4	2	3	0.38	52.8660274076	415.0066666667
941	0	5	0.89	0	8	0.56	1.88	0.375	5	0	1	0.25	124.180184603	414.9
816	0	4	0.83	0	5	0.5	1	0.4761904762	5	0	1	0.13	300	414.84
57	0	7	1	0	16	0.19	2.56	0.3125	4	1	2	0.19	28.47371939	414.25
133	0	7	0.92	1	12	0.17	1.75	0.1764705882	4	2	3	0.5	26.8447593857	414.05
48	0	6	0.97	1	29	0.31	3.14	0.2272727273	4	1	3	1.21	41.1784635553	413.5862068965
374	0	1	1.18	0	11	0.27	1.27	0.3	5	1	3	0.29	59.9585355099	412.7272727273
130	12	7	0.81	0	36	0.31	2.53	0.2631578947	4	0	4	1	58.570949937	412.1222222222
4	10	6	0.9	5	39	0.15	3.18	0.4545454545	4	1	8	1.81	41.7019953986	411.9846153846
455	0	4	0.81	0	21	0.29	2	0.2352941176	3	0	1	0.13	45.8119562398	411.6349206349
20	11	4	0.96	3	28	0.14	2.14	0.3181818182	4	1	4	0.44	52.3523356549	411.55
228	6	4	1.07	3	14	0.14	1.71	0.5	3	0	0	0	28.2303607036	411.2619047619
549	0	6	0.91	1	22	0.32	2.18	0.3333333333	4	1	4	0.53	57.8595038009	411.25
275	10	4	0.88	0	24	0.16	2.21	0.4444444444	4	0	2	1.75	27.401600845	411.2083333333
671	0	8	0.8	0	10	0.4	1.5	0.1818181818	3	0	1	0.63	64.1590740842	409.72
55	0	4	0.93	0	15	0.27	1.87	0.3666666667	4	1	2	0.44	34.5685483027	409.2266666667
830	2	4	0.79	0	14	0.64	2.36	0.25	5	1	2	0.31	300	408.7285714286
91	0	4	0.88	2	17	0.35	2.47	0.303030303	4	1	3	0.63	27.1860033572	407.0294117647
108	0	4	0.92	0	25	0.16	2.12	0.5	3	1	3	0.54	26.4230185981	406.0533333333
974	0	1	0.83	0	5	0.33	1.4	0.1363636364	4	1	2	0.5	18.6332593927	405.12
209	3	4	0.82	0	33	0.27	2.82	0.4444444444	4	4	5	0.83	33.709319165	404.4848484849
13	6	4	1	3	37	0.19	2.89	0.4583333333	4	1	5	0.8	50.1401154288	404.027027027
274	0	2	0.85	0	13	0.08	2.46	0.2592592593	4	1	2	0.38	77.6045508878	403.5076923077
548	7	4	0.86	1	31	0.29	0.45	0.3461538462	4	4	7	1.46	32.2262294795	403.064516129
931	7	5	0.75	1	8	0.5	1.5	0	5	0	1	0.63	199.845625759	402.75
619	0	6	0.86	0	7	0.71	1.14	0.2	4	1	2	0.31	191.733193931	401.8571428572
370	0	5	0.86	3	35	0.26	1.91	0.25	5	3	7	0.95	34.6931025045	401.8514285714
277	10	6	0.88	1	26	0.31	1.96	0.1428571429	5	5	6	1.06	89.5803172742	401.7435897436
340	7	2	0.84	2	37	0.29	3.38	0.4848484848	5	1	5	1	51.3385394897	401.2540540541
788	0	6	1	2	28	0.21	3.75	0.375	4	2	3	0.42	97.9999372091	399.4142857143
234	0	5	0.93	1	28	0.25	2.18	0.3548387097	5	2	3	0.46	43.6558302564	398.375
35	0	3	0.88	0	17	0.35	1.71	0.1052631579	5	1	5	1.4	35.2756677487	398.0588235294
850	0	7	1.17	0	6	0.33	0.83	0.7	5	0	0	0	300	397.5666666666
475	0	4	0.45	0	11	0.27	2	0.3333333333	5	0	2	0.5	22.9290362354	397.5636363636
650	0	5	1	1	11	0.4	0.55	0.2857142857	4	0	0	0	77.614406587	397.3863636364
606	0	3	1	0	14	0.71	2	0.4166666667	5	0	1	0.38	77.8467079797	397.1428571429
90	8	3	0.9	1	21	0.24	2.29	0.4285714286	4	3	6	1.19	33.1881191208	397.1071428571
301	5	6	0.84	1	25	0.16	2.84	0.3684210526	4	3	4	0.94	38.548431435	396.7866666667
170	0	3	0.8	4	32	0.17	2.63	0.34375	4	3	4	0.81	50.5062552542	396.0729166667
802	7	3	0.88	2	11	0.38	0.73	0.375	5	0	0	0	256.857039624	395.4545454545
807	0	3	1.2	0	4	0.6	1	0.380952381	4	0	0	0	21.2208795302	395.45
26	2	4	0.88	0	25	0.16	2.28	0.5294117647	5	0	2	1.13	49.1660877771	395.2
435	9	2	0.72	1	29	0.21	2.93	0.1428571429	5	1	4	0.5	62.1771534636	394.8965517241
1021	0	2	0.71	0	7	0.43	1	0.5	5	0	1	0.13	300	393.6
328	0	6	0.86	2	22	0.23	1.91	0.2857142857	4	0	0	0	54.2483338835	393.5363636364
17	15	5	0.92	2	37	0.19	3	0.3333333333	5	1	6	1.58	26.9554606749	393.527027027
662	12	3	1.13	1	16	0.31	1.88	0.2142857143	4	3	5	0.88	95.4277738143	392.5625
350	0	3	0.93	1	15	0.33	1.4	0.347826087	5	1	3	1.04	105.097418789	392.4133333333
420	7	4	0.77	2	26	0.31	2.23	0.2727272727	5	2	4	0.72	75.2194243908	392.125
327	16	5	0.88	4	36	0.21	2.22	0.4117647059	4	2	5	1.28	39.2444767429	390.8055555555
249	20	3	0.85	2	38	0.26	1.97	0.3	5	1	3	0.54	39.289742311	389.6754385965
173	0	9	0.85	2	13	0.23	1.85	0.3	4	0	1	0.5	85.4556577503	389.6730769231
44	17	3	0.77	2	31	0.29	2.61	0.375	4	2	4	2.03	53.2026868311	389.376344086
1015	0	7	1.46	0	13	0.69	2.23	0.2142857143	3	0	1	0.25	58.0013731109	388.9423076923
834	0	3	1.11	0	10	0.33	1	0.25	4	0	0	0	63.5141138042	386.8333333333
828	0	6	1	0	9	0.5	0	0.2	5	0	3	1.5	63.1763995437	385.8611111111
178	16	3	0.97	3	33	0.24	2.18	0.3928571429	5	0	3	1.38	60.1412468159	385.8484848485
756	0	8	1.25	0	8	0.38	1.63	0.625	4	0	0	0	9.3421019107	385.525
924	0	4	0.71	1	7	0.57	1.14	0.3529411765	5	0	0	0	181.391810092	385.0714285714
661	0	7	1	1	12	0.5	0	0.3333333333	4	0	1	0.38	34.948369387	384.8333333334
913	0	3	1.25	0	4	0.5	1	0.4230769231	5	0	0	0	7.473491809	383.95
345	0	5	0.82	0	11	0.18	2	0.5789473684	3	0	1	0.13	21.9642316673	383.8
111	0	2	0.8	2	10	0.1	1.9	0.3333333333	6	0	0	0	18.1645925985	382.42
197	12	5	0.82	1	22	0.32	2	0.25	4	0	2	1.13	22.1000240772	382.3068181818
821	0	7	0.58	0	11	0.5	1.55	0.3448275862	5	0	0	0	146.08634756	382.2045454545
787	0	3	1.33	1	7	0.17	0.71	0.3333333333	5	0	1	0.25	294.886085357	382.0571428572
344	0	3	0.93	3	16	0.07	1.5	0.4642857143	5	0	1	0.38	37.7106405762	381.9583333333
461	0	5	0.79	3	38	0.16	3.68	0.4375	4	4	9	2.24	56.6504690949	381.8473684211
653	2	3	1	2	23	0.38	1	0.3157894737	4	1	3	0.29	46.6773041061	381.4202898551
535	19	3	0.85	2	33	0.3	4.21	0.2580645161	4	2	3	0.29	168.815781361	380.2424242424
36	0	5	1	1	18	0.17	2.33	0.5	3	1	2	0.44	35.0417765012	380.2222222222
332	0	3	1	1	13	0.08	2	0.12	4	1	2	0.44	35.1487378636	379.6153846154
233	14	5	1.06	4	33	0.18	2.12	0.3157894737	4	1	4	0.81	51.798860009	378.2651515152
440	0	1	0.83	0	12	0.08	1.25	0.3333333333	4	1	3	0.67	20.9632909524	377.7166666667
1048	0	3	0.83	0	11	0.5	0.45	0.3333333333	5	0	1	0.88	130.46784911	377.3863636364
1040	0	5	1	2	5	0.2	0.8	0.6	5	0	1	0.13	128.456721942	377.1
310	4	6	1.07	0	15	0.27	1.6	0.3846153846	4	0	3	1.75	20.910571981	376.8333333333
684	5	5	1	2	20	0.5	0	0.2173913043	3	0	0	0	69.8764346407	376.7875
122	1	4	0.9	4	33	0.3	0.33	0.36	4	1	4	1.06	25.3421740204	376.3818181818
785	0	3	0.8	0	10	0.6	1.3	0.1176470588	5	0	3	1.13	300	375.9666666667
577	0	4	0.91	0	10	0.45	1.6	0.5142857143	6	0	0	0	175.426481009	375.05
638	0	3	0.89	2	18	0.28	2.06	0.96875	5	0	2	0.75	62.7368952529	373.8111111111
690	0	2	0.83	0	12	0.42	1.5	0.4	3	1	2	0.31	27.6027986675	373.6
314	0	4	0.8	1	12	0.2	1.33	0.1111111111	4	0	3	1.13	51.6547911207	373.2777777778
694	0	1	1.33	1	6	0.33	1.33	0.1904761905	6	1	2	0.38	199.458653505	372.0833333333
127	0	4	0.92	0	25	0.32	1.88	0.3076923077	5	1	2	0.63	57.3586109291	372.08
797	0	6	1	1	14	0.43	1.14	0.3333333333	4	0	1	0.5	300	371.8428571428
844	0	7	1	0	8	0.22	1.25	0.1	3	0	1	0.63	27.0910100515	371.2916666667
1003	0	6	0.75	1	21	0.42	0.95	0.2727272727	4	0	2	0.38	71.3295500124	370.5833333333
560	0	4	0.95	4	29	0.2	1.52	0.4375	3	2	3	0.75	20.5295855904	370.5287356322
334	0	7	0.73	1	15	0.2	1.87	0.4444444444	5	0	2	0.63	53.457106839	370.28
601	6	4	0.86	0	14	0.36	2.43	0.5483870968	4	0	1	0.25	110.066860641	370.2380952381
649	0	4	0.77	0	13	0.23	2.38	0.4285714286	4	0	0	0	31.4157076983	370.0923076923
710	8	7	0.9	2	20	0.1	2.05	0.3529411765	3	0	2	0.38	41.14423905	368.95
155	9	5	1.09	2	39	0.45	0.36	0.5	4	2	5	1.1	29.3274723034	368.8256410256
883	2	4	1.14	2	14	0.21	3.14	0.2307692308	3	1	3	0.29	50.3738391359	368.5714285714
125	0	2	0.88	0	16	0.44	1.31	0.3333333333	4	0	0	0	29.4166631599	368.3125
593	0	4	0.81	0	31	0.28	3.1	0.3636363636	4	2	4	1.09	51.7207807751	368.2419354839
417	4	1	0.87	2	25	0.22	1.88	0.3666666667	5	0	1	0.75	104.506080137	368.152
776	4	2	0.86	0	9	0.43	1	0.5454545455	5	0	2	0.75	215.867819618	368.0666666667
949	0	3	1	0	20	0.5	1.75	0.4333333333	5	0	2	0.88	300	367.5
52	0	3	0.96	0	22	0.3	2.27	0.1578947368	5	1	4	0.81	49.3271968037	367.3787878788
217	0	9	0.8	1	15	0.13	2.73	0.1923076923	3	0	1	0.13	21.218313541	367.1466666667
804	0	6	1.11	0	8	0.44	1	0.347826087	5	1	2	0.38	73.7095324982	367.025
39	5	5	0.95	2	36	0.18	1.14	0.4375	4	2	4	1.25	28.5100491577	366.8166666667
875	0	1	1.29	2	7	0.29	1.43	0.2941176471	5	1	2	0.56	184.139641352	366.7714285714
456	7	2	0.93	2	14	0.14	1.5	0.25	4	4	6	1.38	34.7832227892	366.6428571429
145	2	3	1.08	1	12	0.08	1.92	0.5	5	1	4	0.5	32.8759692963	365.7833333333
679	0	9	1	2	9	0.33	1.44	0.2857142857	4	0	2	0.63	41.1141809531	365.6666666666
885	0	3	1	0	5	0.6	1	0.28125	4	0	1	0.13	13.4592345436	365.64
87	34	4	0.89	2	36	0.28	2.33	0.1714285714	4	0	2	0.75	27.5578159021	364.9074074074
394	15	5	1.32	4	31	0.13	2.42	0.28125	4	2	6	1.1	35.5645669189	364.8225806452
631	5	11	0.71	0	6	0.29	2.5	0.48	4	0	3	0.75	29.1757604008	364.8
269	0	5	0.95	2	19	0.32	1.68	0.3235294118	5	1	4	0.31	95.955590747	364.3157894737
542	0	11	0.82	0	11	0.18	1.45	0.3636363636	3	1	3	0.21	9.7836683558	364
286	15	4	0.97	3	32	0.27	3.19	0.6	4	2	4	1.13	65.2563007852	363.86875
412	5	3	0.89	1	28	0.29	1.86	0.0769230769	5	2	4	0.31	61.6509253731	363.4357142857
308	0	3	0.85	3	34	0.29	2.03	0.6	5	3	5	1.43	52.3037038868	363.2588235294
465	9	3	0.89	2	18	0.17	2.89	0.3055555556	4	1	3	1.08	32.4024636058	363.0740740741
815	0	3	1	1	5	0.2	0.8	0.0769230769	4	0	1	0.75	300	362.96
597	17	7	1.14	5	21	0.18	2.14	0.3333333333	3	1	3	0.46	28.5146077304	362.8214285715
354	0	5	0.93	0	17	0.2	1.41	0.24	3	0	2	0.5	22.4954651543	362.705882353
999	0	6	1.21	2	14	0.29	2.5	0.5555555556	5	0	3	1.38	223.196642629	362.6428571428
134	12	4	0.95	6	38	0.32	3.79	0.1333333333	5	4	6	1.13	47.0187594248	362.1315789474
81	0	5	1.2	3	30	0.33	1.7	0.1785714286	4	3	7	1.64	93.4644912191	362.12
688	0	5	1.33	0	8	0.67	0.13	0.09375	4	0	1	0.13	39.0092442747	361.775
714	0	5	1.4	0	8	0.4	0.38	0.34375	3	0	1	0.5	18.2459857386	361.3
423	16	5	1.11	3	38	0.18	1.84	0.5161290323	3	0	4	1.25	20.5098414196	361.1842105263
621	0	4	0.88	0	15	0.25	0.53	0.5333333333	4	0	1	0.63	112.880262587	361.0266666667
214	0	6	0.95	0	20	0.29	2.35	0.5	4	0	3	1.63	36.3382628162	360.84
523	4	4	0.71	2	34	0.2	3.44	0.3571428571	4	2	4	1.56	27.4711127088	360.6470588235
25	0	7	0.68	2	19	0.11	2.63	0.3846153846	4	2	5	1.2	30.0628795809	360.5578947368
226	0	5	0.91	3	34	0.24	3.26	0.3333333333	4	1	3	0.63	39.0321332858	360.0588235294
628	0	6	1.29	3	13	0.29	0.62	0.6153846154	4	1	2	0.25	99.6123648782	359.4615384615
1025	4	8	1	0	7	0.43	1.43	0.2580645161	4	0	0	0	24.3729285874	359.2142857143
165	3	4	0.89	1	19	0.16	2.26	0.4333333333	5	0	2	0.5	50.8523591898	359.1894736842
462	8	5	1.08	1	13	0.15	2.46	0.5555555556	4	0	2	0.88	59.6810806704	359.1282051282
713	0	8	1	2	7	0.43	1.71	0.4615384615	4	0	1	0.75	28.754396005	359.1142857143
387	2	5	0.75	0	16	0.19	2.31	0.7	4	0	1	0.13	39.7884574041	359
1053	22	6	1.07	2	25	0.22	3.44	0.3333333333	5	3	4	0.88	94.0262768083	358.28
50	4	4	0.95	1	20	0.25	2	0.16	4	0	4	1.25	73.3769099485	357
399	0	6	1.19	2	26	0.26	2.27	0.2105263158	4	0	2	0.88	20.9086091271	356.9326923077
565	0	5	1.33	1	11	0.33	0.36	0.16	4	0	2	0.88	59.7890863654	356.3272727273
925	0	3	0.78	0	9	0.78	3.22	0.4	6	0	0	0	300	356
616	0	4	1.15	0	13	0.38	2.08	0.2222222222	4	0	0	0	46.4822568954	355.9076923077
778	0	3	1.4	1	10	0	0.4	0.9545454545	4	0	0	0	300	355.6
716	0	8	0.82	0	11	0.36	2	0.3	3	0	1	0.38	24.6452208984	354.8484848485
424	0	3	0.96	1	25	0.24	2.08	0.6428571429	3	1	3	0.38	45.8923989513	354.39
53	0	4	1.17	1	31	0.33	0.16	0.2	4	0	2	0.75	42.607097146	353.4
955	0	2	1.17	0	6	0.33	1.17	0.3793103448	3	0	1	0.63	46.4779960516	353.1
1066	0	4	1.25	0	3	0.25	1	0.3928571429	3	0	1	0.38	114.024847163	352.9333333333
95	0	3	1.38	0	12	0.23	1.92	0.380952381	3	0	1	0.13	22.2926552419	352.7666666667
791	0	4	1.25	1	22	0	0.14	0.1470588235	5	2	3	0.21	123.445017421	352.6590909091
146	14	4	0.97	2	39	0.24	2.13	0.5	4	1	5	0.78	26.5052104725	352.6512820513
571	0	5	0.89	0	18	0.5	2.56	0.3225806452	3	1	2	0.38	215.844584795	351.5444444445
796	8	8	1.11	0	11	0.22	0.82	0.4117647059	4	0	2	1.13	51.4358507129	349.5090909091
171	5	3	0.88	4	31	0.29	0.9	0.2424242424	5	1	4	1.03	42.4793342039	349.1048387097
927	5	3	0.85	0	17	0.38	1.71	0.3448275862	4	1	3	0.67	189.94806923	349
525	20	3	0.85	2	38	0.26	1.97	0.5238095238	5	1	3	0.54	39.289742311	348.8947368421
637	6	3	0.73	1	24	0.45	0.71	0.2777777778	4	0	1	0.13	206.122591317	348.4166666667
609	2	8	0.71	3	23	0.43	0.48	0.3333333333	4	1	3	0.71	53.6448915253	348.3652173913
890	0	1	0.44	0	8	0.78	1.63	0.5217391304	6	0	0	0	300	347.1666666667
784	9	7	1.29	2	28	0.29	1.11	0.1666666667	4	2	4	0.75	75.3062635509	346.9642857143
37	0	2	0.95	0	22	0.41	2.32	0.3333333333	4	1	3	0.96	73.7152191637	346.9545454546
377	15	4	0.8	4	40	0.28	4	0.2222222222	4	1	4	0.56	42.5136449183	346.92
330	0	3	1.05	2	23	0.24	1.7	0.2857142857	4	1	4	0.94	21.3460887425	345.9739130435
60	0	4	0.69	1	15	0.23	1.93	0.1785714286	4	1	3	0.88	38.3237356036	345.72
224	0	4	0.81	1	21	0.14	2.81	0.3913043478	4	1	3	1.33	35.5153133917	345.4857142857
68	18	5	0.94	2	41	0.12	1.54	0.5	4	2	3	0.96	54.6571332507	344.9512195122
700	0	5	1.07	3	15	0.33	1.27	0.2727272727	4	0	0	0	59.7485411393	344.6533333333
191	4	4	0.97	1	29	0.37	3.21	0.2666666667	4	0	5	2.13	50.4116701497	344.4
187	1	3	1	4	37	0.21	0.57	0.2307692308	4	1	4	1.44	29.8842548579	343.1891891892
273	0	3	0.69	3	39	0.28	2.77	0.3043478261	4	2	3	0.83	48.5558894716	343.1282051282
463	15	5	1	0	24	0.25	1.92	0.4	4	1	3	0.96	39.0689208879	342.9722222222
468	2	4	0.83	1	23	0.26	2.48	0.2727272727	5	2	5	0.8	37.5086058252	341.4434782609
673	16	8	1.06	3	21	0.17	1.43	0.4117647059	3	0	2	0.63	9.2647121779	341.2761904762
837	4	7	0.88	2	24	0.24	1.25	0.3461538462	3	3	5	1.38	75.3400602922	341.2416666667
800	1	5	1.24	0	24	0.29	1.33	0.16	4	2	5	1.08	70.6765281908	341.2333333333
822	0	3	1	0	7	0.57	1.71	0.2941176471	6	0	0	0	165.879019804	341.1785714286
104	0	3	0.8	1	25	0.08	2.08	0.4	4	2	4	1.47	30.0915359759	340.976
405	0	7	0.88	3	32	0.21	3.25	0.6	3	2	5	1.48	27.9032996376	340.6
724	0	4	0.76	2	20	0.24	1.8	0.4	5	3	5	0.68	191.964814489	339.97
588	5	8	1.33	3	23	0.67	0.04	0.3428571429	3	0	2	0.63	86.3450491254	339.7826086957
88	17	3	0.86	3	36	0.28	1.86	0.3333333333	4	2	6	1.42	44.3223614328	339.2291666667
51	0	5	0.72	1	32	0.38	3.59	0.1904761905	4	0	3	0.88	45.6291383046	339.21875
559	4	6	1.38	0	16	0.25	0.75	0.2608695652	3	0	1	0.63	106.968933205	338.625
174	0	10	0.87	2	23	0.26	1.39	0.2962962963	4	3	4	0.56	78.204849347	338.4
1012	0	3	0.67	0	8	0.67	0.88	0.5833333333	6	0	1	0.38	300	338.28125
774	0	11	1.13	1	7	0.5	1.43	0.3846153846	5	0	1	0.63	113.860209491	337.5714285714
263	8	3	0.78	2	23	0.26	2.48	0.5333333333	4	0	5	1	34.1017781694	337.547826087
972	0	0	1.33	2	5	0	0.2	0.1851851852	8	0	1	0.5	300	337.16
181	7	3	0.88	4	26	0.12	2.77	0.3214285714	4	1	3	0.54	45.3997804671	337.0480769231
817	0	2	1	2	9	0.5	0.78	0.3939393939	6	0	1	0.63	300	336.3555555555
615	0	6	0.67	2	14	0.5	1.21	0.3076923077	5	0	2	1.25	221.781905658	335.6428571429
362	11	4	0.7	1	26	0.3	1.96	0.1612903226	4	3	4	1.06	30.1035182334	335.3923076923
532	0	2	0.67	1	15	0.33	1.53	0.2777777778	4	2	5	0.8	46.0793197803	335.08
1069	1	4	0.88	1	20	0.38	1.65	0.1538461538	5	3	4	0.56	127.371234017	335.03
790	0	2	1.11	0	8	0.11	1.38	0.6923076923	4	0	1	0.5	77.7934675932	334.875
414	0	4	0.83	2	18	0.22	2.56	0.2413793103	4	1	3	0.33	31.6775196372	334.8703703704
148	9	6	0.81	0	32	0.31	2.84	0.4545454545	5	0	2	1.13	50.6217130159	334.4479166667
1001	0	4	0.57	0	7	0.71	2.14	0.2222222222	4	0	1	0.38	196.510108644	334.3142857143
5	9	4	1.06	2	30	0.16	2.13	0.2857142857	4	0	3	0.75	20.887243019	333.78
509	0	4	0.8	2	10	0.2	1.9	0.3076923077	4	1	2	0.44	13.0137747593	333.56
843	0	6	1	0	7	0.43	2.14	0.2727272727	4	0	0	0	59.2508552746	333.1428571429
717	0	5	1.11	1	9	0.11	0.78	0.4	5	0	0	0	300	333.1111111111
265	0	5	1	0	18	0.22	2.5	0.2941176471	4	1	2	0.63	29.0088393299	332.1888888889
124	0	2	0.73	0	11	0.18	2	0.21875	4	1	2	0.31	37.1593774853	332.0545454545
634	0	2	0.75	0	7	0.38	1.71	0.3333333333	4	0	0	0	72.6715369405	331.6857142857
119	0	10	0.65	1	20	0.35	2.6	0.35	4	0	3	1.38	46.1081833314	331.2375
743	2	1	0.85	1	19	0.46	1.21	0.3333333333	5	0	4	1.25	300	330.9894736842
147	0	4	0.66	1	29	0.41	2.52	0.3928571429	4	3	7	1.39	34.0606395496	330.9741379311
566	2	6	1.13	2	19	0.13	1.84	0.5	3	0	2	0.75	36.4438909618	330.9342105263
1046	0	1	0.83	0	6	0.33	1.17	0.1923076923	4	0	0	0	107.239805894	330.4444444444
755	4	4	1.15	2	26	0.08	0.92	0.4411764706	3	0	1	0.25	84.2086742049	330.3557692308
567	0	6	0.89	2	24	0.32	1.67	0.4	4	4	5	0.9	68.756603874	330.1
1071	0	3	1.33	1	22	0.33	0.05	0.34375	5	0	0	0	93.2314086628	329.4090909091
112	0	3	0.67	3	34	0.27	0.85	0.2	3	0	0	0	39.0586650137	329.3058823529
177	5	5	0.84	2	32	0.22	2.19	0.25	4	1	6	1.17	32.9919623974	328.95
854	0	4	1.2	0	20	0.2	0.3	0.3333333333	5	0	1	0.13	300	328.6625
382	9	4	0.75	0	16	0.25	2.38	0.2666666667	4	2	4	1	62.2900762948	328.4625
40	14	3	0.85	1	39	0.3	2.9	0.2692307692	4	2	6	0.83	37.9250882992	327.8871794872
998	0	10	0.78	0	8	0.56	1.38	0.2352941176	3	0	1	0.25	74.6023375369	327.4
656	6	1	0.77	1	16	0.38	1.13	0.3571428571	6	2	4	2.06	300	327.296875
693	0	5	1.33	0	9	0.33	1.22	0.25	4	0	2	1	18.9822912022	326.8888888889
1013	0	10	1.33	1	9	0.33	0.11	0.2222222222	4	1	2	0.44	123.897183193	326.6
672	0	3	1	1	11	0.33	0.55	0.4444444444	5	1	3	0.58	47.0013813995	325.8909090909
86	0	2	0.58	0	12	0.08	2.08	0.4193548387	4	0	1	0.5	13.1474986189	325.8226
323	0	3	0.79	1	14	0.36	1.21	0.2352941176	4	0	2	1.25	55.4709973282	324.7321428572
385	10	5	0.89	1	35	0.14	4.63	0.4	4	3	8	1.23	46.9705254516	324.1428571429
172	4	5	0.79	6	33	0.24	2.21	0.3571428571	4	1	5	1.05	43.6147760635	324.1060606061
6	0	4	1	3	27	0.22	1.67	0.36	4	0	1	0.13	52.392466225	323.7777777778
117	4	4	1	4	37	0.29	0.19	0.5	5	3	7	0.63	38.3235473431	323.6324324325
250	2	5	0.96	2	28	0.21	2.46	0.3333333333	4	2	4	0.84	42.7804645367	322.8142857143
82	2	5	0.8	0	15	0.2	1.47	0.3636363636	3	0	2	1.25	68.3891570625	322.5466666667
83	0	2	0.78	0	18	0.33	2.61	0.125	8	0	4	1.63	111.103205907	322.4222222222
202	0	3	0.85	4	13	0.15	2.77	0.4230769231	6	0	1	0.88	74.3723819261	322.0923076923
131	3	4	0.81	0	28	0.25	1.11	0.1428571429	4	2	5	0.93	59.6320150304	321.6214285714
491	0	5	0.8	4	15	0.27	2.13	0.1538461538	4	0	1	0.25	30.2012451131	321.5866666667
1027	0	5	0.75	1	17	0.38	1.94	0.4285714286	4	3	4	0.44	135.154376269	320.8705882353
157	0	5	0.83	2	30	0.33	2.23	0.3333333333	4	1	5	1.3	41.0587005396	320.6666666666
980	0	6	0.58	2	16	0.5	1.5	0.303030303	4	1	3	1.08	77.4102678347	320.6125
113	8	5	1.33	0	15	0.13	1.93	0.2571428571	3	0	0	0	14.121749283	320.5
792	0	6	0.88	1	8	0.5	2.13	0.25	4	0	2	1	256.324921689	320.475
356	0	2	0.92	1	12	0.25	1.67	0.4666666667	5	2	3	0.79	43.3923014787	320.0166666666
324	15	3	0.76	2	34	0.24	2.97	0.21875	4	1	5	0.93	35.8681719705	319.8764705882
182	0	5	0.72	1	24	0.28	2.5	0.2222222222	4	1	5	1.5	79.8272297521	319.1916666667
1004	0	6	1	1	14	0.5	1.07	0.25	4	0	1	0.5	70.1713323538	319.1285714286
76	0	2	0.86	0	33	0.21	1.67	0.4	3	2	5	1.25	40.5639178447	319.0202020202
305	0	5	0.75	1	24	0.08	3.21	0.08	4	0	4	1.38	35.6676413638	318.9895833334
635	17	7	0.91	1	28	0.17	1.57	0.4615384615	4	3	5	0.98	139.830611597	318.9553571429
734	15	9	1.1	1	21	0.29	2.86	0.3333333333	3	1	3	0.67	18.8806537278	318.8928571429
239	6	2	0.56	1	18	0.13	1.89	0.2380952381	4	0	2	0.75	32.9599073605	318.5777777778
415	11	3	0.77	3	35	0.29	4.97	0.4117647059	5	5	8	2.52	31.7568303445	318.4642857143
451	7	6	0.72	4	32	0.22	2.22	0.2424242424	4	1	4	0.97	44.4254472195	317.94375
293	0	3	1	1	16	0.43	0.56	0.25	4	1	2	0.63	42.1218690922	317.8125
24	6	3	0.65	1	34	0.21	2.91	0.3181818182	5	1	3	0.54	45.2019402693	317.7529411765
695	0	4	0.94	0	18	0.22	1.83	0.5	5	1	3	0.63	300	317.7361111111
840	0	7	1	0	11	0.5	0	0.3913043478	4	0	1	0.63	34.8664511944	317.2363636364
759	0	4	1.43	0	10	0.29	0.6	0.4137931034	5	0	0	0	260.559385511	316.96
602	0	5	1.14	0	7	0.14	0.86	0.303030303	3	0	1	0.38	22.715622128	316.7428571429
989	0	7	0.89	2	16	0.56	0.69	0.2903225806	5	0	1	0.63	112.814989401	316.6625
876	0	5	1.5	2	10	0.5	0	0.4285714286	3	0	1	0.75	185.525797803	316.66
183	6	3	1.09	2	23	0.13	2.65	0.2580645161	4	2	6	1.5	36.6137827659	316.4956521739
536	0	3	0.84	2	25	0.24	1.92	0.2	4	2	3	1.21	40.9357802481	316.144
727	0	4	1.04	2	24	0.4	1.96	0.1666666667	4	0	1	0.5	43.5278464902	316.1354166667
753	0	1	1	0	6	0.75	0.33	0.375	6	0	0	0	97.8360969183	316
195	0	7	1.04	2	28	0.21	2.14	0.2272727273	4	1	5	1.13	53.656813868	314.8482142857
229	0	4	1.08	1	13	0.31	1.46	0.4838709677	4	0	3	0.88	53.5023315192	314.6769230769
550	5	3	0.97	2	36	0.24	1.72	0.3846153846	3	3	6	1.5	32.9349971664	314.3388888889
552	4	6	0.68	5	28	0.21	3.07	0.4	4	0	1	0.25	82.9758228525	313.8214285715
419	18	7	1.27	1	22	0.27	1.64	0.4285714286	4	2	4	0.72	18.9978961324	313.5454545455
355	0	4	0.96	1	23	0.17	2.04	0.5172413793	5	2	4	0.88	45.1229295424	313.5130434783
411	15	4	0.9	3	36	0.3	1.31	0.3043478261	4	2	3	0.71	27.3786804383	313.3819444444
654	4	6	0.8	0	13	0.6	0.31	0.4444444444	4	0	1	0.63	300	313
41	9	3	0.76	3	28	0.24	1.39	0.5833333333	5	2	3	0.54	72.8106186129	312.9428571429
381	4	2	0.73	1	11	0.18	1.64	0.2941176471	4	1	3	1	75.3732467535	312.7818181818
264	0	4	0.74	2	23	0.35	2.09	0.28	6	0	4	1.63	120.455769425	312.3217391304
958	0	5	1.17	0	6	0.33	0.83	0.4761904762	5	0	0	0	266.591649422	312.1666666667
92	0	2	0.82	2	11	0.18	1.45	0.1	4	1	3	0.5	30.2200086388	311.6545454545
212	11	4	0.63	5	36	0.56	0.97	0.2941176471	4	1	5	1.4	57.3470970231	311.4861111111
871	0	6	0.73	0	21	0.36	2.62	0.3103448276	4	2	6	0.67	90.4328879807	311.4761904762
761	0	7	1	0	11	0.27	1.73	0.1935483871	3	0	1	0.25	18.4646199308	311.2909090909
188	6	7	0.93	5	27	0.22	3.07	0.3611111111	4	0	4	1.25	39.2041344932	311.2518518519
254	22	3	0.87	3	31	0.35	2.35	0.3103448276	5	4	9	2.67	32.8232117386	311.0161290323
720	0	5	0.87	1	23	0.3	1.91	0.4	3	0	2	0.63	42.6636946717	310.7246376811
27	0	5	0.94	7	36	0.24	0.94	0.3125	4	4	8	2.59	41.8463064204	310.6055555555
46	0	4	0.79	2	25	0.21	1.36	0.3529411765	4	1	7	2.91	26.9930787804	309.65
878	4	3	1.1	0	15	0.2	1.13	0.4166666667	3	0	1	0.25	102.222892517	309.52
862	8	4	1.25	0	12	0.25	0.17	0.4090909091	4	0	1	0.63	146.019209159	309.4166666667
568	6	6	1	5	26	0.44	0.46	0.1818181818	4	0	2	0.75	33.1398794813	309.0307692308
645	0	4	1.33	0	9	0.33	0.11	0.2571428571	4	1	2	0.31	300	308.6888888889
676	2	2	0.84	1	28	0.26	1.46	0.12	3	1	3	1.17	26.0638668921	307.95
768	0	9	1.22	1	9	0.22	2.44	0.5294117647	3	0	1	0.38	10.3498704534	307.8888888889
757	3	7	1.14	0	12	0.14	0.92	0.2941176471	4	1	5	1.78	38.3048018421	307.8833333333
741	0	4	1.25	2	9	0.25	0.22	0.4482758621	7	1	2	0.81	139.269319864	306.8888888889
225	0	3	0.8	0	12	0.2	1.5	0.3666666667	3	1	2	0.81	11.448101858	306.8166666667
705	3	6	1	0	26	0	0.08	0.5	4	0	2	0.63	271.987094724	306.4326923077
1017	4	5	0.9	0	10	0.5	1	0.5	4	1	2	0.13	300	306.04
682	0	1	0.7	0	20	0.55	2.75	0.3333333333	4	1	4	0.72	290.569500878	305.8
179	0	5	0.96	2	27	0.26	2.85	0.28125	4	0	0	0	49.9586076011	305.2370370371
801	0	5	0.9	1	10	0.3	1.5	0.1764705882	2	0	2	0.75	131.211910029	304.8
73	2	5	0.64	1	28	0.32	2.93	0.2962962963	4	0	1	0.25	56.8290633209	304.4464285714
210	0	3	0.81	0	23	0.31	1.26	0.3333333333	4	0	2	1.5	65.8994098858	304.4260869565
266	10	5	0.77	3	26	0.35	2.73	0.6	4	3	6	1.38	45.1275971245	304.2307692308
109	0	1	1	4	14	0.14	2.43	0.7692307692	4	0	1	0.75	45.4293051953	304.0428571429
422	0	10	1.17	1	12	0.42	2.5	0.3870967742	3	0	1	0.5	25.7939038745	303.85
297	0	4	1	2	25	0.2	2.16	0.1428571429	5	0	3	1.13	54.7316208318	303.592
580	0	5	0.91	1	14	0.09	1.07	0.3571428571	4	0	0	0	232.914868332	303.4142857143
765	0	3	0.75	2	14	0.38	0.5	0.3333333333	5	0	2	0.75	169.67355287	302.8857142857
482	0	4	0.96	3	28	0.21	1.61	0.2608695652	4	1	2	0.56	29.3601751934	302.630952381
240	2	4	0.91	1	22	0.27	1.73	0.3181818182	4	0	3	1.25	20.1545872132	302.2045454546
698	0	6	0.85	1	16	0.31	1.31	0.2608695652	4	0	0	0	88.6869261508	301.475
669	3	7	0.71	0	17	0.29	0.88	0.4	4	1	3	1.04	62.6409564848	301.4705882353
516	0	5	0.55	3	20	0.25	3.4	0.8333333333	5	0	1	0.25	27.8646378758	301.2
904	0	2	0.92	0	13	0.46	1.54	0.4782608696	4	0	0	0	95.9463207567	301.1730769231
288	5	5	1	0	20	0.25	2.35	0.3076923077	3	2	3	1.33	18.1870416891	300.83
407	20	5	1.03	2	39	0.21	2.51	0.5	3	0	4	1.5	27.6365497544	300.4974358975
933	0	3	0.82	2	17	0.47	1.82	0.8235294118	6	0	1	0.5	186.857266366	300.4823529412
1020	7	3	1.08	1	12	0.38	2	0.5	4	0	2	1.25	104.062020226	300.1
437	8	4	1.11	2	18	0.17	1.5	0.8181818182	4	0	3	1	30.3447865351	299.625
611	7	4	1.06	1	17	0.29	2.18	0.3333333333	3	1	3	0.79	37.287465937	299.4941176471
153	0	2	0.82	0	20	0.27	1.45	0.52	5	0	1	0.25	63.6231764006	299.4
129	8	4	0.8	4	31	0.33	1.06	0.24	4	2	5	1.88	41.359860263	299.3870967742
632	0	6	1	0	17	0.33	0.71	0.9166666667	4	1	3	0.67	48.4215765284	299.0470588235
294	0	6	0.92	2	21	0.33	0.67	0.75	5	1	2	0.56	24.9999122704	298.9642857143
206	2	5	0.9	3	28	0.31	3.43	0.4545454545	4	0	4	1.75	44.2272955017	298.9523809524
398	0	7	0.81	2	20	0.29	1.85	0.8181818182	4	1	2	0.56	125.260618298	298.75
629	0	5	1.1	0	10	0.4	2.4	1	4	0	1	0.13	234.399739884	298.68
812	2	3	1.4	1	14	0	0.43	0.75	3	0	1	0.5	74.927241187	297.5238095238
204	0	5	0.87	1	31	0.23	1.97	0.3636363636	5	3	4	0.94	40.5442698089	297.1483870968
772	0	3	0.67	1	22	0.67	0.05	0.4074074074	5	1	3	0.71	185.666173361	296.9454545454
681	2	3	0.73	1	27	0.27	0.78	0.3076923077	4	0	1	0.25	279.368805086	296.8395061728
485	0	8	0.86	0	14	0.21	1.5	1	4	1	2	0.38	25.3162123243	296.4857142857
537	0	4	1	1	21	0.29	2.19	0.375	4	2	3	0.54	38.0745261714	296.4095238095
144	9	3	1.03	3	29	0.07	3.79	0.6666666667	5	3	8	2.13	25.5114120398	295.875862069
300	0	3	0.67	1	12	0.25	1.75	0.2380952381	5	0	1	0.13	87.5282450886	295.4444444445
841	0	5	1	0	20	0.5	0.1	0.6428571429	5	1	6	1.35	83.3035870073	295.05
824	12	2	1.38	2	21	0.43	1.86	0.3333333333	4	3	5	1.13	93.2796392361	295
643	15	7	1.2	1	22	0.3	1.86	0.5714285714	5	2	5	1.4	181.791551951	294.7727272727
881	2	2	0.64	1	14	0.57	2.21	0.9	5	0	1	0.13	276.193799975	294.7714285714
58	6	4	0.79	1	33	0.21	2.42	0.4	4	2	3	0.29	66.9885092232	294.696969697
194	6	3	1.09	3	40	0.36	0.78	0.6923076923	4	0	3	1.13	54.4977412954	294.30625
1049	1	5	1	1	29	0.2	0.14	0.4705882353	4	0	2	0.63	52.3717083569	294.2482758621
319	0	2	0.77	1	22	0.18	2.18	0.125	5	0	4	1	42.6338331777	294.0181818182
667	0	5	0.71	2	14	0.43	2.71	0.5652173913	4	1	2	0.5	67.4066889608	294.0142857143
434	0	4	1.06	1	18	0.22	1.39	0.2	4	1	2	0.25	20.4899343504	293.5444444445
118	2	4	0.83	1	24	0.17	2.67	0.1764705882	4	3	4	1.06	27.0117587343	293.4583333333
771	4	4	0.92	1	26	0.25	0.77	0.375	4	3	6	1	83.8575571225	293.2179487179
238	13	7	0.86	3	36	0.14	2.42	1	3	1	8	1.64	32.9808771594	293.1333333333
814	0	4	1	0	16	0.5	0.19	0.32	4	3	4	0.81	300	292.95
746	0	4	0.82	0	11	0.55	1.45	0.6923076923	4	0	2	0.5	300	292.6181818182
307	0	3	0.85	2	13	0.23	1.77	0.3846153846	5	0	1	0.13	38.2170440603	292.5
1072	3	6	0.94	1	22	0.22	2	0.5555555556	4	2	5	1.43	61.051373716	291.4886363636
168	10	4	1	0	24	0	0.38	0.4615384615	4	1	3	1.08	20.0541989832	291.4666666667
502	5	4	0.75	1	24	0.33	3.42	0.8333333333	4	0	1	0.13	53.2744913579	291.35
517	10	4	0.68	2	36	0.24	1.44	1	4	0	5	1.63	30.2998696409	290.8472222222
140	6	4	0.75	2	40	0.28	4.25	0.5714285714	4	0	3	1.25	78.2684539797	290.485
954	1	6	0.8	1	27	0.25	1.48	0.5454545455	4	2	5	1.43	66.5434514821	290.4444444445
745	3	3	1.33	1	8	0.67	0.13	0.5	5	0	1	0.13	300	289.875
166	0	5	0.58	1	12	0.25	1.42	0.5833333333	4	0	2	1.25	27.6173717607	289.85
89	5	3	0.82	2	17	0.12	2.59	0.7142857143	4	2	3	0.75	24.935464965	289.8431372549
54	0	6	0.76	2	26	0.24	1.73	0.625	3	2	5	1.55	32.2067311866	289.7384615385
916	0	1	0.86	1	7	0.43	1.29	0.56	4	0	1	0.25	256.566009038	289.3714285714
496	0	3	1.17	0	12	0.17	1.08	0.4166666667	4	0	1	0.38	10.176877239	288.5
139	2	5	0.89	3	28	0.25	2	0.4444444444	4	2	3	0.88	56.7175550512	288.2428571429
618	3	7	1	1	17	0	0	0.5384615385	5	0	2	0.25	187.366883513	287.3647058823
162	1	1	0.88	3	16	0.18	2.69	0.5	5	1	4	1.28	45.7072775719	287.3625
627	5	4	0.91	1	28	0.3	1.82	0.4666666667	4	1	3	1.17	142.67246026	287.2321428571
614	0	7	1.14	2	25	0.43	0.36	0.3076923077	4	0	4	1.38	49.6729118519	287.08
312	4	9	0.79	0	19	0.16	1.84	0.6666666667	3	0	0	0	48.8142613488	286.8070175438
510	2	5	0.82	2	22	0.36	2.82	0.4347826087	4	1	2	0.38	51.8571782394	286.803030303
338	7	3	0.88	2	38	0.31	0.92	0.5714285714	5	2	6	1.38	84.6390296994	286.6736842105
581	11	6	0.81	2	32	0.22	2.38	0.4166666667	3	1	2	0.31	38.6039298335	286.03125
1060	1	10	1.17	0	6	0.17	1.67	0.2941176471	3	0	1	0.25	85.0570107302	285.9444444444
386	0	2	0.62	2	34	0.29	2.41	0.6153846154	5	1	3	0.71	47.8754577544	285.9176470588
408	0	3	1.25	1	31	0.25	0.06	0.3571428571	4	4	6	1.69	40.4276210894	285.8145161291
646	2	8	1	2	15	0.5	0	0.3684210526	3	0	1	1	81.3415251354	285.56
712	0	6	1.23	0	22	0.14	3.32	0.5454545455	3	0	2	0.5	21.7206599127	285.2818181818
991	3	5	1.17	0	12	0.17	1.5	0.5238095238	4	0	1	0.13	300	284.6166666667
722	0	7	0.82	1	26	0.27	0.73	0.4705882353	3	1	4	1.56	30.6186067989	284.5769230769
215	12	4	0.85	0	20	0.35	2	0.4285714286	4	0	2	0.75	27.6115112322	284.41
418	9	6	0.73	0	37	0.22	2.49	0.2142857143	4	1	3	0.92	42.8210144866	283.9405405406
236	12	5	1.11	1	27	0.11	2.7	0.6	3	2	6	1.88	32.0235931881	283.5555555555
511	10	2	0.94	0	17	0.18	1.82	0.5909090909	5	0	5	1.25	72.0156205867	283.0588235294
366	3	9	0.73	1	15	0.33	2.07	0.25	4	0	1	0.13	63.5581390093	282.6666666667
922	0	8	0.75	0	8	0.5	1.75	0.3636363636	5	0	0	0	300	282.625
605	5	6	1	2	21	0.22	0.86	0.5789473684	4	0	1	0.5	83.7858442675	282.3095238095
14	3	3	0.86	0	21	0.29	2.57	0.6	4	0	2	0.63	39.7422549029	282.3015873016
749	1	3	0.56	2	19	0.67	0.89	0.7	4	1	3	0.96	46.3019181011	280.5368421053
428	0	4	1.04	1	24	0.21	3.25	0.6	4	2	4	1.19	45.9723456517	279.8958333334
459	2	5	1.14	1	14	0.43	1.36	0.6363636364	3	0	1	0.25	38.2681316822	279.3035714286
373	3	4	0.79	3	24	0.29	3.08	0.7692307692	4	0	2	0.5	68.7705388199	277.96875
222	5	4	1.13	1	31	0	0.42	0.4	4	3	4	0.94	39.9735508527	277.8903225806
827	0	6	0.76	2	24	0.2	2	1	4	1	2	0.81	84.0351683153	277.8083333333
957	0	5	0.64	3	24	0.36	0.96	0.5	5	0	1	0.25	94.0737407452	277.7333333333
110	0	7	1.23	4	38	0.23	0.55	0.5333333333	3	2	4	1	33.8903330241	276.9368421053
38	0	7	0.77	4	13	0.15	1.92	0.5833333333	4	1	2	0.5	25.4963150649	276.7076923077
321	10	5	0.91	2	23	0.09	2.13	0.375	4	0	2	1.13	27.425818119	276.4956521739
272	0	6	1.05	3	21	0.14	1.67	1	4	3	4	0.88	14.2731734006	276.4523809524
207	22	3	0.74	1	38	0.32	2.82	1	4	0	5	2.13	34.3806095179	276.4052631579
99	3	6	0.87	2	35	0.22	1.6	0.6666666667	3	0	2	1.25	29.0186024185	275.6514285714
683	0	4	1	1	12	0.25	0.25	0.7777777778	4	0	3	1.13	56.8549572835	275.1833333333
965	0	4	1	1	14	0.25	0.71	0.4615384615	4	0	0	0	300	275.1785714286
432	20	4	0.96	1	27	0.19	2.11	0.55	4	2	4	1.22	55.326447514	274.8611111111
994	0	3	0.88	0	8	0.25	1.5	0.3125	3	0	0	0	48.6368533268	274.84375
706	0	7	1.13	0	11	0.25	0.64	0.6666666667	3	0	0	0	24.8885574805	274.8181818182
600	14	5	0.96	3	24	0.33	1.79	0.4444444444	4	1	2	0.81	42.0651836896	274.4375
831	0	6	0.8	3	23	0.7	0.65	0.4545454545	5	2	6	1.88	65.9848543414	274.1739130435
409	6	4	0.88	2	32	0.33	2.63	0.1428571429	4	1	5	0.73	62.4605007985	273.93125
515	0	5	0.96	3	23	0.13	2.3	0.3157894737	4	0	2	1.25	44.2005858968	273.847826087
176	0	3	0.75	3	30	0.21	2.57	0.5555555556	4	0	1	0.25	42.6017746033	273.7333333333
770	2	3	0.67	2	20	0.56	0.65	0.3333333333	5	1	2	0.13	81.8004474589	273.62
98	0	5	0.83	1	40	0.21	1.58	0.6	4	1	4	0.97	47.4208992297	273.4375
331	3	4	0.77	0	13	0.38	1.92	0.6666666667	4	0	1	0.5	55.3566729445	273.3230769231
261	6	3	0.96	3	26	0.08	2.08	0.375	4	4	8	1.73	33.1343771602	273.3076923077
1064	0	5	0.75	0	18	0.38	0.67	0.5	5	0	4	1.25	105.006178077	273.0333333333
703	0	3	1.31	0	13	0.31	2.15	0.6666666667	3	0	1	0.88	38.3673710972	273.0307692307
66	0	5	0.87	3	38	0.32	3.26	0.8666666667	4	3	5	0.98	25.0251888334	272.7157894737
569	0	3	0.86	2	36	0.36	2.44	0.5833333333	4	2	7	2.2	56.1560258324	272.5555555556
72	2	4	1.08	4	28	0.17	0.54	0.7777777778	4	1	5	1.45	33.212528944	271.7
460	4	5	0.9	1	33	0.23	2.21	0.5714285714	4	1	4	1	34.479902679	271.6161616162
389	0	7	0.87	1	15	0.13	1.87	0.3529411765	5	0	1	0.63	21.1899238209	271.56
726	0	2	1	0	7	0.33	0.86	1	4	0	0	0	40.4120576818	270.9714285714
856	0	4	0.92	1	12	0.33	1.33	0.625	4	0	1	0.13	197.178588585	270.9166666667
271	8	4	1.03	2	35	0.14	3.83	0.4	4	0	1	0.63	21.453726059	270.48
863	0	3	0.75	1	16	0.42	0.94	0.5454545455	5	0	2	0.38	150.845562447	270.3625
963	5	6	1.1	2	20	0.38	1.85	0.3684210526	4	0	2	1.25	300	269.49
738	0	1	0.8	2	9	0.2	0.44	0.375	4	0	1	0.38	33.9543691578	268.9333333333
860	7	6	1.33	0	9	0.33	1.67	0.3333333333	3	0	2	0.75	45.8313000308	268.5277777778
180	9	5	0.74	1	25	0.26	2.36	0.6	3	3	4	1.25	58.5375916722	268.48
910	0	3	0.58	1	12	0.33	1.75	0.7058823529	4	0	1	0.13	101.941426485	268.0833333333
543	0	3	1	2	20	0.28	1.35	0.5	4	0	3	1.25	28.5228276109	267.78
495	7	2	1.1	2	20	0.2	2.65	0.4666666667	4	0	1	0.63	57.6145596596	267.59
651	0	6	0.9	2	21	0.2	0.95	0.4666666667	4	0	1	0.63	50.8276198054	267.4380952381
589	8	5	1.14	2	30	0.14	0.8	0.3125	3	0	3	1	77.8002571996	267.3266666667
546	0	6	1	3	35	0.12	1.09	0.3076923077	3	0	1	0.38	24.2681296182	267.2571428571
42	6	4	0.8	1	35	0.32	2.83	1	4	0	5	2.63	41.8370981593	266.9428571428
1057	4	4	1	0	20	0.4	3.9	0.6	4	0	3	1	127.007739973	266.75
692	3	3	1.17	0	25	0.25	0.72	0.6363636364	4	1	4	0.75	89.3177502908	266.74
633	9	4	1.13	0	29	0.13	1.86	0.4285714286	4	4	7	1.59	53.7119133851	266.6206896552
390	0	3	0.82	1	15	0.41	2.27	0.7368421053	3	1	2	0.38	19.8162122529	266
474	8	3	0.96	3	37	0.13	1.62	0.4545454545	4	3	6	0.94	45.883584865	265.9837837838
686	0	5	0.82	1	17	0.41	2.71	0.4166666667	4	0	2	0.88	51.1019588062	265.7176470588
198	11	5	0.91	2	32	0.15	3.44	0.5	3	2	6	1.48	49.026521266	265.65625
302	0	7	1.07	5	37	0.36	0.73	0.7142857143	4	1	5	0.78	31.9854651545	265.4864864865
1045	0	7	1.2	1	13	0.2	0.38	0.1666666667	4	2	4	0.31	217.662707978	265.0307692308
660	0	6	1.13	1	15	0.25	0.6	0.6	4	1	3	0.96	70.3564827115	264.9866666667
364	0	5	0.88	4	39	0.18	4.77	0.3181818182	4	1	6	1.38	47.6202456429	264.8525641026
909	1	2	0.82	1	21	0.27	0.71	0.2857142857	4	0	1	0.75	63.9305731439	264.819047619
296	7	3	0.61	0	18	0.39	1.78	0.625	4	1	3	0.96	42.2446802925	264.7083333334
1000	6	1	0.89	2	9	0.44	1.22	0.4285714286	5	0	1	0.38	300	264.6888888889
1043	0	9	1	0	12	0.5	0	0.3636363636	4	0	2	1.5	300	264.6
487	0	2	0.7	1	10	0.4	1.4	0.3333333333	6	0	0	0	57.1618125792	264.56
554	11	5	0.86	4	30	0.23	2.1	0.5	3	0	3	1.25	42.2595896898	263.5333333333
541	8	5	0.92	1	25	0.16	3.28	0.4285714286	4	2	4	0.63	66.093709638	263.296
655	7	3	0.78	2	25	0.28	1.56	0.347826087	4	1	4	1.38	57.7299548605	263.2
397	0	5	0.83	3	14	0.17	0.29	1	3	0	1	0.38	40.8477638969	262.3857142857
393	6	6	0.97	4	34	0.15	2.68	0.3461538462	4	3	7	2.3	34.1629299314	262.0352941176
810	3	10	1.14	0	15	0.43	0.87	0.6363636364	5	1	2	0.31	123.185252092	261.8888888889
847	0	4	1	0	5	0.4	1	0.4444444444	4	0	1	0.63	11.5368682803	261.84
952	0	7	0.7	1	21	0.6	1.24	0.8235294118	4	1	5	0.8	80.3052369571	261.8095238095
558	5	6	1	2	25	0.2	0.12	0.8333333333	4	0	2	1.25	25.7527496123	261.728
702	5	4	1.33	3	21	0	0.05	0.2916666667	4	0	2	1.13	41.1130257074	261.6095238095
427	1	3	0.89	3	28	0.26	1.61	0.5	4	4	5	0.75	65.8217143584	261.3642857143
707	0	7	1.17	2	24	0.25	2.04	0.4827586207	4	0	1	0.5	72.9411957052	261.175
243	0	3	0.88	2	26	0.15	3.46	0.5	4	2	5	1.88	37.0048210434	261.1
877	0	4	1.2	1	10	0.2	1.1	0.5	4	1	2	0.5	57.7605814519	260.65
905	9	7	1.08	1	16	0.23	1.06	0.6875	4	0	1	0.5	35.3307230442	260.525
337	0	4	0.89	0	18	0.28	2.06	0.6	4	0	2	1.38	24.1574624273	260.3444444444
739	2	6	1.18	0	17	0.18	1.53	0.2857142857	4	0	1	0.13	48.4375137307	260.1176470588
138	0	4	0.67	3	21	0.29	2.05	0.4285714286	4	1	2	0.38	33.4481037386	260.1142857143
282	7	4	0.79	2	14	0.07	1.21	0.6666666667	3	1	4	0.63	31.5590218678	260
70	5	5	1.18	2	27	0.29	2.96	0.5	3	0	2	1.25	35.8587341743	259.9259259259
579	2	2	0.71	3	24	0.29	1.04	0.5	4	1	2	0.69	57.8453728708	259.5729166667
185	0	5	0.94	1	18	0.22	2.72	0.3529411765	4	0	2	0.88	25.0595302495	259.0740740741
152	0	4	0.92	1	26	0.17	1.31	0.5294117647	3	0	3	1	24.256686081	258.9134615385
471	3	3	0.86	3	32	0.09	2.69	0.6666666667	4	1	4	1.06	35.0279727077	258.5390625
897	0	2	0.55	1	11	0.73	1.45	0.6428571429	4	0	2	0.5	300	258.1454545454
959	0	2	0.25	0	20	0.88	1.05	0.7647058824	5	0	1	0.5	300	258.05
950	0	1	0.75	2	11	0.58	1.36	0.3333333333	5	0	1	0.25	300	257.8363636364
401	2	5	0.73	3	29	0.09	0.66	0.8333333333	4	1	5	1.68	32.5722576971	257.7793103448
626	0	1	1.27	0	11	0.36	1.73	0.875	5	0	0	0	300	257.5818181818
522	13	4	1	3	31	0.2	1.29	1	4	1	3	1	53.6546032228	257.4451612903
353	0	4	0.91	1	11	0.36	1.18	0.5294117647	3	0	1	0.13	50.2809266627	257.4242424243
1054	0	4	0.86	0	13	0.29	1.85	0.5789473684	5	1	2	0.63	123.331824266	257.2307692308
1007	0	4	0.78	1	18	0.44	3.06	1	4	1	2	0.69	71.5041446253	256.6444444444
93	8	5	0.97	4	32	0.34	2.53	0.4074074074	3	1	4	1.06	37.1789357283	256.15625
758	0	7	1.08	0	11	0.17	1.55	0.2857142857	4	1	3	0.96	32.6286180306	256.0227272727
69	4	5	0.75	1	24	0.25	2.63	0.8	4	1	3	1	58.6748975452	255.7666666667
406	0	1	1	0	19	0	0.32	0.5263157895	4	1	5	1.83	70.9852266306	255.4210526316
230	4	2	0.88	5	36	0.12	1.14	0.347826087	5	2	6	0.88	83.0722604585	254.7847222223
1011	0	5	1.09	2	20	0.18	0.9	0.75	4	1	3	0.25	47.3704032611	254.75
640	0	2	1.31	1	15	0.08	1.47	0.1818181818	3	3	5	0.93	45.3935407137	254.7466666667
818	0	5	1.11	1	19	0.26	1.68	0.2	3	0	1	0.75	57.0501423807	254.3894736842
699	4	6	0.87	4	17	0.2	1.82	0.5555555556	3	0	1	0.25	195.920072819	254.294117647
443	7	3	0.86	1	21	0.24	2.24	0.5	4	1	2	0.13	52.7181764163	254.1619047619
624	8	7	1.1	2	13	0.2	1	0.2727272727	4	0	2	1.5	22.2052364104	253.9076923077
444	6	4	0.72	0	25	0.16	3.2	0.5714285714	3	3	5	1.18	32.849535778	253.616
292	0	4	0.86	3	14	0.36	1.86	0.6666666667	3	0	0	0	84.9780630506	253.4821428572
59	0	3	0.8	2	20	0.25	2	0.8	4	2	4	0.81	28.6850747906	253.45
1047	0	2	1.5	1	12	0	0	0.6153846154	3	1	3	0.92	127.772999923	253.45
489	7	3	0.73	3	25	0.18	2	0.5833333333	3	0	1	0.38	24.2003733862	253.33
648	6	7	0.67	4	25	0.44	0.52	1	4	0	2	1.13	52.9810644982	253.18
729	6	5	0.86	2	31	0.38	1.45	0.2222222222	3	0	3	1.13	49.1318888997	252.9784946237
563	0	3	0.68	2	19	0.37	1.63	0.5238095238	5	1	2	0.56	114.585526403	252.5368421053
947	0	3	1	2	8	0.22	2.75	0.7222222222	5	1	3	0.54	51.5546208663	252.4
213	0	3	1	0	23	0.17	1.96	0.4230769231	4	1	5	1.28	24.215768469	252.2608695652
997	0	7	0.79	0	14	0.5	2	0.7142857143	5	0	0	0	26.7143918632	252.1071428572
544	11	5	0.83	4	34	0.28	0.91	0.6666666667	4	1	3	0.42	39.3716209627	251.7705882353
481	6	2	0.91	4	34	0.21	3.41	0.7142857143	4	3	6	1	48.8754124823	251.0941176471
1005	0	2	0.83	0	6	0	1.5	0.5	5	0	0	0	300	250.8333333333
335	0	7	1.04	1	25	0.12	2.4	0.625	4	1	5	1.4	35.881588055	250.7333333333
80	4	6	0.85	1	26	0.19	2.69	0.6666666667	4	2	4	1.06	46.7528033639	250.6153846154
987	0	2	1	0	25	0.44	1.16	0.8	4	1	3	0.63	300	250.608
946	0	9	1.11	0	9	0.22	1.22	0.3846153846	2	0	1	0.25	134.718435918	250.2666666667
895	4	3	0.67	0	12	0.75	1.67	0.4	5	0	0	0	300	250
937	0	3	0.75	1	12	0.25	0.58	0.7	4	1	2	0.69	77.8528905651	249.5208333333
798	0	6	1	0	7	0.43	2.14	0.4285714286	4	0	0	0	36.6496624643	249.4642857143
857	3	4	0.83	0	14	0.33	0.5	0.8888888889	5	0	0	0	31.8368173832	249.4464285714
1065	0	2	0.75	2	8	0.38	1.63	0.875	4	0	1	0.13	75.5931751787	249.325
823	2	7	0.83	0	12	0.17	0.58	0.5	3	0	5	2.88	87.2335965715	249.05
120	4	5	0.95	6	42	0.14	3.33	0.3928571429	3	1	3	0.63	26.1192964372	248.8761904762
392	0	2	0.8	3	30	0.17	3.93	1	5	3	7	1.05	113.585278017	248.8133333333
623	0	2	0.71	0	14	0.21	1.64	0.5	4	0	2	0.63	300	248.2428571429
75	15	4	0.82	2	38	0.26	2.45	0.6	4	1	4	1	51.4572077418	247.9315789474
453	0	4	0.93	1	14	0.29	2	0.5714285714	4	0	1	0.38	37.5545620008	247.0857142857
964	0	8	1.1	2	9	0.2	1.78	0.6	3	0	1	0.13	15.1451336396	246.9555555555
504	10	4	1.05	4	37	0.4	0.81	0.8	4	2	3	0.54	47.238986791	246.5567567568
715	2	3	0.57	3	16	0.57	0.69	1	4	1	3	0.63	50.9618991334	246.175
735	5	6	0.67	0	8	0.44	1.63	1	4	1	2	0.56	57.5011816228	245.8
704	4	2	1	0	9	0.29	0.78	0.5454545455	4	0	1	0.63	160.936815524	245.7777777778
313	9	4	0.74	1	31	0.32	2.39	0.5714285714	4	0	4	1.38	40.4142290083	245.7548387097
995	0	7	1	1	11	0.33	0.64	0.8	4	2	4	1.06	60.6187206688	245.5272727273
470	0	4	0.93	2	28	0.21	2.25	0.4090909091	3	1	3	0.75	21.5163003672	245.3660714286
773	11	6	0.95	1	22	0.55	2.36	0.2222222222	4	0	1	0.13	139.781173122	245.3090909091
184	1	6	1	3	24	0.25	1.79	0.4444444444	4	1	2	0.75	30.8308905713	245.0104166667
524	10	2	0.89	3	35	0.17	2.49	0.3684210526	4	2	8	1.7	31.8624555694	244.9142857143
789	0	2	0.83	0	9	0.33	0.56	0.625	4	1	2	0.44	37.9977712422	244.8222222222
262	3	4	1	4	22	0.14	1.91	0.5333333333	3	1	3	0.63	28.4757786635	244.8090909091
507	0	4	0.94	2	17	0.12	2.18	0.2962962963	3	1	2	0.13	28.1655790265	244.3882352941
697	7	3	1	1	16	0.29	1.81	0.75	5	0	1	0.5	68.3131452536	244.3333333333
723	0	8	0.8	2	11	0.4	1.82	0.5333333333	4	0	1	0.75	38.5859730592	244.2545454546
992	0	5	0.57	1	16	0.43	1.94	0.7	4	0	0	0	53.5793953759	244.1
220	9	5	0.93	1	30	0.23	2.57	0.5714285714	4	1	7	1.36	19.504841084	244.0933333334
526	3	7	0.78	2	32	0.28	2.78	0.4166666667	4	2	3	0.46	44.7927315237	243.7421875
480	3	4	0.75	4	36	0.22	3.11	0.5384615385	4	2	5	1.43	30.3267811623	243.4222222222
84	23	3	0.89	6	36	0.22	2.08	0.4583333333	4	3	7	1.66	37.668821526	242.2111111111
829	6	2	1.08	2	24	0.32	2.38	0.5384615385	4	0	1	0.13	114.448120507	242.1916666667
446	2	5	0.81	1	31	0.23	2.94	1	5	0	6	2	35.1487740909	242.064516129
450	0	5	0.72	3	34	0.13	4.09	1	3	1	4	0.81	17.9458010477	241.8676470588
1061	0	3	0.62	1	12	0.46	1.75	0.8888888889	5	0	1	0.38	64.4983809736	241.8166666667
291	0	7	1.07	3	15	0.2	2.33	0.3684210526	4	2	4	0.59	28.6044148802	241.8133333333
333	0	3	0.79	1	41	0.32	2	0.4444444444	4	2	3	0.96	101.250795082	241.7865853658
242	11	3	0.81	2	40	0.19	0.88	0.6666666667	4	0	5	3.13	30.505883996	241.33
15	6	4	0.91	3	36	0.18	1.06	0.8	4	3	5	1.68	24.5326751022	241.3055555556
732	0	4	1.5	1	17	0	0	0.7142857143	5	0	1	0.63	300	241.1529411765
361	7	3	0.83	2	30	0.1	3.6	0.5454545455	4	0	1	0.13	24.0647580355	240.94
431	5	2	0.93	1	26	0.26	3.27	0.4210526316	4	1	3	0.96	25.4815009843	240.5230769231
299	0	8	0.67	0	10	0.33	0.1	0.4285714286	3	2	3	1.38	24.8443999004	240.14
246	0	3	0.84	8	37	0.19	4.32	0.5185185185	4	1	7	2.45	36.5097840468	240.0918918919
106	0	5	0.85	1	20	0.3	2.75	0.2857142857	4	0	4	3.5	24.2403750857	239.93
988	0	2	0.87	0	13	0.4	1.62	0.5555555556	4	0	1	0.5	149.970305212	239.6307692308
531	5	3	1	3	36	0.33	1.08	0.5238095238	3	2	5	0.9	33.3325572503	239.2277777778
67	0	5	0.67	2	23	0.33	3.78	0.9230769231	4	1	4	1.31	26.0111538671	238.8956521739
132	0	6	0.74	1	27	0.26	3.78	0.4347826087	5	0	2	0.88	36.9914027756	238.7111111111
445	3	2	0.71	2	27	0.21	1.07	1	3	3	5	1.08	39.197579397	238.6888888889
1044	1	8	1	0	10	0.25	0.3	0.5	4	0	3	1.38	62.6123682672	238.04
674	2	5	1	0	22	0.1	0.77	0.5	3	0	2	0.63	21.138409063	237.9818181818
363	0	5	0.89	4	18	0.22	1.94	0.4516129032	4	0	0	0	24.622187508	237.7888888889
808	0	5	1.07	0	15	0.29	1.07	0.3846153846	4	0	1	0.75	56.8192987776	237.7066666667
578	0	8	1.11	1	18	0.33	1.94	0.3636363636	3	1	3	1.08	31.8951643437	237.5222222222
608	2	8	0.75	4	16	0.25	0.75	0.2222222222	3	1	3	1	20.662553904	237.2375
622	1	7	1.25	2	11	0.25	0.27	0.3	4	0	2	0.63	60.806571813	236.3090909091
644	0	4	0.88	2	18	0.38	0.56	0.3636363636	4	1	2	0.5	71.3214941912	236.0666666667
582	0	2	0.82	0	17	0.18	2.29	0.5	5	0	0	0	300	235.5764705882
429	14	4	0.88	3	34	0.12	2.44	0.5714285714	4	0	3	1.75	33.4302841348	235.4411764706
961	0	5	0.88	2	8	0.38	1	0.5714285714	5	0	1	0.13	145.583052138	235.425
388	0	4	0.91	0	11	0.27	1.64	0.375	5	0	2	0.75	49.074837684	235.0363636364
528	0	7	1.08	1	13	0.15	1.38	0.3636363636	4	0	3	1.38	19.7207421814	234.9615384616
1033	0	7	0.7	1	14	0.3	1.5	0.4615384615	5	0	4	2.13	118.363406895	234.5571428571
512	18	4	1.04	2	29	0.22	1.48	0.4	4	1	6	1.13	34.7456769382	234.0689655172
357	0	5	1.06	3	32	0.15	2.25	0.5263157895	4	4	8	1.88	32.0981502975	233.975
1035	0	5	1	1	21	0.5	0.1	1	5	3	4	1.38	156.771124175	233.7047619048
367	11	3	0.94	2	31	0.26	2.16	0.4	4	2	8	2.7	52.5962017323	233.6451612904
754	7	3	1.2	0	20	0.35	2.1	0.3333333333	4	1	3	0.29	19.0652169669	233.61
304	4	5	0.7	1	29	0.26	2.55	0.4285714286	3	0	4	0.5	28.775448101	232.9310344828
380	0	4	0.88	1	34	0.12	2.94	0.3	3	0	3	0.5	108.484266568	232.9176470588
365	9	6	1	4	39	0.16	1.59	0.8823529412	4	0	4	0.88	27.7033706654	231.7538461538
154	7	3	1.25	2	35	0.13	0.43	0.3888888889	4	0	1	0.5	37.1777234961	231.0457142857
740	0	8	0.91	0	19	0.27	0.74	0.4444444444	3	0	1	0.25	41.4395297383	231
284	2	4	0.87	4	37	0.21	3.81	0.3846153846	4	1	7	1.8	71.0137749503	230.8513513514
518	0	4	1.07	2	16	0.36	1.44	0.8333333333	3	0	0	0	10.3463681358	230.425
500	3	7	0.75	2	17	0.25	0.53	0.5882352941	2	0	1	0.13	29.6937276408	229.9764705882
78	4	7	0.85	1	26	0.27	2.15	0.2222222222	4	1	4	0.66	31.9817033038	229.9711538462
268	16	5	0.94	2	32	0.16	3.19	0.5	4	1	4	0.75	34.6052453017	229.96875
833	0	4	0.85	1	16	0.23	1.25	0.5	4	1	5	1.05	95.7514932578	229.8125
1019	4	3	0.83	2	18	0.42	1.22	0.5	5	2	3	1	44.7834498076	229.5777777778
751	3	3	0.88	2	29	0.25	0.21	0.5769230769	3	2	5	1.33	50.9455534432	229.5724137931
1034	2	6	1.06	4	26	0.28	1.5	0.6	4	3	4	0.69	82.6724665911	229.3557692308
232	4	5	1.07	1	15	0.13	1.93	0.6153846154	3	2	4	1.28	39.5740585148	229.0933333333
436	6	5	1.12	4	26	0.19	2.12	0.7777777778	4	0	2	0.75	27.3204890943	229.0153846154
587	5	3	0.61	4	36	0.25	2.58	0.4	4	0	2	0.38	44.9692235295	228.8888888889
484	0	7	1	0	17	0.29	1.47	0.4615384615	4	0	2	0.38	71.7075624902	228.6
8	13	3	0.92	1	36	0.25	2.83	0.3461538462	3	5	6	1.25	30.9658362891	228.1
416	2	4	0.93	5	35	0.21	0.66	0.4210526316	4	1	2	0.38	50.9604542922	227.7885714286
1032	2	2	0.92	0	13	0.46	2.77	0.4375	4	0	1	0.38	151.482899929	227.3846153846
514	0	3	0.66	2	29	0.24	3.41	0.3333333333	5	2	6	1.08	152.991994465	227.3793103448
783	0	4	0.82	1	11	0.36	1.91	0.5	4	0	0	0	75.0806254444	226.3636363636
479	8	5	0.82	1	34	0.21	2.94	0.5	3	1	2	0.38	52.2146199719	226.0352941176
769	2	3	0.86	1	24	0.43	0.25	0.5555555556	4	2	4	0.56	117.600250838	225.9333333333
1058	0	6	0.78	3	9	0.33	1.22	0.3333333333	5	0	1	0.25	300	225.6666666667
884	11	6	1.12	3	25	0.23	3.6	0.5333333333	3	0	2	0.5	27.5400026827	225.66
838	8	7	1	0	10	0.3	3.2	0.4444444444	3	1	2	0.44	35.4535891406	225.2
642	0	5	0.62	1	11	0.38	3.91	0.5555555556	4	0	2	1	110.765474688	225.1818181818
375	0	4	0.71	0	14	0.36	1.93	0.6923076923	5	0	1	0.13	35.0499643905	224.9857142857
1009	4	7	1.05	2	25	0.2	2.4	0.5	4	0	0	0	107.042688134	224.104
253	8	3	0.77	0	35	0.31	2.26	0.2857142857	4	3	6	1.44	48.8812108237	224.0571428571
572	7	4	0.94	4	34	0.15	2.62	0.4583333333	4	3	8	1.13	41.8852623149	223.7176470588
806	9	3	1	3	28	0.14	0.96	0.6	4	0	3	1.13	99.0823761908	222.3
169	4	4	1.47	3	39	0.07	0.95	0.5	3	3	12	3.59	25.3613975067	222.1897435897
1031	0	4	0.75	1	18	0.13	0.39	0.5	4	2	4	0.72	97.5477313062	221.7777777778
167	12	4	1	1	19	0.16	1.84	0.5882352941	4	0	1	0.13	25.5995030432	221.1052631579
936	0	9	1	0	7	0.5	0	0.5	4	0	1	0.38	35.2087207983	220.8285714286
725	3	3	0.86	0	20	0.52	2	1	5	0	1	0.25	250.548209806	220.8
540	11	4	0.78	1	27	0.19	2.07	0.4	5	2	6	1.73	49.7470074258	220.6592592593
874	0	3	0.93	2	17	0.21	1.29	0.4761904762	4	0	1	0.38	61.2112979212	220.4509803922
899	0	6	0.93	1	14	0.36	3	0.2307692308	4	1	2	0.19	68.1472327469	220.4428571429
473	11	4	0.85	1	27	0.33	2.7	1	4	1	5	1.28	29.99192072	220.0518518519
1051	0	2	1	0	14	0.44	0.79	0.6	4	0	1	0.38	124.019050635	219.6071428572
1028	6	3	1.36	0	11	0.18	1.45	1	5	0	1	0.75	43.0419278477	219.5818181818
943	0	2	0.86	0	10	0.29	0.9	1	5	0	0	0	166.560841828	218.64
341	7	2	1.08	0	12	0	2.25	0.4615384615	3	0	3	1.25	20.6134219304	218.5166666667
508	6	4	1.19	2	34	0.19	3.24	0.5714285714	4	0	7	1.5	39.5614106764	218.0823529412
369	9	4	1.08	0	37	0.14	3.03	0.6	4	5	10	2.13	32.5219274922	217.6689189189
260	0	4	0.59	0	24	0.36	2.54	1	3	1	4	0.84	33.4796559525	217.6333333333
391	8	3	1	1	27	0.26	2.19	0.2962962963	4	0	3	1.13	27.5661969812	217.6074074074
575	0	5	0.96	1	28	0.31	2.93	0.75	4	0	0	0	60.7513100761	217.1428571429
447	5	5	0.71	2	14	0.21	2.21	0.5	3	1	3	1.13	49.3592065613	216.8392857143
960	3	3	0.85	1	33	0.23	0.67	0.3846153846	3	0	2	1	57.0794845326	215.3090909091
175	12	5	1.04	2	25	0.16	1.96	0.55	4	0	0	0	38.4632120497	215.064
252	2	5	1.18	2	27	0.24	1.11	0.5	3	0	5	2.38	56.7908509766	215
347	0	5	0.78	1	18	0.28	2.67	0.5	4	1	3	0.67	59.5176198615	214.5185185185
245	4	4	1.04	1	23	0.21	1.96	0.5454545455	3	0	0	0	16.8852357266	213.9652173913
63	7	5	0.94	2	35	0.26	3.17	0.375	4	2	5	0.68	22.9310409618	213.5428571429
306	8	3	1.17	3	39	0.17	0.13	0.7272727273	3	5	8	2.45	52.0049946861	213.517948718
573	13	2	0.74	2	27	0.26	2.78	0.75	4	0	2	1.38	71.645589123	213.4938271605
258	6	5	0.86	1	28	0.11	3	0.4	4	3	6	1.44	51.1562139294	213.35
976	0	3	0.83	0	12	0.33	0.42	0.3913043478	4	0	3	1.75	189.197918286	213.2166666667
805	0	4	0.94	1	18	0.35	2.06	0.6666666667	3	1	2	0.56	121.591819199	213.2111111111
279	0	5	0.91	3	31	0.19	1.97	0.3571428571	3	3	6	1.13	34.729686087	213.0193548387
426	9	5	0.84	1	24	0.24	1.88	0.5833333333	4	0	2	0.63	34.5487360412	212.7583333333
978	5	3	1	1	16	0.17	2.88	1	3	1	2	0.31	63.9941923157	212.5
107	0	5	0.87	4	30	0.26	2.4	0.4285714286	4	1	5	1.53	37.4211041488	212.3533333333
257	13	4	0.81	5	36	0.14	4.78	0.4285714286	4	2	6	1.08	52.1443977208	211.9333333333
413	10	4	0.85	2	35	0.15	2.09	0.8571428571	4	2	7	2.13	39.3729519819	211.8761904762
993	7	3	0.83	0	14	0.33	1.43	0.4375	4	0	3	1.38	300	210.2571428572
982	0	2	1.18	0	11	0.36	2.64	0.5	4	0	0	0	27.0717370767	209.0909090909
478	0	5	0.78	0	18	0.22	0.56	0.8888888889	3	3	4	0.69	32.7700004677	208.9111111111
488	3	4	0.94	1	36	0.31	0.72	1	4	3	7	2.21	51.501729294	208.8666666667
836	8	5	1.13	3	27	0.2	1.11	0.5882352941	4	0	5	1.38	79.4410851331	208.0074074074
410	0	4	0.87	1	25	0.22	2.16	0.7857142857	4	0	1	0.63	30.4271161877	207.872
193	11	5	0.77	1	35	0.2	2.74	0.4545454545	4	1	7	1.75	37.8241848693	207.8285714286
539	0	6	0.89	2	18	0.22	1.78	0.380952381	4	0	1	0.63	35.5009412145	207.6555555556
464	6	4	0.86	3	39	0.22	2.77	0.5	4	3	6	0.94	39.2108654531	207.3461538462
962	1	7	1.06	2	16	0.25	1.94	0.5	3	0	1	0.63	85.2653766799	207.0625
882	0	5	1.5	0	7	0.5	0	0.75	4	0	1	0.25	145.900660348	207.0357142857
241	6	0	0.43	1	25	0.24	2.32	0.5357142857	5	0	1	0.13	300	206.384
1059	0	4	1.17	0	12	0.42	1.75	0.8571428571	4	0	1	0.63	50.0881653432	206.3166666667
599	0	4	1	3	23	0.17	2.48	0.8571428571	4	0	2	1.38	46.7229790285	206.0434782609
379	1	2	0.92	1	16	0.17	1	0.4	3	3	5	0.95	33.6297512875	205.3625
425	4	4	0.79	2	31	0.29	0.87	0.4444444444	4	5	9	2.71	36.6337628753	205.2795698925
938	6	3	1.33	4	19	0.67	0.05	0.55	3	1	3	0.92	120.028074229	205.2631578947
864	0	6	1	0	28	0.5	0.07	0.4444444444	4	1	3	0.25	300	205.1785714286
914	7	4	0.95	2	26	0.2	1.62	0.875	4	1	2	0.5	37.5036889009	204.5128205128
752	0	7	0.78	4	14	0.44	1.21	0.3461538462	4	2	3	0.88	19.7119639663	204.1714285714
907	6	5	0.79	0	20	0.43	1.25	0.7	4	0	2	1.13	23.0340147376	204.07
343	0	2	0.75	2	16	0.25	1.63	0.6666666667	4	1	2	0.94	31.4103058553	203.8625
894	0	8	1.14	0	14	0.21	1.86	0.4736842105	3	2	3	0.71	41.7586849799	203.1190476191
902	3	4	0.54	0	24	0.69	1.13	0.2857142857	4	0	4	1.25	242.348662733	203.0729166667
102	0	6	1.17	2	39	0.25	2.15	0.75	4	1	7	1.21	37.571154752	203.0512820513
951	5	3	0.95	1	20	0.35	1.6	0.5	4	0	0	0	94.216420313	202.9833333333
853	0	7	0.92	0	13	0.38	1.46	0.8888888889	4	0	0	0	70.5373253261	202.8769230769
1068	0	4	0.95	0	23	0.27	2.26	0.7777777778	4	1	2	0.25	80.8067112382	202.5434782609
150	0	5	0.89	4	36	0.14	2.61	0.4444444444	3	7	10	2.18	27.8617910707	202.3444444445
948	0	6	0.82	1	11	0.45	2.36	0.5714285714	5	0	1	0.25	300	202.0909090909
845	0	7	1.11	0	13	0.33	0.92	0.3684210526	4	0	0	0	124.944666153	201.4615384615
641	7	8	0.92	0	19	0.17	1.26	0.3333333333	2	0	2	1	16.2218322939	201.2
896	10	8	1	2	18	0.56	1.67	0.4	5	0	2	0.5	106.236349675	200.9555555556
1055	2	6	1.25	2	30	0.38	0.3	0.5714285714	3	2	4	1.53	83.7883630721	200.4866666667
912	0	2	1.14	0	18	0.43	0.5	0.65	6	0	1	0.13	300	199.9777777778
929	3	3	0.62	1	13	0.31	2.15	0.8	5	1	4	0.66	66.0496205711	199.7230769231
505	0	6	1	4	38	0.26	2.82	1	4	2	7	1.55	37.9551555076	199.6710526316
591	0	2	1	1	17	0	0.35	0.4333333333	4	1	2	0.56	18.8393126478	199.3647058824
190	6	7	0.9	2	33	0.29	1.67	0.5714285714	4	1	4	1.47	31.325986973	199.1636363636
248	4	5	1.07	3	21	0.2	1.57	0.4285714286	3	0	3	1.63	12.2256918535	198.2952380952
872	0	5	0.89	1	18	0.33	0.72	0.5	4	0	4	1.5	89.9628225319	197.6777777778
1062	5	8	1.14	1	27	0.29	0.3	0.4444444444	3	1	4	1.09	46.2426393989	197.3703703704
348	5	3	1.05	2	40	0.29	1.73	0.5	4	2	3	0.42	34.6414890386	196.775
486	0	4	0.89	1	19	0.26	2.26	0.5	4	1	3	0.88	37.4131238936	195.6736842105
396	5	2	0.81	3	27	0.22	2.3	0.6	4	1	6	1	66.6380575982	193.9481481481
886	4	2	0.86	0	7	0.29	1.14	0.6363636364	5	0	0	0	22.8702579888	193.7142857143
996	0	4	0.73	1	15	0.36	1.07	0.5454545455	4	1	3	0.67	76.2167115315	192.9333333333
930	3	7	0.8	1	22	0.6	0.23	0.4	3	1	2	0.38	130.53776681	192.7727272728
290	10	3	1.05	3	19	0.11	2.95	0.6	4	1	3	0.96	23.5598567541	192.649122807
352	0	6	0.79	0	19	0.21	1.53	0.75	4	0	1	0.25	28.3110411336	191.9052631579
887	2	4	0.78	2	18	0.44	0.78	0.4285714286	3	0	2	0.88	13.4753621272	190.7407407408
731	10	2	1.33	1	21	0.67	0.05	0.4	4	0	1	0.5	151.965569569	190.6761904762
477	7	2	0.82	3	38	0.32	2.47	0.7142857143	4	4	6	1	37.1718019471	189.9157894737
1037	0	4	0.75	2	19	0.25	0.68	0.8	5	0	4	2	229.893021098	189.5894736842
979	0	4	0.67	4	28	0.33	0.04	0.8333333333	4	0	2	0.88	65.2213367073	187.8785714286
342	12	4	1.08	3	25	0.24	1.72	0.6666666667	3	0	1	0.38	19.1248026499	187.848
360	0	8	1	1	21	0.19	2.43	0.4814814815	4	0	4	2.25	37.1555464386	187.8476190476
668	2	4	1	2	22	0.11	0.64	0.4	4	3	6	1.44	35.3247989354	187.4
527	0	5	0.78	2	20	0.17	1.9	1	4	1	4	1.47	22.7771449678	186.675
855	2	6	0.9	2	18	0.4	0.78	0.4545454545	4	1	3	0.58	53.6378999205	186.5666666667
835	3	4	1.33	1	33	0.33	0.03	0.5882352941	4	0	2	0.88	67.47476203	185.8787878788
846	0	5	0.75	1	14	0.38	0.71	0.3333333333	4	1	2	0.38	87.1656180375	185.2857142857
219	10	4	1.05	4	36	0.16	3.72	0.7142857143	3	0	4	1.75	39.4206903744	185.25
570	0	7	0.94	1	30	0.29	0.97	0.75	4	1	3	0.54	104.932684227	185.1066666667
255	7	5	0.58	1	35	0.38	1.37	1	4	2	4	0.69	30.877070124	184.8571428572
303	18	4	1	2	31	0.16	2.16	0.6153846154	3	0	2	0.63	27.94877962	184.8516129032
921	4	4	1.13	0	8	0.13	0.88	0.6875	3	0	1	0.63	206.206383861	184.85
281	5	3	0.91	2	22	0.14	2.14	1	4	0	3	1.13	25.1583498229	184.7454545455
521	0	4	0.81	2	26	0.23	2.04	0.4	4	0	1	0.63	28.2756758714	184.6461538462
200	0	5	0.89	0	24	0.33	0.92	0.5714285714	3	0	2	0.75	17.1982161312	184.5416666667
928	0	4	0.73	0	15	0.53	1.47	0.4545454545	5	0	1	0.13	174.51222622	184.5166666667
498	15	5	0.77	5	30	0.17	2.53	0.4285714286	5	2	5	1.08	50.1268995437	183.92
1039	9	7	1.03	0	27	0.2	3.19	0.4444444444	3	1	2	0.63	57.9948463952	183.6574074074
1023	5	9	1	1	20	0.14	0.35	0.4615384615	3	0	3	1.5	11.6682740924	183.24
143	8	6	0.5	3	25	0.25	0.12	0.6923076923	3	2	4	1.09	17.8321199974	182.68
859	0	3	0.83	2	18	0.33	0.28	0.625	4	2	4	1.34	58.5244957254	182.6777777778
848	4	5	1	0	20	0.28	1.7	1	3	0	3	1.5	72.260722564	182.5
932	0	3	1	2	19	0.4	0.74	0.375	4	0	0	0	75.1366173757	181.6421052632
1008	5	2	0.76	2	21	0.19	2.1	0.6666666667	4	1	4	1.31	119.271654711	181.4095238095
1026	9	6	0.92	2	12	0.08	1.5	0.44	3	0	1	0.88	22.8475893161	180.9166666667
493	14	7	0.69	2	27	0.5	1.3	0.5555555556	3	0	3	1.63	32.9024122511	180.8740740741
934	2	8	1.4	1	29	0.2	0.41	0.5714285714	3	4	7	1.55	53.6564288209	180.0275862069
506	6	6	0.91	2	22	0.14	2.14	0.4	3	0	3	1.63	38.7673887912	179.3090909091
1056	0	4	1	0	13	0.5	0	0.6	4	1	2	0.31	79.1575152819	178.1846153846
917	0	5	0.8	0	15	0.4	1	0.6875	4	0	0	0	43.3566358391	178.15
530	9	4	0.84	1	25	0.28	2.24	0.3529411765	4	0	4	1.88	37.7706299349	177.536
969	0	6	1	0	25	0.5	0	0.3333333333	4	2	6	1.9	95.3700013342	175.008
208	25	6	0.69	2	38	0.23	3.61	0.45	4	2	6	1.08	52.6666271922	173.9802631579
1041	7	5	0.8	3	23	0.6	0.65	0.55	4	0	1	0.63	91.8223654808	172.9739130435
680	4	4	0.93	1	24	0.13	1.08	0.5	3	1	2	0.5	76.1459241065	172.7333333333
384	14	6	1.2	4	38	0.2	0.63	0.5555555556	3	3	6	1.63	29.3890942853	172.652631579
825	8	5	1.14	2	28	0.21	1.5	0.5	4	1	5	1.7	40.9437653618	172.4857142857
329	6	4	1.1	3	28	0.2	0.36	1	4	2	5	1.93	36.1905432997	172.2642857143
97	4	3	0.62	2	26	0.31	3.46	1	4	0	3	1.13	34.751588457	171.3769230769
842	0	4	0.68	1	19	0.32	2	1	4	0	2	1.13	65.6641966727	171.2526315789
861	5	3	0.89	1	21	0.22	2.1	0.5	4	2	4	0.81	100.331811014	170.9428571429
826	9	4	1.12	5	29	0.15	4.41	0.7058823529	4	2	3	0.71	300	170.5379310345
1010	0	4	1.25	3	26	0.25	0.08	0.6363636364	4	0	4	2	160.80994355	170.0769230769
318	5	4	0.8	2	32	0.6	0.13	0.8	3	1	4	0.94	30.6971522277	169.4453125
1018	2	9	1	3	28	0.43	0.32	0.6	4	2	3	0.25	41.0161988135	169.1785714286
483	15	4	0.89	0	18	0.28	2	0.2	4	1	3	0.63	22.26254449	168.9111111111
793	0	3	0.75	4	21	0.33	1.05	0.7142857143	5	2	3	0.54	58.6590550112	168.8190476191
813	3	5	0.8	3	27	0.3	0.7	0.1428571429	4	1	2	0.69	73.8188897813	168.5555555556
868	2	4	0.83	0	12	0.33	1.5	0.3636363636	3	0	1	0.13	73.3962116755	168.0666666667
349	4	2	0.79	1	41	0.32	1.49	0.5625	3	0	2	1.25	34.4878009795	165.5756097561
1002	4	4	0.95	1	29	0.35	1.41	0.5	4	1	2	0.38	197.602362278	164.5775862069
576	7	5	0.71	4	35	0.29	0.31	0.7142857143	3	1	4	1.31	27.3733504838	164.1657142857
953	0	5	1.1	3	22	0.3	1.64	0.5714285714	5	0	2	0.63	54.6233593864	163.6818181818
497	6	5	0.78	3	18	0.17	1.94	0.3125	5	0	4	0.63	30.3016390889	163.0333333333
400	2	6	0.9	3	21	0.29	2.29	0.5	3	0	1	0.38	22.6004487346	162.9904761905
940	8	1	0.83	1	13	0.33	3.85	0.4285714286	6	0	0	0	300	162.9846153846
359	10	3	0.97	2	34	0.12	2.59	0.375	4	2	4	0.72	48.9500424142	162.0441176471
553	14	2	0.63	0	27	0.3	3.96	0.4736842105	3	1	3	0.63	57.0520726937	161.8518518519
803	3	3	1	1	20	0.2	0.2	0.75	3	1	3	0.96	49.8492766486	160.06
819	2	5	0.8	5	31	0.4	0.19	0.5625	4	2	6	1.38	75.0902334633	160.0064516129
748	0	7	0.83	3	18	0.33	0.33	0.3703703704	4	1	2	0.31	24.7869111105	159.9444444444
939	4	6	0.86	0	22	0.36	3.73	0.3846153846	5	0	1	0.13	189.939638687	159.8818181818
383	6	5	0.71	3	31	0.29	0.84	0.25	3	2	5	1	27.5130606414	157.0838709677
983	3	1	0.86	1	21	0.29	0.52	0.7	3	1	3	0.54	133.596074678	156.4476190476
452	0	4	0.76	2	37	0.24	2.22	0.5714285714	4	0	2	0.5	54.5402223905	153.9189189189
1067	0	6	1	4	11	0	0.09	0.5	3	0	0	0	17.3529474661	152.1636363636
889	7	5	1	1	18	0	0.33	0.7	4	0	2	0.75	114.827462973	152.1481481482
945	4	5	0.81	1	19	0.25	1.84	0.5454545455	3	1	2	0.56	134.537377914	148.6947368421
404	19	0	0.77	2	25	0.04	2.84	0.4	4	0	1	0.38	300	148.408
891	4	5	0.9	0	26	0.5	0.58	0.3333333333	3	3	6	1.31	86.7217176093	148.3307692308
973	0	8	0.67	4	24	0.67	0.29	0.8	4	1	5	1.4	210.229192958	146.65
94	4	4	0.62	0	23	0.29	1.74	0.4074074074	3	2	5	1.05	29.6860560952	146
372	29	6	0.85	4	39	0.23	2.72	0.6666666667	3	3	6	0.58	32.5128219268	144.841025641
466	17	6	1.08	4	35	0.08	1.29	0.5	3	3	5	1.28	25.6337080339	143.2057142857
893	0	2	0.81	2	21	0.44	1.62	0.9642857143	5	0	3	1.13	155.349836094	141.9428571429
1038	0	4	1	2	29	0.17	0.21	0.3181818182	4	3	6	1.63	117.750872916	141.7448275862
346	0	4	0.96	0	24	0.13	2.13	0.5	4	0	4	1.63	23.7812632271	140.4444444444
1050	4	4	0.4	0	30	0.8	0.2	0.3214285714	4	1	2	0.38	58.9201896678	139.2133333333
869	1	6	1	0	27	0.4	0.15	0.3846153846	4	1	4	0.75	86.7125735532	138.2296296296
920	3	7	0.83	0	14	0.5	0.5	0.4444444444	4	0	1	1	26.9049748669	136.6285714286
879	6	7	1	1	18	0.33	1.44	0.5	5	1	4	0.97	91.6367857761	136.6111111111
454	25	4	0.85	3	33	0.15	2.91	0.5	4	3	5	1.33	31.9866920328	136.5303030303
942	0	5	1	2	26	0.57	0.23	0.4	4	1	3	0.67	68.9560435072	130.6153846154
1063	2	4	1	1	18	0.2	0.22	0.8	3	1	3	0.54	28.432915436	122.6333333334
1070	3	4	1	1	29	0.2	0.14	0.32	3	0	1	0.63	55.2149319016	119.8758620689
533	10	5	0.9	2	28	0.4	0.5	0.2777777778	4	1	3	0.54	31.7147773378	119.1
915	8	6	0.89	2	24	0.33	0.5	0.5	3	0	1	0.75	40.152899173	118.6416666667
870	7	6	1	3	27	0.4	0.15	0.75	4	2	4	1.25	79.7256413732	115.5555555556
1052	0	5	0.8	0	34	0.2	0.06	0.6666666667	4	4	6	1.13	300	112.4117647059
918	7	5	1.2	0	29	0.2	0.31	0.4545454545	4	1	3	0.25	167.070454242	109.75
923	0	5	0.9	0	19	0.1	0.79	0.4761904762	4	2	3	0.42	62.3614185683	100.8070175439
368	5	6	1.33	3	40	0.33	0.03	0.4210526316	3	1	3	0.5	43.3862317288	87.0583333333
903	0	6	0.87	0	30	0.27	3.13	0.3703703704	4	2	5	0.78	84.9452312171	77.45
339	2	0	0.42	0	37	0.16	3.27	0.5454545455	4	0	1	0.25	300	69.9945945946
295	6	3	0.63	2	36	0.25	0.58	0.5	3	3	6	1.38	61.1408106863	59.9166666667
