Sentence	CorDist	DP	Ddensity	DisCon	L	Pnoun	SC	AvgWrdLen	OOV	FlipCount	SubjectiveCount	SubjectiveScore	SCI_label	Perplexity
613	0	4	1	0	2	1	0.5	5	0.4	0	1	0.125	1000	300
652	0	1	1.4	0	5	0.6	1.8	4	0.8333333333	0	1	0.375	1000	300
582	0	2	0.8181818182	0	17	0.1818181818	2.2941176471	5	0.4782608696	0	0	0	1000	300
760	0	3	1.2	0	4	0.4	1	5	0.3076923077	0	2	0.625	1000	139.496834112
721	0	4	2	1	2	0.5	0.5	6	0.5	0	1	0.125	1000	113.531731093
664	0	1	1	0	2	1	0.5	7	0.8235294118	0	0	0	1000	300
737	0	5	2	0	2	0.5	0.5	5	0.5	0	0	0	1000	12.0636714185
719	0	3	0.8571428571	1	7	0.7142857143	1.2857142857	5	0.8181818182	0	0	0	1000	50.4513600065
620	0	0	1.3333333333	1	2	0.3333333333	0.5	6	0.3333333333	0	0	0	1000	128.608212174
663	0	6	0.8	0	5	0.8	1.4	4	0.52	0	1	0.125	983.72	214.859746302
733	0	3	1.2	0	7	0.2	0.4285714286	5	0.24	0	1	0.625	929.4857142857	300
777	0	1	0.75	0	4	0.5	0.5	5	0.9166666667	0	1	0.375	872.6	57.1115035313
687	0	1	1.3333333333	0	3	0.6666666667	1	5	0.75	0	0	0	865.1666666667	32.1528491581
701	0	2	0.6	0	5	0.6	1.2	4	0.4545454545	0	0	0	823.8	66.831031625
908	0	5	1.2	2	4	0	0.75	5	0.8181818182	0	0	0	813.0833333333	26.2357307159
590	0	7	1	1	13	0.3333333333	1.0769230769	3	1	0	3	0.75	812.0666666667	27.6219140001
990	0	2	1.2	0	5	0.4	2	4	0.75	0	0	0	768.56	111.3491143
794	0	2	1.4	0	5	0.6	1	7	0.3636363636	0	1	0.125	767.6666666667	300
565	0	5	1.3333333333	1	11	0.3333333333	0.3636363636	4	0.4074074074	0	2	0.875	750.2	59.7890863654
677	0	5	1.1428571429	0	5	0.2857142857	1.2	4	0.3076923077	0	1	0.125	748	196.303642709
880	2	5	0.7142857143	0	10	0.4285714286	0.8	5	1	0	0	0	736.5	300
849	0	2	1.3333333333	0	3	0.3333333333	0.3333333333	11	0.375	0	0	0	704.1333333333	300
579	2	2	0.7142857143	3	24	0.2857142857	1.0416666667	4	0.6666666667	1	2	0.6875	694.0256410256	57.8453728708
670	3	3	1	1	13	0.5	0.1538461538	5	0.2380952381	0	1	0.125	686.3461538462	300
750	0	7	1.1	0	9	0.5	2	3	0.6428571429	0	1	0.125	681.8888888889	153.512410128
718	0	6	1	2	10	0.75	0.3	5	0.3333333333	0	1	0.625	675.5333333333	18.0464501654
984	5	3	1.5	1	6	0.5	1.3333333333	4	0.5714285714	0	1	0.375	656.5416666667	155.521279904
1022	0	6	0.8	1	5	0.4	0.8	5	0.9	1	2	0.6875	651.45	217.461182573
926	0	6	2	0	2	0.5	0.5	6	0.4	0	1	0.625	637.5	13.7939083246
610	0	5	1.4	2	5	0.4	3	5	0.6923076923	0	1	0.375	626.72	24.289567261
820	0	7	1	1	6	0.6666666667	1.5	4	0.4705882353	0	0	0	624.5	56.4266719226
762	3	5	0.625	0	7	0.5	1.7142857143	4	0.125	0	1	0.25	621.8	115.491816257
966	0	3	1.5	0	4	0	0.75	5	0.5652173913	0	0	0	616.75	45.9922681289
919	0	6	1.6666666667	0	3	0.6666666667	0.6666666667	5	0.2	0	0	0	612.8	300
986	0	3	0.75	0	4	0.5	1.5	4	0.1764705882	0	1	0.125	597.4	180.949669874
617	0	7	1.125	1	10	0.375	1	5	0.375	1	2	0.125	588.66	30.1222312193
588	5	8	1.3333333333	3	23	0.6666666667	0.0434782609	3	1	0	2	0.625	585.2916666667	86.3450491254
780	0	4	1	0	7	0.5	0	2	0.32	0	0	0	584	94.70121553
795	0	6	0.3333333333	0	6	1	2.5	6	0.6923076923	0	0	0	579.4	176.38732696
612	0	6	0.75	1	8	0.5	2.75	4	0.3846153846	1	2	0.625	577.0833333333	34.0421847264
839	0	9	0.875	0	10	0.25	1	3	0.5555555556	0	2	0.5	572.4	11.3937773628
888	8	3	0.6842105263	1	18	0.3157894737	1.6666666667	4	0.4615384615	0	3	0.875	572.0833333333	168.335675327
567	0	6	0.8947368421	2	24	0.3157894737	1.6666666667	4	0.8333333333	4	5	0.9	571.8545454545	68.756603874
1014	0	4	1	0	12	0.2222222222	1.0833333333	4	1	0	2	0.375	571.5833333333	300
658	0	4	1	0	5	0.5	0.6	6	0.5714285714	0	0	0	570.6	222.718648942
711	0	5	1.1666666667	0	6	0.1666666667	1.8333333333	4	0.5454545455	0	0	0	567.3	281.983719607
767	0	4	0.5714285714	1	7	0.8571428571	1.4285714286	4	0.5	0	0	0	565.2571428571	123.832006904
763	0	4	1.3333333333	1	6	0.6666666667	0.1666666667	4	0.5833333333	0	1	0.5	564.0833333334	38.773787166
666	4	0	0.75	0	12	0.5833333333	1.5	5	0.7142857143	0	0	0	556	300
1029	0	9	1	0	7	0.2	0.4285714286	4	0.625	0	0	0	555.7142857143	49.2601359523
1006	0	7	1	1	5	0.1666666667	1.6	4	0.56	0	0	0	555.4	7.9960746717
730	0	0	1.5	0	4	0.5	0.75	4	0.4166666667	0	0	0	552.45	10.3481374251
594	0	6	1	1	8	0.5	0	4	0.4444444444	0	1	0.125	547.3950617284	43.7066607442
568	6	6	1	5	26	0.4444444444	0.4615384615	4	0.5384615385	0	2	0.75	543.5333333333	33.1398794813
852	0	5	1.875	0	7	0.375	1.7142857143	3	0.5	0	0	0	543.3428571429	28.5077527229
866	0	2	1	2	14	0.4285714286	1.4285714286	5	0.4666666667	0	2	1.125	531.2857142857	195.097167427
657	0	4	0.8	0	5	0.8	2	4	0.3076923077	0	2	0.5	529	20.573363156
981	0	6	1.5	0	4	0.5	1	7	0.6666666667	0	1	0.125	526.45	245.052751952
708	0	5	1.4	0	7	0.2	0.5714285714	5	0.4347826087	0	1	0.875	526.3428571429	46.8692607097
865	0	6	0.8333333333	0	6	0.1666666667	1.1666666667	4	0.5714285714	0	1	0.375	518	178.239891883
659	0	6	1	0	6	0.5	1.5	5	0.4166666667	0	1	0.25	517	167.26503117
764	2	1	1	0	6	0.5	0	5	0.2941176471	0	0	0	515.3	300
636	0	4	0.875	1	8	0.375	1.25	4	0.6153846154	0	0	0	512.9583333333	300
647	0	3	0.8333333333	0	6	0.3333333333	1	4	0.3571428571	0	0	0	510.8666666667	74.6469645705
935	0	8	1.1428571429	1	7	0.7142857143	1.1428571429	5	0.3684210526	0	0	0	510.5238095238	33.3051463735
1036	0	5	1.25	0	4	0.5	1	6	0.5454545455	0	1	0.5	508.5625	300
689	0	10	1.1666666667	0	5	0.3333333333	1.2	4	0.5238095238	0	0	0	498.4	43.8633255238
736	0	1	0.8571428571	0	6	0.5714285714	1	6	0.4705882353	0	1	0.125	498.0666666667	300
944	0	5	1	1	13	0.4285714286	1.3846153846	4	0.4285714286	0	0	0	498	68.1374780854
809	0	1	1.5	2	11	0	0	4	0.2142857143	0	1	0.625	497.3939393939	96.2871580969
1030	0	2	1.25	1	7	0.25	0.2857142857	5	0.6	0	0	0	496.3928571429	27.5902973198
779	1	4	1	1	14	0.2307692308	1.2857142857	5	0.5909090909	1	3	0.7083333333	494.8571428572	67.293246259
968	2	3	1.2857142857	1	12	0.2857142857	0.6666666667	3	0.25	0	0	0	493.5	30.5053112591
873	0	7	1.5	0	3	0	0.6666666667	5	0.3636363636	0	1	0.125	482.4	19.9143790608
799	2	4	0.7333333333	2	14	0.4666666667	1.3571428571	5	0.5789473684	1	2	0.125	481.6666666666	151.229285465
678	0	4	0.7142857143	1	7	0.4285714286	1.5714285714	4	0.6	0	1	0.25	480.0571428571	287.712398562
832	0	5	0.2857142857	1	7	0.8571428571	2.1428571429	5	0.7	0	1	0.125	479.8571428572	300
898	0	5	1.25	0	4	0.5	1.5	3	0.6	0	1	0.25	478.55	40.4457202921
675	0	5	1	1	9	0.375	1.1111111111	5	0.6363636364	0	2	0.5	477.7111111111	123.509114725
1024	0	4	1.1666666667	0	7	0.5	1.1428571429	4	0.7692307692	0	0	0	475.1714285714	119.008502025
691	8	3	0.8	2	19	0.4	0.7894736842	4	0.4	1	4	0.6875	474.4210526316	49.5540389741
975	0	5	1.5	1	7	0.25	0.4285714286	6	1	0	1	0.625	474.1428571429	48.3671431828
977	0	4	0.7142857143	0	7	0.5714285714	1.1428571429	4	0.5	0	0	0	473.6096571429	263.327698593
742	3	4	1.1666666667	2	15	0.1666666667	0.3333333333	4	0.5333333333	0	1	0.625	473.4666666667	37.2175254928
956	0	14	0.5714285714	1	7	0.7142857143	1.7142857143	4	0.5833333333	0	1	0.5	472.5714285715	110.244951506
604	0	6	0.4615384615	0	12	0.7692307692	1.9166666667	4	0.375	0	1	0.375	470.3541666667	300
696	0	8	1	0	8	0.25	0.375	4	1	0	0	0	464.53125	122.719498423
1016	0	3	1.5	0	4	0.75	0.75	5	1	0	0	0	464.5	108.667807869
747	0	1	0.6666666667	1	8	0.6666666667	1.625	9	0.6666666667	0	0	0	461.475	300
858	0	2	1	1	8	0.375	1	6	0.7777777778	0	0	0	459.53125	300
971	0	2	0.8333333333	1	5	0.5	1	6	0.4615384615	0	0	0	455.88	300
906	11	5	1	2	13	0.3333333333	1.8461538462	4	0.55	0	1	0.125	454.4230769231	42.5759654213
911	0	6	1.25	1	8	0.375	1.625	4	0.3125	0	2	0.75	454.05	58.9756234358
564	10	7	0.8571428571	0	13	0.2857142857	2.3076923077	4	0.6666666667	0	2	1.125	451.46	25.9171421278
967	0	6	1	0	10	0.3636363636	1.3	3	0.4444444444	0	0	0	450.74	26.8633286726
901	0	6	0.9230769231	1	16	0.3846153846	1.375	5	0.4545454545	0	1	0.625	449.0208333333	73.2272994398
985	0	5	1.1428571429	0	7	0.5714285714	1.1428571429	4	0.1428571429	0	0	0	448.6857142857	37.6324785014
766	9	7	0.6923076923	1	13	0.5384615385	1.7692307692	4	0.3157894737	0	2	0.75	446.8615384615	79.721286324
607	4	5	1	1	17	0.2727272727	0.7647058824	4	0.5555555556	1	2	0.125	443	79.2803404925
900	3	6	0.9	0	9	0.2	1.3333333333	4	0.3333333333	0	0	0	440.75	300
685	0	3	1	1	7	0.7142857143	1.2857142857	6	0.6	0	0	0	440.3714285714	42.4384548735
786	0	6	1.5	0	8	0.25	2.125	4	0.6666666667	0	0	0	437.55	35.1185687592
625	5	0	0.7777777778	0	9	0.5555555556	3.1111111111	5	0.375	0	0	0	436.4888888889	300
851	0	6	1	0	6	0.3333333333	1	5	0.5	0	1	0.125	435.1666666667	32.7543580495
639	3	6	0.8571428571	0	14	0.4285714286	1.9285714286	4	0.6666666667	0	2	0.25	432	100.051414082
744	0	5	1.1	1	9	0.2	2.4444444444	4	0.8666666667	0	1	0.625	429.6111111111	70.6662255584
630	2	5	1.5	1	13	0.25	0.2307692308	3	0.5833333333	1	2	0.625	429.282051282	56.2052105746
603	0	5	0.7142857143	0	7	0.4285714286	2.5714285714	4	0.7777777778	0	0	0	428	191.463225317
970	0	17	2	0	5	0.4	1.2	4	0.5714285714	0	1	0.5	427.65	60.653271957
589	8	5	1.1428571429	2	30	0.1428571429	0.8	3	0.3529411765	0	3	1	426.7444444444	77.8002571996
709	0	1	1	2	7	0.75	0.4285714286	5	1	1	3	0.2083333333	426.6785714286	300
728	0	3	0.8888888889	1	9	0.4444444444	1.6666666667	4	0.625	0	1	0.125	425.6222222222	92.2261061284
811	0	4	1.25	2	12	0.5	2.5	3	0.4	0	1	0.125	422.8333333333	28.1238323477
867	0	5	1	1	9	0.7142857143	0.7777777778	7	0.5454545455	0	0	0	420.6388888889	300
1042	0	11	0.8	0	7	0.4	0.5714285714	3	0.3684210526	0	0	0	419.2142857143	16.3571301808
775	0	9	1.25	1	8	0.375	1.5	3	0.375	0	2	0.625	415.21875	50.7964698829
665	2	3	1.5	1	10	0	0.3	3	0.3333333333	0	1	0.125	415.16	202.882595317
941	0	5	0.8888888889	0	8	0.5555555556	1.875	5	0.6	0	1	0.25	414.9	124.180184603
816	0	4	0.8333333333	0	5	0.5	1	5	0.7058823529	0	1	0.125	414.84	300
671	0	8	0.8	0	10	0.4	1.5	3	0.5	0	1	0.625	409.72	64.1590740842
830	2	4	0.7857142857	0	14	0.6428571429	2.3571428571	5	0.4666666667	1	2	0.3125	408.7285714286	300
974	0	1	0.8333333333	0	5	0.3333333333	1.4	4	0.4666666667	1	2	0.5	405.12	18.6332593927
931	7	5	0.75	1	8	0.5	1.5	5	0.3125	0	1	0.625	402.75	199.845625759
619	0	6	0.8571428571	0	7	0.7142857143	1.1428571429	4	0.3076923077	1	2	0.3125	401.8571428572	191.733193931
788	0	6	1	2	28	0.2142857143	3.75	4	1	2	3	0.4166666667	399.4142857143	97.9999372091
850	0	7	1.1666666667	0	6	0.3333333333	0.8333333333	5	0.6	0	0	0	397.5666666666	300
650	0	5	1	1	11	0.4	0.5454545455	4	0.6363636364	0	0	0	397.3863636364	77.614406587
606	0	3	1	0	14	0.7142857143	2	5	0.4285714286	0	1	0.375	397.1428571429	77.8467079797
802	7	3	0.875	2	11	0.375	0.7272727273	5	0.7368421053	0	0	0	395.4545454545	256.857039624
807	0	3	1.2	0	4	0.6	1	4	0.4545454545	0	0	0	395.45	21.2208795302
1021	0	2	0.7142857143	0	7	0.4285714286	1	5	0.4166666667	0	1	0.125	393.6	300
662	12	3	1.125	1	16	0.3125	1.875	4	0.5	3	5	0.875	392.5625	95.4277738143
1015	0	7	1.4615384615	0	13	0.6923076923	2.2307692308	3	0.7142857143	0	1	0.25	388.9423076923	58.0013731109
834	0	3	1.1111111111	0	10	0.3333333333	1	4	0.1666666667	0	0	0	386.8333333333	63.5141138042
828	0	6	1	0	9	0.5	0	5	0.6	0	3	1.5	385.8611111111	63.1763995437
756	0	8	1.25	0	8	0.375	1.625	4	0.3181818182	0	0	0	385.525	9.3421019107
924	0	4	0.7142857143	1	7	0.5714285714	1.1428571429	5	0.2857142857	0	0	0	385.0714285714	181.391810092
661	0	7	1	1	12	0.5	0	4	0.625	0	1	0.375	384.8333333334	34.948369387
913	0	3	1.25	0	4	0.5	1	5	0.4285714286	0	0	0	383.95	7.473491809
821	0	7	0.5833333333	0	11	0.5	1.5454545455	5	0.3636363636	0	0	0	382.2045454545	146.08634756
787	0	3	1.3333333333	1	7	0.1666666667	0.7142857143	5	0.3333333333	0	1	0.25	382.0571428572	294.886085357
653	2	3	1	2	23	0.3846153846	1	4	0.5	1	3	0.2916666667	381.4202898551	46.6773041061
1048	0	3	0.8333333333	0	11	0.5	0.4545454545	5	0.4285714286	0	1	0.875	377.3863636364	130.46784911
1040	0	5	1	2	5	0.2	0.8	5	0.347826087	0	1	0.125	377.1	128.456721942
684	5	5	1	2	20	0.5	0	3	1	0	0	0	376.7875	69.8764346407
785	0	3	0.8	0	10	0.6	1.3	5	0.3461538462	0	3	1.125	375.9666666667	300
554	11	5	0.8636363636	4	30	0.2272727273	2.1	3	0.6363636364	0	3	1.25	375.05	42.2595896898
638	0	3	0.8888888889	2	18	0.2777777778	2.0555555556	5	0.4444444444	0	2	0.75	373.8111111111	62.7368952529
690	0	2	0.8333333333	0	12	0.4166666667	1.5	3	0.8235294118	1	2	0.3125	373.6	27.6027986675
694	0	1	1.3333333333	1	6	0.3333333333	1.3333333333	6	0.8333333333	1	2	0.375	372.0833333333	199.458653505
797	0	6	1	1	14	0.4285714286	1.1428571429	4	0.2916666667	0	1	0.5	371.8428571428	300
844	0	7	1	0	8	0.2222222222	1.25	3	0.5	0	1	0.625	371.2916666667	27.0910100515
1003	0	6	0.75	1	21	0.4166666667	0.9523809524	4	0.4827586207	0	2	0.375	370.5833333333	71.3295500124
601	6	4	0.8571428571	0	14	0.3571428571	2.4285714286	4	0.5	0	1	0.25	370.2380952381	110.066860641
649	0	4	0.7692307692	0	13	0.2307692308	2.3846153846	4	0.5	0	0	0	370.0923076923	31.4157076983
710	8	7	0.9	2	20	0.1	2.05	3	0.6875	0	2	0.375	368.95	41.14423905
883	2	4	1.1428571429	2	14	0.2142857143	3.1428571429	3	0.6	1	3	0.2916666667	368.5714285714	50.3738391359
584	0	1	0.6666666667	0	4	0.3333333333	0.25	4	0.2857142857	0	1	0.625	368.2419354839	55.8465505486
776	4	2	0.8571428571	0	9	0.4285714286	1	5	0.4285714286	0	2	0.75	368.0666666667	215.867819618
949	0	3	1	0	20	0.5	1.75	5	0.6666666667	0	2	0.875	367.5	300
804	0	6	1.1111111111	0	8	0.4444444444	1	5	0.5	1	2	0.375	367.025	73.7095324982
875	0	1	1.2857142857	2	7	0.2857142857	1.4285714286	5	0.5	1	2	0.5625	366.7714285714	184.139641352
679	0	9	1	2	9	0.3333333333	1.4444444444	4	0.3529411765	0	2	0.625	365.6666666666	41.1141809531
885	0	3	1	0	5	0.6	1	4	0.5294117647	0	1	0.125	365.64	13.4592345436
631	5	11	0.7142857143	0	6	0.2857142857	2.5	4	0.6666666667	0	3	0.75	364.8	29.1757604008
815	0	3	1	1	5	0.2	0.8	4	0.6428571429	0	1	0.75	362.96	300
592	0	1	1	0	3	0.6666666667	1	4	0.7647058824	0	0	0	362.8214285715	300
999	0	6	1.2142857143	2	14	0.2857142857	2.5	5	0.3333333333	0	3	1.375	362.6428571428	223.196642629
688	0	5	1.3333333333	0	8	0.6666666667	0.125	4	0.8333333333	0	1	0.125	361.775	39.0092442747
714	0	5	1.4	0	8	0.4	0.375	3	0.875	0	1	0.5	361.3	18.2459857386
621	0	4	0.875	0	15	0.25	0.5333333333	4	1	0	1	0.625	361.0266666667	112.880262587
628	0	6	1.2857142857	3	13	0.2857142857	0.6153846154	4	0.5294117647	1	2	0.25	359.4615384615	99.6123648782
1025	4	8	1	0	7	0.4285714286	1.4285714286	4	0.5789473684	0	0	0	359.2142857143	24.3729285874
713	0	8	1	2	7	0.4285714286	1.7142857143	4	1	0	1	0.75	359.1142857143	28.754396005
1053	22	6	1.0740740741	2	25	0.2222222222	3.44	5	0.4074074074	3	4	0.875	358.28	94.0262768083
925	0	3	0.7777777778	0	9	0.7777777778	3.2222222222	6	0.2857142857	0	0	0	356	300
616	0	4	1.1538461539	0	13	0.3846153846	2.0769230769	4	0.8	0	0	0	355.9076923077	46.4822568954
778	0	3	1.4	1	10	0	0.4	4	0.5263157895	0	0	0	355.6	300
716	0	8	0.8181818182	0	11	0.3636363636	2	3	0.347826087	0	1	0.375	354.8484848485	24.6452208984
955	0	2	1.1666666667	0	6	0.3333333333	1.1666666667	3	0.75	0	1	0.625	353.1	46.4779960516
1066	0	4	1.25	0	3	0.25	1	3	0.1818181818	0	1	0.375	352.9333333333	114.024847163
791	0	4	1.25	1	22	0	0.1363636364	5	0.2	2	3	0.2083333333	352.6590909091	123.445017421
796	8	8	1.1111111111	0	11	0.2222222222	0.8181818182	4	0.5555555556	0	2	1.125	349.5090909091	51.4358507129
927	5	3	0.8461538462	0	17	0.3846153846	1.7058823529	4	0.5	1	3	0.6666666667	349	189.94806923
637	6	3	0.7272727273	1	24	0.4545454545	0.7083333333	4	0.2727272727	0	1	0.125	348.4166666667	206.122591317
609	2	8	0.7142857143	3	23	0.4285714286	0.4782608696	4	0.5714285714	1	3	0.7083333333	348.3652173913	53.6448915253
890	0	1	0.4444444444	0	8	0.7777777778	1.625	6	0.6666666667	0	0	0	347.1666666667	300
784	9	7	1.2857142857	2	28	0.2857142857	1.1071428571	4	0.8	2	4	0.75	346.9642857143	75.3062635509
700	0	5	1.0666666667	3	15	0.3333333333	1.2666666667	4	0.6153846154	0	0	0	344.6533333333	59.7485411393
673	16	8	1.0555555556	3	21	0.1666666667	1.4285714286	3	0.5833333333	0	2	0.625	341.2761904762	9.2647121779
837	4	7	0.8823529412	2	24	0.2352941176	1.25	3	1	3	5	1.375	341.2416666667	75.3400602922
800	1	5	1.2352941177	0	24	0.2941176471	1.3333333333	4	0.2222222222	2	5	1.075	341.2333333333	70.6765281908
822	0	3	1	0	7	0.5714285714	1.7142857143	6	0.5238095238	0	0	0	341.1785714286	165.879019804
724	0	4	0.7619047619	2	20	0.2380952381	1.8	5	0.7222222222	3	5	0.675	339.97	191.964814489
571	0	5	0.8888888889	0	18	0.5	2.5555555556	3	0.4230769231	1	2	0.375	339.7826086957	215.844584795
1012	0	3	0.6666666667	0	8	0.6666666667	0.875	6	0.7142857143	0	1	0.375	338.28125	300
774	0	11	1.125	1	7	0.5	1.4285714286	5	0.6666666667	0	1	0.625	337.5714285714	113.860209491
972	0	0	1.3333333333	2	5	0	0.2	8	0.7142857143	0	1	0.5	337.16	300
817	0	2	1	2	9	0.5	0.7777777778	6	0.5	0	1	0.625	336.3555555555	300
615	0	6	0.6666666667	2	14	0.5	1.2142857143	5	0.625	0	2	1.25	335.6428571429	221.781905658
1069	1	4	0.875	1	20	0.375	1.65	5	0.6666666667	3	4	0.5625	335.03	127.371234017
790	0	2	1.1111111111	0	8	0.1111111111	1.375	4	0.8	0	1	0.5	334.875	77.7934675932
1001	0	4	0.5714285714	0	7	0.7142857143	2.1428571429	4	0.3846153846	0	1	0.375	334.3142857143	196.510108644
843	0	6	1	0	7	0.4285714286	2.1428571429	4	0.4	0	0	0	333.1428571429	59.2508552746
717	0	5	1.1111111111	1	9	0.1111111111	0.7777777778	5	0.7	0	0	0	333.1111111111	300
634	0	2	0.75	0	7	0.375	1.7142857143	4	0.4285714286	0	0	0	331.6857142857	72.6715369405
743	2	1	0.8461538462	1	19	0.4615384615	1.2105263158	5	0.8888888889	0	4	1.25	330.9894736842	300
1046	0	1	0.8333333333	0	6	0.3333333333	1.1666666667	4	0.875	0	0	0	330.4444444444	107.239805894
755	4	4	1.1538461539	2	26	0.0769230769	0.9230769231	3	0.5	0	1	0.25	330.3557692308	84.2086742049
1071	0	3	1.3333333333	1	22	0.3333333333	0.0454545455	5	0.3928571429	0	0	0	329.4090909091	93.2314086628
854	0	4	1.2	0	20	0.2	0.3	5	1	0	1	0.125	328.6625	300
998	0	10	0.7777777778	0	8	0.5555555556	1.375	3	0.5	0	1	0.25	327.4	74.6023375369
656	6	1	0.7692307692	1	16	0.3846153846	1.125	6	0.6	2	4	2.0625	327.296875	300
693	0	5	1.3333333333	0	9	0.3333333333	1.2222222222	4	0.5714285714	0	2	1	326.8888888889	18.9822912022
1013	0	10	1.3333333333	1	9	0.3333333333	0.1111111111	4	0.6	1	2	0.4375	326.6	123.897183193
672	0	3	1	1	11	0.3333333333	0.5454545455	5	0.8	1	3	0.5833333333	325.8909090909	47.0013813995
1027	0	5	0.75	1	17	0.375	1.9411764706	4	1	3	4	0.4375	320.8705882353	135.154376269
980	0	6	0.5833333333	2	16	0.5	1.5	4	1	1	3	1.0833333333	320.6125	77.4102678347
792	0	6	0.875	1	8	0.5	2.125	4	0.5454545455	0	2	1	320.475	256.324921689
1004	0	6	1	1	14	0.5	1.0714285714	4	0.5714285714	0	1	0.5	319.1285714286	70.1713323538
635	17	7	0.9130434783	1	28	0.1739130435	1.5714285714	4	0.8	3	5	0.975	318.9553571429	139.830611597
734	15	9	1.0952380952	1	21	0.2857142857	2.8571428571	3	0.4090909091	1	3	0.6666666667	318.8928571429	18.8806537278
695	0	4	0.9444444444	0	18	0.2222222222	1.8333333333	5	0.2222222222	1	3	0.625	317.7361111111	300
840	0	7	1	0	11	0.5	0	4	0.4444444444	0	1	0.625	317.2363636364	34.8664511944
759	0	4	1.4285714286	0	10	0.2857142857	0.6	5	0.3684210526	0	0	0	316.96	260.559385511
602	0	5	1.1428571429	0	7	0.1428571429	0.8571428571	3	0.625	0	1	0.375	316.7428571429	22.715622128
989	0	7	0.8888888889	2	16	0.5555555556	0.6875	5	0.5333333333	0	1	0.625	316.6625	112.814989401
876	0	5	1.5	2	10	0.5	0	3	0.2962962963	0	1	0.75	316.66	185.525797803
727	0	4	1.04	2	24	0.4	1.9583333333	4	0.75	0	1	0.5	316.1354166667	43.5278464902
753	0	1	1	0	6	0.75	0.3333333333	6	0.5333333333	0	0	0	316	97.8360969183
654	4	6	0.8	0	13	0.6	0.3076923077	4	0.7	0	1	0.625	313	300
958	0	5	1.1666666667	0	6	0.3333333333	0.8333333333	5	0.5714285714	0	0	0	312.1666666667	266.591649422
871	0	6	0.7272727273	0	21	0.3636363636	2.6190476191	4	0.4166666667	2	6	0.6666666667	311.4761904762	90.4328879807
761	0	7	1	0	11	0.2727272727	1.7272727273	3	0.5384615385	0	1	0.25	311.2909090909	18.4646199308
720	0	5	0.8695652174	1	23	0.3043478261	1.9130434783	3	0.4583333333	0	2	0.625	310.7246376811	42.6636946717
878	4	3	1.1	0	15	0.2	1.1333333333	3	0.5384615385	0	1	0.25	309.52	102.222892517
862	8	4	1.25	0	12	0.25	0.1666666667	4	1	0	1	0.625	309.4166666667	146.019209159
645	0	4	1.3333333333	0	9	0.3333333333	0.1111111111	4	1	1	2	0.3125	308.6888888889	300
676	2	2	0.8421052632	1	28	0.2631578947	1.4642857143	3	0.8888888889	1	3	1.1666666667	307.95	26.0638668921
768	0	9	1.2222222222	1	9	0.2222222222	2.4444444444	3	0.3684210526	0	1	0.375	307.8888888889	10.3498704534
757	3	7	1.1428571429	0	12	0.1428571429	0.9166666667	4	0.4444444444	1	5	1.775	307.8833333333	38.3048018421
741	0	4	1.25	2	9	0.25	0.2222222222	7	0.6666666667	1	2	0.8125	306.8888888889	139.269319864
705	3	6	1	0	26	0	0.0769230769	4	0.8	0	2	0.625	306.4326923077	271.987094724
1017	4	5	0.9	0	10	0.5	1	4	0.7142857143	1	2	0.125	306.04	300
682	0	1	0.7	0	20	0.55	2.75	4	0.5454545455	1	4	0.71875	305.8	290.569500878
801	0	5	0.9	1	10	0.3	1.5	2	0.4210526316	0	2	0.75	304.8	131.211910029
559	4	6	1.375	0	16	0.25	0.75	3	0.4285714286	0	1	0.625	303.4142857143	106.968933205
765	0	3	0.75	2	14	0.375	0.5	5	0.5185185185	0	2	0.75	302.8857142857	169.67355287
698	0	6	0.8461538462	1	16	0.3076923077	1.3125	4	0.2857142857	0	0	0	301.475	88.6869261508
669	3	7	0.7142857143	0	17	0.2857142857	0.8823529412	4	0.5555555556	1	3	1.0416666667	301.4705882353	62.6409564848
904	0	2	0.9230769231	0	13	0.4615384615	1.5384615385	4	0.5238095238	0	0	0	301.1730769231	95.9463207567
933	0	3	0.8235294118	2	17	0.4705882353	1.8235294118	6	0.9230769231	0	1	0.5	300.4823529412	186.857266366
1020	7	3	1.0769230769	1	12	0.3846153846	2	4	0.4347826087	0	2	1.25	300.1	104.062020226
611	7	4	1.0588235294	1	17	0.2941176471	2.1764705882	3	1	1	3	0.7916666667	299.4941176471	37.287465937
632	0	6	1	0	17	0.3333333333	0.7058823529	4	0.5	1	3	0.6666666667	299.0470588235	48.4215765284
629	0	5	1.1	0	10	0.4	2.4	4	0.5	0	1	0.125	298.68	234.399739884
812	2	3	1.4	1	14	0	0.4285714286	3	0.4516129032	0	1	0.5	297.5238095238	74.927241187
772	0	3	0.6666666667	1	22	0.6666666667	0.0454545455	5	0.3846153846	1	3	0.7083333333	296.9454545454	185.666173361
681	2	3	0.7333333333	1	27	0.2666666667	0.7777777778	4	0.3636363636	0	1	0.25	296.8395061728	279.368805086
841	0	5	1	0	20	0.5	0.1	5	0.2222222222	1	6	1.3541666667	295.05	83.3035870073
824	12	2	1.380952381	2	21	0.4285714286	1.8571428571	4	0.3	3	5	1.125	295	93.2796392361
643	15	7	1.2	1	22	0.3	1.8636363636	5	0.3636363636	2	5	1.4	294.7727272727	181.791551951
881	2	2	0.6428571429	1	14	0.5714285714	2.2142857143	5	0.5	0	1	0.125	294.7714285714	276.193799975
1049	1	5	1	1	29	0.2	0.1379310345	4	0.5714285714	0	2	0.625	294.2482758621	52.3717083569
667	0	5	0.7142857143	2	14	0.4285714286	2.7142857143	4	0.5714285714	1	2	0.5	294.0142857143	67.4066889608
771	4	4	0.9166666667	1	26	0.25	0.7692307692	4	0.375	3	6	1	293.2179487179	83.8575571225
814	0	4	1	0	16	0.5	0.1875	4	0.3636363636	3	4	0.8125	292.95	300
746	0	4	0.8181818182	0	11	0.5454545455	1.4545454546	4	0.4615384615	0	2	0.5	292.6181818182	300
1072	3	6	0.9444444444	1	22	0.2222222222	2	4	0.4	2	5	1.425	291.4886363636	61.051373716
954	1	6	0.8	1	27	0.25	1.4814814815	4	0.5263157895	2	5	1.425	290.4444444445	66.5434514821
745	3	3	1.3333333333	1	8	0.6666666667	0.125	5	1	0	1	0.125	289.875	300
916	0	1	0.8571428571	1	7	0.4285714286	1.2857142857	4	0.4	0	1	0.25	289.3714285714	256.566009038
618	3	7	1	1	17	0	0	5	0.3333333333	0	2	0.25	287.3647058823	187.366883513
627	5	4	0.9130434783	1	28	0.3043478261	1.8214285714	4	0.4285714286	1	3	1.1666666667	287.2321428571	142.67246026
614	0	7	1.1428571429	2	25	0.4285714286	0.36	4	0.3	0	4	1.375	287.08	49.6729118519
561	0	9	1.2222222222	1	13	0.3333333333	0.7692307692	5	0.8823529412	0	0	0	286.03125	40.1652276007
1060	1	10	1.1666666667	0	6	0.1666666667	1.6666666667	3	0.3888888889	0	1	0.25	285.9444444444	85.0570107302
646	2	8	1	2	15	0.5	0	3	0.4444444444	0	1	1	285.56	81.3415251354
712	0	6	1.2272727273	0	22	0.1363636364	3.3181818182	3	0.3846153846	0	2	0.5	285.2818181818	21.7206599127
991	3	5	1.1666666667	0	12	0.1666666667	1.5	4	0.8333333333	0	1	0.125	284.6166666667	300
722	0	7	0.8181818182	1	26	0.2727272727	0.7307692308	3	0.5882352941	1	4	1.5625	284.5769230769	30.6186067989
922	0	8	0.75	0	8	0.5	1.75	5	0.2222222222	0	0	0	282.625	300
605	5	6	1	2	21	0.2222222222	0.8571428571	4	0.5	0	1	0.5	282.3095238095	83.7858442675
749	1	3	0.5555555556	2	19	0.6666666667	0.8947368421	4	0.5	1	3	0.9583333333	280.5368421053	46.3019181011
827	0	6	0.76	2	24	0.2	2	4	0.5	1	2	0.8125	277.8083333333	84.0351683153
957	0	5	0.6363636364	3	24	0.3636363636	0.9583333333	5	0.5769230769	0	1	0.25	277.7333333333	94.0737407452
683	0	4	1	1	12	0.25	0.25	4	0.6	0	3	1.125	275.1833333333	56.8549572835
965	0	4	1	1	14	0.25	0.7142857143	4	0.6153846154	0	0	0	275.1785714286	300
994	0	3	0.875	0	8	0.25	1.5	3	0.7777777778	0	0	0	274.84375	48.6368533268
706	0	7	1.125	0	11	0.25	0.6363636364	3	0.4	0	0	0	274.8181818182	24.8885574805
597	17	7	1.1363636364	5	21	0.1818181818	2.1428571429	3	0.4615384615	1	3	0.4583333333	274.4375	28.5146077304
831	0	6	0.8	3	23	0.7	0.652173913	5	0.3461538462	2	6	1.875	274.1739130435	65.9848543414
770	2	3	0.6666666667	2	20	0.5555555556	0.65	5	0.4210526316	1	2	0.125	273.62	81.8004474589
1064	0	5	0.75	0	18	0.375	0.6666666667	5	0.4375	0	4	1.25	273.0333333333	105.006178077
703	0	3	1.3076923077	0	13	0.3076923077	2.1538461539	3	0.3333333333	0	1	0.875	273.0307692307	38.3673710972
726	0	2	1	0	7	0.3333333333	0.8571428571	4	0.5	0	0	0	270.9714285714	40.4120576818
856	0	4	0.9166666667	1	12	0.3333333333	1.3333333333	4	0.5	0	1	0.125	270.9166666667	197.178588585
863	0	3	0.75	1	16	0.4166666667	0.9375	5	0.5555555556	0	2	0.375	270.3625	150.845562447
963	5	6	1.0952380952	2	20	0.380952381	1.85	4	0.3333333333	0	2	1.25	269.49	300
738	0	1	0.8	2	9	0.2	0.4444444444	4	0.5333333333	0	1	0.375	268.9333333333	33.9543691578
860	7	6	1.3333333333	0	9	0.3333333333	1.6666666667	3	0.4444444444	0	2	0.75	268.5277777778	45.8313000308
910	0	3	0.5833333333	1	12	0.3333333333	1.75	4	0.5555555556	0	1	0.125	268.0833333333	101.941426485
651	0	6	0.9	2	21	0.2	0.9523809524	4	0.6923076923	0	1	0.625	267.4380952381	50.8276198054
577	0	4	0.9090909091	0	10	0.4545454545	1.6	6	0.5	0	0	0	267.3266666667	175.426481009
1057	4	4	1	0	20	0.4	3.9	4	0.2857142857	0	3	1	266.75	127.007739973
692	3	3	1.1666666667	0	25	0.25	0.72	4	0.4583333333	1	4	0.75	266.74	89.3177502908
633	9	4	1.1304347826	0	29	0.1304347826	1.8620689655	4	0.6	4	7	1.5892857143	266.6206896552	53.7119133851
686	0	5	0.8235294118	1	17	0.4117647059	2.7058823529	4	0.5	0	2	0.875	265.7176470588	51.1019588062
1045	0	7	1.2	1	13	0.2	0.3846153846	4	0.5	2	4	0.3125	265.0307692308	217.662707978
660	0	6	1.125	1	15	0.25	0.6	4	0.5882352941	1	3	0.9583333333	264.9866666667	70.3564827115
909	1	2	0.8181818182	1	21	0.2727272727	0.7142857143	4	0.5	0	1	0.75	264.819047619	63.9305731439
1000	6	1	0.8888888889	2	9	0.4444444444	1.2222222222	5	1	0	1	0.375	264.6888888889	300
1043	0	9	1	0	12	0.5	0	4	0.4	0	2	1.5	264.6	300
655	7	3	0.7777777778	2	25	0.2777777778	1.56	4	0.4761904762	1	4	1.375	263.2	57.7299548605
810	3	10	1.1428571429	0	15	0.4285714286	0.8666666667	5	0.2307692308	1	2	0.3125	261.8888888889	123.185252092
847	0	4	1	0	5	0.4	1	4	1	0	1	0.625	261.84	11.5368682803
952	0	7	0.7	1	21	0.6	1.2380952381	4	0.6	1	5	0.8	261.8095238095	80.3052369571
702	5	4	1.3333333333	3	21	0	0.0476190476	4	1	0	2	1.125	261.6095238095	41.1130257074
707	0	7	1.1666666667	2	24	0.25	2.0416666667	4	1	0	1	0.5	261.175	72.9411957052
877	0	4	1.2	1	10	0.2	1.1	4	0.4615384615	1	2	0.5	260.65	57.7605814519
905	9	7	1.0769230769	1	16	0.2307692308	1.0625	4	0.5714285714	0	1	0.5	260.525	35.3307230442
739	2	6	1.1764705882	0	17	0.1764705882	1.5294117647	4	0.6	0	1	0.125	260.1176470588	48.4375137307
558	5	6	1	2	25	0.2	0.12	4	1	0	2	1.25	259.5729166667	25.7527496123
897	0	2	0.5454545455	1	11	0.7272727273	1.4545454546	4	0.2962962963	0	2	0.5	258.1454545454	300
959	0	2	0.25	0	20	0.875	1.05	5	0.75	0	1	0.5	258.05	300
950	0	1	0.75	2	11	0.5833333333	1.3636363636	5	0.5	0	1	0.25	257.8363636364	300
626	0	1	1.2727272727	0	11	0.3636363636	1.7272727273	5	0.3846153846	0	0	0	257.5818181818	300
1054	0	4	0.8571428571	0	13	0.2857142857	1.8461538462	5	0.55	1	2	0.625	257.2307692308	123.331824266
1007	0	4	0.7777777778	1	18	0.4444444444	3.0555555556	4	0.5	1	2	0.6875	256.6444444444	71.5041446253
758	0	7	1.0833333333	0	11	0.1666666667	1.5454545455	4	0.5	1	3	0.9583333333	256.0227272727	32.6286180306
1011	0	5	1.0909090909	2	20	0.1818181818	0.9	4	0.5454545455	1	3	0.25	254.75	47.3704032611
640	0	2	1.3076923077	1	15	0.0769230769	1.4666666667	3	0.375	3	5	0.925	254.7466666667	45.3935407137
818	0	5	1.1052631579	1	19	0.2631578947	1.6842105263	3	0.7272727273	0	1	0.75	254.3894736842	57.0501423807
699	4	6	0.8666666667	4	17	0.2	1.8235294118	3	0.75	0	1	0.25	254.294117647	195.920072819
624	8	7	1.1	2	13	0.2	1	4	0.4	0	2	1.5	253.9076923077	22.2052364104
1047	0	2	1.5	1	12	0	0	3	0.3913043478	1	3	0.9166666667	253.45	127.772999923
648	6	7	0.6666666667	4	25	0.4444444444	0.52	4	0.6666666667	0	2	1.125	253.18	52.9810644982
729	6	5	0.8571428571	2	31	0.380952381	1.4516129032	3	0.3571428571	0	3	1.125	252.9784946237	49.1318888997
947	0	3	1	2	8	0.2222222222	2.75	5	0.5833333333	1	3	0.5416666667	252.4	51.5546208663
997	0	7	0.7857142857	0	14	0.5	2	5	1	0	0	0	252.1071428572	26.7143918632
1005	0	2	0.8333333333	0	6	0	1.5	5	0.4285714286	0	0	0	250.8333333333	300
987	0	2	1	0	25	0.4375	1.16	4	0.4285714286	1	3	0.625	250.608	300
946	0	9	1.1111111111	0	9	0.2222222222	1.2222222222	2	0.8571428571	0	1	0.25	250.2666666667	134.718435918
895	4	3	0.6666666667	0	12	0.75	1.6666666667	5	0.4375	0	0	0	250	300
937	0	3	0.75	1	12	0.25	0.5833333333	4	0.5	1	2	0.6875	249.5208333333	77.8528905651
798	0	6	1	0	7	0.4285714286	2.1428571429	4	0.8888888889	0	0	0	249.4642857143	36.6496624643
857	3	4	0.8333333333	0	14	0.3333333333	0.5	5	1	0	0	0	249.4464285714	31.8368173832
1065	0	2	0.75	2	8	0.375	1.625	4	0.5882352941	0	1	0.125	249.325	75.5931751787
823	2	7	0.8333333333	0	12	0.1666666667	0.5833333333	3	0.7857142857	0	5	2.875	249.05	87.2335965715
623	0	2	0.7142857143	0	14	0.2142857143	1.6428571429	4	0.4545454545	0	2	0.625	248.2428571429	300
964	0	8	1.1	2	9	0.2	1.7777777778	3	0.380952381	0	1	0.125	246.9555555555	15.1451336396
715	2	3	0.5714285714	3	16	0.5714285714	0.6875	4	0.5	1	3	0.625	246.175	50.9618991334
735	5	6	0.6666666667	0	8	0.4444444444	1.625	4	0.5	1	2	0.5625	245.8	57.5011816228
704	4	2	1	0	9	0.2857142857	0.7777777778	4	0.75	0	1	0.625	245.7777777778	160.936815524
995	0	7	1	1	11	0.3333333333	0.6363636364	4	0.5357142857	2	4	1.0625	245.5272727273	60.6187206688
773	11	6	0.9545454545	1	22	0.5454545455	2.3636363636	4	0.8571428571	0	1	0.125	245.3090909091	139.781173122
789	0	2	0.8333333333	0	9	0.3333333333	0.5555555556	4	0.8571428571	1	2	0.4375	244.8222222222	37.9977712422
697	7	3	1	1	16	0.2941176471	1.8125	5	0.4	0	1	0.5	244.3333333333	68.3131452536
723	0	8	0.8	2	11	0.4	1.8181818182	4	0.4444444444	0	1	0.75	244.2545454546	38.5859730592
992	0	5	0.5714285714	1	16	0.4285714286	1.9375	4	0.55	0	0	0	244.1	53.5793953759
829	6	2	1.08	2	24	0.32	2.375	4	0.4444444444	0	1	0.125	242.1916666667	114.448120507
1061	0	3	0.6153846154	1	12	0.4615384615	1.75	5	0.875	0	1	0.375	241.8166666667	64.4983809736
732	0	4	1.5	1	17	0	0	5	0.3461538462	0	1	0.625	241.1529411765	300
988	0	2	0.8666666667	0	13	0.4	1.6153846154	4	0.7	0	1	0.5	239.6307692308	149.970305212
1044	1	8	1	0	10	0.25	0.3	4	0.6666666667	0	3	1.375	238.04	62.6123682672
674	2	5	1	0	22	0.1	0.7727272727	3	0.4736842105	0	2	0.625	237.9818181818	21.138409063
808	0	5	1.0714285714	0	15	0.2857142857	1.0666666667	4	0.2857142857	0	1	0.75	237.7066666667	56.8192987776
556	0	2	1.25	0	6	0.25	0.3333333333	5	0.75	0	0	0	237.5222222222	45.1465313962
608	2	8	0.75	4	16	0.25	0.75	3	0.5	1	3	1	237.2375	20.662553904
622	1	7	1.25	2	11	0.25	0.2727272727	4	0.8888888889	0	2	0.625	236.3090909091	60.806571813
644	0	4	0.875	2	18	0.375	0.5555555556	4	0.7777777778	1	2	0.5	236.0666666667	71.3214941912
562	0	7	0.6666666667	1	18	0.5555555556	2	6	0.4444444444	0	4	1.25	235.5764705882	290.701715183
961	0	5	0.875	2	8	0.375	1	5	0.5714285714	0	1	0.125	235.425	145.583052138
1033	0	7	0.7	1	14	0.3	1.5	5	0.3684210526	0	4	2.125	234.5571428571	118.363406895
1035	0	5	1	1	21	0.5	0.0952380952	5	0.3333333333	3	4	1.375	233.7047619048	156.771124175
754	7	3	1.2	0	20	0.35	2.1	4	0.4	1	3	0.2916666667	233.61	19.0652169669
740	0	8	0.9090909091	0	19	0.2727272727	0.7368421053	3	0.5714285714	0	1	0.25	231	41.4395297383
833	0	4	0.8461538462	1	16	0.2307692308	1.25	4	0.65	1	5	1.05	229.8125	95.7514932578
1019	4	3	0.8333333333	2	18	0.4166666667	1.2222222222	5	0.8	2	3	1	229.5777777778	44.7834498076
751	3	3	0.875	2	29	0.25	0.2068965517	3	1	2	5	1.325	229.5724137931	50.9455534432
1034	2	6	1.0555555556	4	26	0.2777777778	1.5	4	0.4333333333	3	4	0.6875	229.3557692308	82.6724665911
570	0	7	0.9411764706	1	30	0.2941176471	0.9666666667	4	0.5714285714	1	3	0.5416666667	228.8888888889	104.932684227
1032	2	2	0.9230769231	0	13	0.4615384615	2.7692307692	4	0.4285714286	0	1	0.375	227.3846153846	151.482899929
783	0	4	0.8181818182	1	11	0.3636363636	1.9090909091	4	0.5	0	0	0	226.3636363636	75.0806254444
769	2	3	0.8571428571	1	24	0.4285714286	0.25	4	0.4444444444	2	4	0.5625	225.9333333333	117.600250838
1058	0	6	0.7777777778	3	9	0.3333333333	1.2222222222	5	0.5	0	1	0.25	225.6666666667	300
884	11	6	1.1153846154	3	25	0.2307692308	3.6	3	0.5	0	2	0.5	225.66	27.5400026827
838	8	7	1	0	10	0.3	3.2	3	0.6	1	2	0.4375	225.2	35.4535891406
642	0	5	0.6153846154	1	11	0.3846153846	3.9090909091	4	0.6363636364	0	2	1	225.1818181818	110.765474688
1009	4	7	1.05	2	25	0.2	2.4	4	0.5454545455	0	0	0	224.104	107.042688134
806	9	3	1	3	28	0.1428571429	0.9642857143	4	0.4	0	3	1.125	222.3	99.0823761908
1031	0	4	0.75	1	18	0.125	0.3888888889	4	0.6	2	4	0.71875	221.7777777778	97.5477313062
936	0	9	1	0	7	0.5	0	4	0.75	0	1	0.375	220.8285714286	35.2087207983
725	3	3	0.8571428571	0	20	0.5238095238	2	5	0.4285714286	0	1	0.25	220.8	250.548209806
874	0	3	0.9285714286	2	17	0.2142857143	1.2941176471	4	0.4	0	1	0.375	220.4509803922	61.2112979212
899	0	6	0.9285714286	1	14	0.3571428571	3	4	0.7142857143	1	2	0.1875	220.4428571429	68.1472327469
1051	0	2	1	0	14	0.4444444444	0.7857142857	4	0.8	0	1	0.375	219.6071428572	124.019050635
1028	6	3	1.3636363636	0	11	0.1818181818	1.4545454546	5	0.8333333333	0	1	0.75	219.5818181818	43.0419278477
943	0	2	0.8571428571	0	10	0.2857142857	0.9	5	0.6666666667	0	0	0	218.64	166.560841828
960	3	3	0.8461538462	1	33	0.2307692308	0.6666666667	3	0.4814814815	0	2	1	215.3090909091	57.0794845326
976	0	3	0.8333333333	0	12	0.3333333333	0.4166666667	4	0.4	0	3	1.75	213.2166666667	189.197918286
805	0	4	0.9411764706	1	18	0.3529411765	2.0555555556	3	1	1	2	0.5625	213.2111111111	121.591819199
978	5	3	1	1	16	0.1666666667	2.875	3	0.4545454545	1	2	0.3125	212.5	63.9941923157
993	7	3	0.8333333333	0	14	0.3333333333	1.4285714286	4	0.5882352941	0	3	1.375	210.2571428572	300
982	0	2	1.1818181818	0	11	0.3636363636	2.6363636364	4	0.3333333333	0	0	0	209.0909090909	27.0717370767
836	8	5	1.1333333333	3	27	0.2	1.1111111111	4	0.7142857143	0	5	1.375	208.0074074074	79.4410851331
962	1	7	1.0625	2	16	0.25	1.9375	3	0.75	0	1	0.625	207.0625	85.2653766799
882	0	5	1.5	0	7	0.5	0	4	1	0	1	0.25	207.0357142857	145.900660348
1059	0	4	1.1666666667	0	12	0.4166666667	1.75	4	0.6153846154	0	1	0.625	206.3166666667	50.0881653432
596	0	4	0.5	0	3	0.5	1	4	0.6875	0	1	0.625	206.0434782609	14.1868457693
938	6	3	1.3333333333	4	19	0.6666666667	0.0526315789	3	1	1	3	0.9166666667	205.2631578947	120.028074229
864	0	6	1	0	28	0.5	0.0714285714	4	0.4	1	3	0.25	205.1785714286	300
914	7	4	0.95	2	26	0.2	1.6153846154	4	0.5714285714	1	2	0.5	204.5128205128	37.5036889009
752	0	7	0.7777777778	4	14	0.4444444444	1.2142857143	4	0.4545454545	2	3	0.875	204.1714285714	19.7119639663
907	6	5	0.7857142857	0	20	0.4285714286	1.25	4	0.4285714286	0	2	1.125	204.07	23.0340147376
894	0	8	1.1428571429	0	14	0.2142857143	1.8571428571	3	0.4444444444	2	3	0.7083333333	203.1190476191	41.7586849799
902	3	4	0.5384615385	0	24	0.6923076923	1.125	4	0.4615384615	0	4	1.25	203.0729166667	242.348662733
951	5	3	0.95	1	20	0.35	1.6	4	0.6923076923	0	0	0	202.9833333333	94.216420313
853	0	7	0.9230769231	0	13	0.3846153846	1.4615384615	4	0.625	0	0	0	202.8769230769	70.5373253261
1068	0	4	0.9545454545	0	23	0.2727272727	2.2608695652	4	1	1	2	0.25	202.5434782609	80.8067112382
948	0	6	0.8181818182	1	11	0.4545454545	2.3636363636	5	0.375	0	1	0.25	202.0909090909	300
845	0	7	1.1111111111	0	13	0.3333333333	0.9230769231	4	0.6666666667	0	0	0	201.4615384615	124.944666153
641	7	8	0.9166666667	0	19	0.1666666667	1.2631578947	2	0.44	0	2	1	201.2	16.2218322939
896	10	8	1	2	18	0.5555555556	1.6666666667	5	0.5555555556	0	2	0.5	200.9555555556	106.236349675
1055	2	6	1.25	2	30	0.375	0.3	3	0.5714285714	2	4	1.53125	200.4866666667	83.7883630721
912	0	2	1.1428571429	0	18	0.4285714286	0.5	6	0.4	0	1	0.125	199.9777777778	300
929	3	3	0.6153846154	1	13	0.3076923077	2.1538461539	5	0.6	1	4	0.65625	199.7230769231	66.0496205711
580	0	5	0.9090909091	1	14	0.0909090909	1.0714285714	4	0.6875	0	0	0	199.3647058824	232.914868332
872	0	5	0.8888888889	1	18	0.3333333333	0.7222222222	4	0.3529411765	0	4	1.5	197.6777777778	89.9628225319
1062	5	8	1.1428571429	1	27	0.2857142857	0.2962962963	3	0.3333333333	1	4	1.09375	197.3703703704	46.2426393989
886	4	2	0.8571428571	0	7	0.2857142857	1.1428571429	5	0.45	0	0	0	193.7142857143	22.8702579888
996	0	4	0.7272727273	1	15	0.3636363636	1.0666666667	4	0.55	1	3	0.6666666667	192.9333333333	76.2167115315
930	3	7	0.8	1	22	0.6	0.2272727273	3	0.5	1	2	0.375	192.7727272728	130.53776681
887	2	4	0.7777777778	2	18	0.4444444444	0.7777777778	3	0.5555555556	0	2	0.875	190.7407407408	13.4753621272
731	10	2	1.3333333333	1	21	0.6666666667	0.0476190476	4	0.5	0	1	0.5	190.6761904762	151.965569569
1037	0	4	0.75	2	19	0.25	0.6842105263	5	1	0	4	2	189.5894736842	229.893021098
979	0	4	0.6666666667	4	28	0.3333333333	0.0357142857	4	1	0	2	0.875	187.8785714286	65.2213367073
668	2	4	1	2	22	0.1111111111	0.6363636364	4	1	3	6	1.4375	187.4	35.3247989354
855	2	6	0.9	2	18	0.4	0.7777777778	4	0.5	1	3	0.5833333333	186.5666666667	53.6378999205
835	3	4	1.3333333333	1	33	0.3333333333	0.0303030303	4	0.7058823529	0	2	0.875	185.8787878788	67.47476203
846	0	5	0.75	1	14	0.375	0.7142857143	4	0.6363636364	1	2	0.375	185.2857142857	87.1656180375
921	4	4	1.125	0	8	0.125	0.875	3	0.8	0	1	0.625	184.85	206.206383861
928	0	4	0.7333333333	0	15	0.5333333333	1.4666666667	5	0.6	0	1	0.125	184.5166666667	174.51222622
1039	9	7	1.0333333333	0	27	0.2	3.1851851852	3	0.2	1	2	0.625	183.6574074074	57.9948463952
1023	5	9	1	1	20	0.1428571429	0.35	3	0.7142857143	0	3	1.5	183.24	11.6682740924
859	0	3	0.8333333333	2	18	0.3333333333	0.2777777778	4	0.1428571429	2	4	1.34375	182.6777777778	58.5244957254
848	4	5	1	0	20	0.2777777778	1.7	3	0.3636363636	0	3	1.5	182.5	72.260722564
932	0	3	1	2	19	0.4	0.7368421053	4	0.5625	0	0	0	181.6421052632	75.1366173757
1008	5	2	0.7619047619	2	21	0.1904761905	2.0952380952	4	0.5	1	4	1.3125	181.4095238095	119.271654711
1026	9	6	0.9166666667	2	12	0.0833333333	1.5	3	0.7142857143	0	1	0.875	180.9166666667	22.8475893161
934	2	8	1.4	1	29	0.2	0.4137931034	3	0.5714285714	4	7	1.5535714286	180.0275862069	53.6564288209
1056	0	4	1	0	13	0.5	0	4	0.3125	1	2	0.3125	178.1846153846	79.1575152819
917	0	5	0.8	0	15	0.4	1	4	0.5	0	0	0	178.15	43.3566358391
969	0	6	1	0	25	0.5	0	4	0.4285714286	2	6	1.8958333333	175.008	95.3700013342
1041	7	5	0.8	3	23	0.6	0.652173913	4	0.375	0	1	0.625	172.9739130435	91.8223654808
680	4	4	0.9333333333	1	24	0.1333333333	1.0833333333	3	0.4736842105	1	2	0.5	172.7333333333	76.1459241065
825	8	5	1.1428571429	2	28	0.2142857143	1.5	4	0.75	1	5	1.7	172.4857142857	40.9437653618
842	0	4	0.6842105263	1	19	0.3157894737	2	4	0.5625	0	2	1.125	171.2526315789	65.6641966727
861	5	3	0.8888888889	1	21	0.2222222222	2.0952380952	4	0.3703703704	2	4	0.8125	170.9428571429	100.331811014
826	9	4	1.1176470588	5	29	0.1470588235	4.4137931035	4	0.3846153846	2	3	0.7083333333	170.5379310345	300
1010	0	4	1.25	3	26	0.25	0.0769230769	4	0.25	0	4	2	170.0769230769	160.80994355
1018	2	9	1	3	28	0.4285714286	0.3214285714	4	0.7	2	3	0.25	169.1785714286	41.0161988135
793	0	3	0.75	4	21	0.3333333333	1.0476190476	5	0.5714285714	2	3	0.5416666667	168.8190476191	58.6590550112
813	3	5	0.8	3	27	0.3	0.7037037037	4	0.5	1	2	0.6875	168.5555555556	73.8188897813
868	2	4	0.8333333333	0	12	0.3333333333	1.5	3	0.7	0	1	0.125	168.0666666667	73.3962116755
1002	4	4	0.95	1	29	0.35	1.4137931035	4	0.5454545455	1	2	0.375	164.5775862069	197.602362278
953	0	5	1.1	3	22	0.3	1.6363636364	5	0.4	0	2	0.625	163.6818181818	54.6233593864
940	8	1	0.8333333333	1	13	0.3333333333	3.8461538462	6	0.3333333333	0	0	0	162.9846153846	300
803	3	3	1	1	20	0.2	0.2	3	0.8	1	3	0.9583333333	160.06	49.8492766486
819	2	5	0.8	5	31	0.4	0.1935483871	4	0.4074074074	2	6	1.375	160.0064516129	75.0902334633
748	0	7	0.8333333333	3	18	0.3333333333	0.3333333333	4	0.6666666667	1	2	0.3125	159.9444444444	24.7869111105
939	4	6	0.8636363636	0	22	0.3636363636	3.7272727273	5	0.5	0	1	0.125	159.8818181818	189.939638687
983	3	1	0.8571428571	1	21	0.2857142857	0.5238095238	3	0.9642857143	1	3	0.5416666667	156.4476190476	133.596074678
1067	0	6	1	4	11	0	0.0909090909	3	0.3181818182	0	0	0	152.1636363636	17.3529474661
889	7	5	1	1	18	0	0.3333333333	4	0.5	0	2	0.75	152.1481481482	114.827462973
945	4	5	0.8125	1	19	0.25	1.8421052632	3	0.3214285714	1	2	0.5625	148.6947368421	134.537377914
891	4	5	0.9	0	26	0.5	0.5769230769	3	0.3846153846	3	6	1.3125	148.3307692308	86.7217176093
973	0	8	0.6666666667	4	24	0.6666666667	0.2916666667	4	0.4444444444	1	5	1.4	146.65	210.229192958
893	0	2	0.8125	2	21	0.4375	1.6190476191	5	0.5	0	3	1.125	141.9428571429	155.349836094
1038	0	4	1	2	29	0.1666666667	0.2068965517	4	0.5	3	6	1.625	141.7448275862	117.750872916
1050	4	4	0.4	0	30	0.8	0.2	4	0.4	1	2	0.375	139.2133333333	58.9201896678
869	1	6	1	0	27	0.4	0.1481481481	4	0.8	1	4	0.75	138.2296296296	86.7125735532
920	3	7	0.8333333333	0	14	0.5	0.5	4	0.32	0	1	1	136.6285714286	26.9049748669
879	6	7	1	1	18	0.3333333333	1.4444444444	5	0.2777777778	1	4	0.96875	136.6111111111	91.6367857761
942	0	5	1	2	26	0.5714285714	0.2307692308	4	0.5	1	3	0.6666666667	130.6153846154	68.9560435072
1063	2	4	1	1	18	0.2	0.2222222222	3	0.75	1	3	0.5416666667	122.6333333334	28.432915436
1070	3	4	1	1	29	0.2	0.1379310345	3	0.6666666667	0	1	0.625	119.8758620689	55.2149319016
915	8	6	0.8888888889	2	24	0.3333333333	0.5	3	0.4545454545	0	1	0.75	118.6416666667	40.152899173
870	7	6	1	3	27	0.4	0.1481481481	4	0.4761904762	2	4	1.25	115.5555555556	79.7256413732
1052	0	5	0.8	0	34	0.2	0.0588235294	4	0.4210526316	4	6	1.125	112.4117647059	300
918	7	5	1.2	0	29	0.2	0.3103448276	4	0.3703703704	1	3	0.25	109.75	167.070454242
923	0	5	0.9	0	19	0.1	0.7894736842	4	0.5454545455	2	3	0.4166666667	100.8070175439	62.3614185683
903	0	6	0.8666666667	0	30	0.2666666667	3.1333333333	4	0.5	2	5	0.775	77.45	84.9452312171
