Participant, Doc_id,Product
P1,1,22.44506551
P1,2,21.18045584
P1,3,18.3918441
P1,4,21.26108464
P1,5,20.22392906
P1,6,19.46095083
P1,7,18.50429003
P1,8,20.27703741
P1,9,16.63511729
P1,10,17.59101072
P1,11,#NUM!
P1,12,18.82593204
P1,13,21.63789979
P1,14,18.1652387
P1,15,20.13768733
P1,17,21.92689434
P1,18,18.37351419
P1,20,21.7413677
P1,22,17.04761271
P1,23,17.53401024
P1,24,19.294665
P1,25,19.18099736
P1,26,20.15293926
P1,27,23.36500136
P1,28,18.55569543
P1,30,18.80847149
P1,32,21.60795101
P1,33,17.16772112
P1,34,22.45653983
P1,35,18.33335819
P1,36,17.83295982
P1,37,18.53589262
P1,38,17.28546908
P1,39,19.70695377
P1,40,19.64805507
P1,41,17.82955124
P1,42,18.60976721
P1,43,20.05199599
P1,44,21.4744312
P1,45,21.64964483
P1,46,19.63021248
P1,48,20.1691561
P1,50,20.11905817
P1,51,18.47374107
P1,52,16.99375225
P1,53,20.47804254
P1,54,19.37173102
P1,55,16.94688092
P1,56,14.95496839
P1,57,#NUM!
P1,58,20.20567227
P1,59,17.8084077
P1,60,16.73899346
P1,63,20.18720467
P1,64,21.71979178
P1,66,21.24522241
P1,67,15.26557586
P1,68,19.2554458
P1,69,18.02914388
P1,70,21.90433715
P1,71,21.77900467
P1,72,17.06816161
P1,73,20.73765438
P1,75,21.19700326
P1,76,22.42250077
P1,77,16.8467747
P1,78,18.7708002
P1,79,18.43808181
P1,81,20.2527531
P1,82,18.83027817
P1,83,16.44908216
P1,84,19.85351155
P1,85,17.29969115
P1,86,15.84492286
P1,87,22.61017967
P1,88,20.17980127
P1,89,19.87833542
P1,90,19.32347503
P1,91,16.62981119
P1,92,15.92188502
P1,93,20.04374157
P1,94,16.29338471
P1,95,15.02902105
P1,96,19.5623566
P1,97,16.12766398
P1,98,21.87043106
P1,99,21.38038438
P1,100,16.52974031
P1,101,15.71040336
P1,102,19.56033029
P1,103,15.66338553
P1,104,18.72103316
P1,105,20.09945881
P1,106,16.21663317
P1,107,15.72211223
P1,109,15.83029051
P1,110,18.7119887
P1,111,12.29676273
P1,112,19.54507145
P1,113,15.20887383
P1,115,19.54471567
P1,116,17.25208805
P1,117,18.4879761
P1,118,18.29275973
P1,119,17.86480536
P1,120,20.18717585
P1,121,17.06250368
P1,122,19.88588728
P1,123,16.08506046
P1,124,15.75461548
P1,125,16.92148384
P1,126,#NUM!
P1,127,18.50263824
P1,128,13.69837435
P1,129,18.2191264
P1,130,19.73003755
P1,131,18.14285376
P1,132,17.87653442
P1,133,13.89034019
P1,134,22.05597637
P1,135,19.21051998
P1,136,16.62515758
P1,138,15.42422097
P1,139,17.14600747
P1,140,21.0203234
P1,141,16.63144974
P1,142,17.40826596
P1,143,14.96257382
P1,144,18.22160046
P1,145,13.99211408
P1,146,21.00822589
P1,147,18.60680111
P1,148,18.05668986
P1,150,18.13369238
P1,151,21.83851562
P1,152,18.67764386
P1,153,17.49847833
P1,154,17.94347754
P1,155,21.04679661
P1,156,19.07048372
P1,157,20.04483252
P1,158,23.26360889
P1,159,19.4527239
P1,160,16.96864259
P1,161,22.11460853
P1,162,18.02841742
P1,163,19.63550768
P1,164,20.83474824
P1,165,19.32583399
P1,166,16.40440624
P1,167,16.56599687
P1,168,18.67755358
P1,169,19.40769562
P1,170,22.19382143
P1,171,20.48520209
P1,172,18.13652158
P1,173,18.62049344
P1,174,#NUM!
P1,175,15.92155386
P1,176,21.16187119
P1,177,18.02859336
P1,178,17.76340374
P1,179,17.99910196
P1,180,19.43047322
P1,181,21.13293235
P1,182,18.08579114
P1,183,18.96450365
P1,184,17.95219052
P1,185,15.89334353
P1,186,17.26615162
P1,187,23.20256509
P1,188,20.21519894
P1,189,22.64929048
P1,190,19.6914461
P1,191,20.88797775
P1,193,19.50684311
P1,194,22.42823576
P1,195,21.11400915
P1,196,23.2911011
P1,199,19.82657888
P1,200,15.49551571
P1,201,19.17931875
P1,202,16.25532036
P1,203,19.32682201
P1,204,20.89243163
P1,205,21.57054008
P1,206,20.06583622
P1,207,19.94796879
P1,208,22.66659173
P1,209,23.62482352
P1,210,19.79604127
P1,212,23.65116258
P1,213,18.62277326
P1,214,18.18631048
P1,215,15.21423978
P1,216,21.46770176
P1,217,16.98987278
P1,218,18.66385404
P1,219,17.11955894
P1,220,18.21442704
P1,221,20.68232767
P1,222,20.8865649
P1,223,18.03616554
P1,224,18.94902184
P1,225,14.57862984
P1,226,20.23979022
P1,227,19.21277207
P1,229,15.23296647
P1,230,20.01369189
P1,231,20.21777238
P1,232,16.2566978
P1,233,21.56156527
P1,234,20.4358752
P1,235,19.6342481
P1,236,19.36233256
P1,237,14.36745231
P1,238,16.75448907
P1,239,13.6122539
P1,240,15.1112299
P1,242,18.47476721
P1,243,18.91610344
P1,244,15.00772458
P1,245,12.92101039
P1,246,18.15875845
P1,247,17.44388069
P1,248,#NUM!
P1,250,21.04029649
P1,252,#NUM!
P1,253,18.0970806
P1,254,20.87821436
P1,255,17.94067498
P1,257,20.20059698
P1,258,18.73288091
P1,259,21.7376444
P1,260,18.35497794
P1,261,#NUM!
P1,262,16.94535791
P1,263,17.48554864
P1,264,19.45620148
P1,265,17.84799281
P1,266,15.89944161
P1,268,19.62013541
P1,269,14.13307441
P1,270,17.42442227
P1,271,19.44394823
P1,272,20.75869624
P1,273,22.92963721
P1,274,14.77080443
P1,276,14.61776057
P1,277,21.71009147
P1,278,20.99950078
P1,279,17.64411947
P1,280,17.44212991
P1,281,#NUM!
P1,282,14.71664203
P1,283,18.52082389
P1,284,17.33735872
P1,285,17.32378946
P1,286,20.83252951
P1,288,14.37626666
P1,289,14.48887532
P1,290,#NUM!
P1,291,#NUM!
P1,292,10.58141141
P1,293,14.90355955
P1,294,11.63440034
P1,297,#NUM!
P1,299,11.09495041
P1,300,#NUM!
P1,302,20.18974087
P1,303,15.97415537
P1,304,16.73458842
P1,305,17.90393116
P1,306,20.27439095
P1,307,15.80405248
P1,308,16.38728183
P1,309,20.11280743
P1,310,13.96980983
P1,311,19.90266229
P1,312,#NUM!
P1,313,16.70902656
P1,314,16.19281396
P1,315,16.43594514
P1,317,20.58217304
P1,318,16.68434306
P1,319,17.29424706
P1,320,#NUM!
P1,321,#NUM!
P1,322,21.36907347
P1,323,17.40822125
P1,324,19.82453546
P1,326,11.07356269
P1,327,18.93864896
P1,328,16.84884661
P1,329,14.96733262
P1,330,13.22832628
P1,332,13.07828993
P1,333,#NUM!
P1,351,#NUM!
P1,352,#NUM!
P1,353,11.89544344
P1,354,15.72194066
P1,355,#NUM!
P1,356,12.68868223
P1,357,14.39908977
P1,359,13.41097739
P1,360,#NUM!
P1,361,#NUM!
P1,362,16.5391781
P1,364,#NUM!
P1,371,#NUM!
P1,377,20.48170042
P1,378,14.51132582
P1,379,#NUM!
P1,380,#NUM!
P1,381,#NUM!
P1,382,#NUM!
P1,383,#NUM!
P1,384,17.36492843
P1,385,18.10930441
P1,386,19.61478049
P1,387,15.19394101
P1,388,#NUM!
P1,389,15.13389545
P1,391,#NUM!
P1,392,16.35348435
P1,393,19.09585765
P1,394,18.42244475
P1,395,14.66386174
P1,396,16.57987142
P1,397,12.1851831
P1,398,16.46813777
P1,399,18.99138174
P1,400,14.24058224
P1,401,19.94972438
P1,402,18.41077031
P1,403,15.71562619
P1,405,18.59909341
P1,406,18.14474289
P1,407,16.67235716
P1,408,20.44794681
P1,409,21.33117079
P1,410,17.99165243
P1,411,21.84162249
P1,412,20.67776307
P1,413,21.12019016
P1,414,20.45205252
P1,415,22.171691
P1,416,19.79125385
P1,417,19.87510221
P1,418,21.57877559
P1,419,16.94216906
P1,420,18.51725532
P1,421,18.68854558
P1,422,15.33825746
P1,424,#NUM!
P1,425,19.02953589
P1,426,14.84600939
P1,427,16.50145764
P1,428,19.55100269
P1,429,21.43297136
P1,430,19.29880603
P1,431,17.764896
P1,432,19.29218468
P1,433,18.91401019
P1,434,17.57640199
P1,435,21.89308494
P1,436,15.82811322
P1,437,18.29548101
P1,439,18.92922413
P1,440,#NUM!
P1,442,22.23069148
P1,443,17.53137375
P1,444,20.48109178
P1,445,17.50954351
P1,446,18.80239886
P1,447,15.15079145
P1,448,17.15245896
P1,449,17.50842008
P1,450,20.402383
P1,451,20.6968784
P1,452,#NUM!
P1,453,#NUM!
P1,471,#NUM!
P1,501,19.91552036
P1,504,21.07258152
P1,505,20.51643471
P1,506,15.65881551
P1,507,18.66838137
P1,508,18.22297348
P1,509,15.49512042
P1,511,15.41349024
P1,512,19.30100503
P1,514,20.05339431
P1,515,17.33006095
P1,516,#NUM!
P1,517,22.0988625
P1,518,16.87827864
P1,519,18.38065017
P1,521,13.79296154
P1,522,15.14944811
P1,523,18.96159711
P1,524,19.77113326
P1,525,18.44828266
P1,526,14.25141673
P1,527,10.69304292
P1,528,#NUM!
P1,529,13.79481717
P1,530,15.76601948
P1,531,#NUM!
P1,532,#NUM!
P1,533,12.41080004
P1,534,13.37037578
P1,536,18.84750353
P1,537,17.85593696
P1,538,18.81145089
P1,539,#NUM!
P1,540,18.71875801
P1,541,17.71367967
P1,542,11.00432052
P1,543,#NUM!
P1,546,18.30394886
P1,549,18.92030868
P1,550,22.06473917
P1,552,17.54781785
P1,553,16.26896568
P1,555,15.2594633
P1,557,23.92079459
P1,558,17.52590022
P1,559,#NUM!
P1,560,17.33775983
P1,563,16.51341965
P1,564,17.9581557
P1,565,#NUM!
P1,566,19.21644174
P1,567,20.55252495
P1,568,19.64349996
P1,569,21.60899399
P1,570,19.01174393
P1,572,19.18181615
P1,573,17.10769876
P1,575,16.00187344
P1,576,19.12680654
P1,578,15.07434817
P1,579,#NUM!
P1,581,19.04564565
P1,583,15.86736846
P1,584,#NUM!
P1,586,13.10722566
P1,587,19.87016271
P1,589,15.69948189
P1,593,20.54548811
P1,595,17.20371788
P1,596,13.03952379
P1,597,15.78626505
P1,598,19.36868949
P1,599,#NUM!
P1,601,16.92680192
P1,602,15.05298183
P1,603,12.15831451
P1,605,18.39001129
P1,608,17.35840156
P1,609,18.33715393
P1,611,17.24379591
P1,612,14.12561493
P1,614,21.20217986
P1,615,15.20246823
P1,617,14.45269182
P1,618,18.31450087
P1,620,#NUM!
P1,621,17.01964252
P1,622,13.20181103
P1,623,15.52018142
P1,624,16.5006869
P1,627,19.20868316
P1,630,18.52491932
P1,631,#NUM!
P1,632,16.46161445
P1,633,18.95272302
P1,634,#NUM!
P1,635,21.06611742
P1,640,16.24930916
P1,641,16.23533229
P1,642,13.88016934
P1,643,19.4477471
P1,644,12.76430426
P1,645,13.30681017
P1,646,16.1298418
P1,648,17.97072988
P1,650,16.181187
P1,651,19.3690636
P1,654,15.08023728
P1,655,17.46244068
P1,656,17.36408495
P1,657,#NUM!
P1,659,14.84971624
P1,660,14.69634922
P1,661,#NUM!
P1,662,17.61253189
P1,667,16.22776705
P1,668,14.16079413
P1,669,19.52676304
P1,671,16.20761867
P1,672,15.05168028
P1,673,19.67404412
P1,674,#NUM!
P1,675,13.48398669
P1,676,18.2380604
P1,679,13.70454455
P1,680,15.93244668
P1,682,16.37474958
P1,683,14.87879343
P1,686,17.18810975
P1,687,11.78458179
P1,688,14.35085836
P1,690,#NUM!
P1,691,19.47532517
P1,692,16.27068948
P1,693,15.93061663
P1,694,16.08296638
P1,695,16.12517995
P1,697,18.10545158
P1,698,16.73651466
P1,699,16.3271338
P1,701,14.36385401
P1,702,16.334912
P1,703,#NUM!
P1,705,#NUM!
P1,706,#NUM!
P1,707,18.65055445
P1,708,#NUM!
P1,711,12.30930555
P1,712,12.67365831
P1,713,10.56707674
P1,714,#NUM!
P1,715,14.64297165
P1,717,11.89307081
P1,720,14.87609384
P1,722,14.17118149
P1,723,#NUM!
P1,724,14.95229702
P1,727,19.27466925
P1,729,16.40715194
P1,731,#NUM!
P1,732,#NUM!
P1,733,#NUM!
P1,735,11.91281908
P1,738,10.08263556
P1,739,#NUM!
P1,740,13.15563777
P1,741,#NUM!
P1,742,12.34831164
P1,743,14.16470308
P1,744,#NUM!
P1,748,#NUM!
P1,749,14.05211523
P1,751,18.94206319
P1,752,13.11597729
P1,754,14.13179045
P1,755,18.86258347
P1,757,13.44850268
P1,758,14.79737533
P1,759,13.99631565
P1,760,14.69075705
P1,763,#NUM!
P1,765,13.67238454
P1,766,15.68210451
P1,768,15.05328414
P1,769,17.85570009
P1,770,16.3779774
P1,771,18.83817435
P1,772,16.89855867
P1,775,13.12920694
P1,776,13.44298588
P1,778,15.63426456
P1,780,15.54752883
P1,783,12.4139557
P1,784,20.45256675
P1,785,11.9419045
P1,787,#NUM!
P1,788,19.40724815
P1,789,12.26885894
P1,790,13.22444494
P1,792,13.55709559
P1,793,15.21161948
P1,796,#NUM!
P1,800,17.06387917
P1,801,15.72164731
P1,802,11.89416257
P1,803,#NUM!
P1,804,#NUM!
P1,805,14.42757419
P1,806,#NUM!
P1,807,#NUM!
P1,810,11.90061953
P1,811,#NUM!
P1,812,11.54177222
P1,814,#NUM!
P1,818,#NUM!
P1,822,#NUM!
P1,825,#NUM!
P1,828,13.73741082
P1,830,#NUM!
P1,835,10.57731115
P1,837,#NUM!
P1,849,#NUM!
P1,852,14.87611253
P1,854,15.25335703
P1,856,#NUM!
P1,857,#NUM!
P1,858,#NUM!
P1,860,11.6515838
P1,861,#NUM!
P1,862,#NUM!
P1,863,#NUM!
P1,867,#NUM!
P1,902,14.86440681
P1,903,#NUM!
P1,904,10.11176429
P1,951,19.69184458
P1,952,#NUM!
P1,953,13.68800902
P1,954,#NUM!
P1,956,#NUM!
P1,958,#NUM!
P1,959,16.98198381
P1,960,13.16001969
P1,961,#NUM!
P1,962,#NUM!
P1,964,#NUM!
P1,968,#NUM!
P1,970,#NUM!
P1,971,#NUM!
P1,972,#NUM!
P1,973,#NUM!
P1,974,11.98608606
P1,977,13.19245098
P1,978,#NUM!
P1,982,#NUM!
P1,983,9.949673566
P1,986,#NUM!
P1,987,#NUM!
P1,988,#NUM!
P1,990,#NUM!
P1,991,#NUM!
P1,992,#NUM!
P1,994,#NUM!
P1,995,13.07633507
P1,998,#NUM!
P1,999,#NUM!
P1,1000,11.50006705
P2,1,19.71722438
P2,2,#NUM!
P2,3,15.94552909
P2,4,18.91223042
P2,5,17.06197804
P2,6,17.09016701
P2,7,12.16688876
P2,8,18.82526966
P2,10,14.21479957
P2,11,20.93941474
P2,12,#NUM!
P2,13,18.05187743
P2,14,#NUM!
P2,15,16.16461981
P2,17,19.87778347
P2,18,11.44762856
P2,20,15.81229906
P2,22,15.11474861
P2,23,20.95145801
P2,24,16.5849736
P2,25,#NUM!
P2,26,18.21172994
P2,27,18.16830637
P2,28,#NUM!
P2,30,#NUM!
P2,34,16.56201291
P2,35,#NUM!
P2,37,14.39113438
P2,39,17.92117406
P2,40,18.50269958
P2,41,19.95107946
P2,42,14.72358122
P2,43,14.9059043
P2,44,18.43008814
P2,45,16.10153864
P2,46,#NUM!
P2,48,16.70677596
P2,50,11.72648238
P2,51,21.63404159
P2,52,17.28061736
P2,53,20.47238816
P2,54,#NUM!
P2,55,16.08377144
P2,56,16.8685753
P2,57,16.72987902
P2,58,18.31651156
P2,59,17.58298142
P2,60,14.94667666
P2,63,18.18425601
P2,64,21.08726289
P2,66,19.79555117
P2,67,18.26896997
P2,68,21.69319965
P2,69,19.14136307
P2,70,18.33229917
P2,71,#NUM!
P2,72,18.86676224
P2,73,18.03107762
P2,75,19.44847649
P2,76,19.01689033
P2,77,20.63605887
P2,78,17.57915441
P2,79,17.5558172
P2,81,20.1855647
P2,82,17.97096304
P2,83,17.57034049
P2,84,21.02839966
P2,85,20.12789009
P2,86,#NUM!
P2,87,22.34879852
P2,88,21.49154645
P2,89,16.61826682
P2,90,17.97652847
P2,91,17.75976912
P2,92,#NUM!
P2,93,17.3221379
P2,94,16.82454575
P2,95,14.42631406
P2,96,19.26885085
P2,97,17.00563038
P2,98,19.42717694
P2,99,20.20784603
P2,100,18.1330523
P2,101,#NUM!
P2,102,22.43251029
P2,103,17.06276609
P2,104,17.38021026
P2,105,20.67588905
P2,106,16.27395671
P2,107,16.33677116
P2,109,12.45848722
P2,110,18.84901316
P2,111,11.12839711
P2,112,18.40747758
P2,113,#NUM!
P2,115,18.66985655
P2,116,16.11545638
P2,117,20.90509756
P2,118,18.1698624
P2,119,17.60512786
P2,120,19.37551458
P2,121,14.5161882
P2,122,21.42736474
P2,123,16.60780112
P2,124,#NUM!
P2,125,14.94858174
P2,126,13.48258006
P2,127,18.58861591
P2,128,18.03037112
P2,129,18.96425584
P2,130,21.82252862
P2,131,17.07522026
P2,132,14.84664054
P2,133,14.92903178
P2,134,21.98447478
P2,135,15.59938765
P2,136,18.4481882
P2,138,12.72266983
P2,139,18.87147362
P2,140,18.69099291
P2,141,#NUM!
P2,142,21.25825122
P2,143,#NUM!
P2,144,20.43101347
P2,145,13.98268835
P2,146,21.56351855
P2,147,17.13591941
P2,148,17.357773
P2,150,13.90089885
P2,151,18.41184176
P2,152,18.2196197
P2,153,16.65057934
P2,154,18.2116991
P2,155,19.44756198
P2,156,22.24068796
P2,157,20.02040384
P2,158,21.8323755
P2,159,18.63751306
P2,160,16.42121148
P2,161,20.78209788
P2,162,13.74039925
P2,163,19.26080278
P2,164,22.26091072
P2,165,16.96077155
P2,166,13.57603151
P2,167,15.5664038
P2,168,17.76073491
P2,169,18.80975111
P2,170,20.53808623
P2,171,20.4262394
P2,172,21.85690473
P2,173,16.92830994
P2,174,#NUM!
P2,175,17.67583539
P2,176,17.99785387
P2,177,18.7874391
P2,178,18.56353146
P2,179,17.1373004
P2,180,15.33999262
P2,181,17.9156324
P2,182,#NUM!
P2,183,16.4634989
P2,184,17.8055511
P2,185,18.1424553
P2,186,15.46735291
P2,187,22.15723053
P2,188,16.91740817
P2,189,19.0715619
P2,190,#NUM!
P2,191,20.89815579
P2,193,17.36624424
P2,194,19.07046297
P2,195,17.76145632
P2,196,19.79166869
P2,199,19.59981848
P2,200,13.54444944
P2,201,17.07922018
P2,202,#NUM!
P2,203,17.83907812
P2,204,19.35678866
P2,205,20.57556268
P2,206,17.22075109
P2,207,20.63582344
P2,208,16.74141706
P2,209,19.42627522
P2,210,16.96995102
P2,212,21.5315291
P2,213,14.19700154
P2,214,15.28307165
P2,215,13.98427359
P2,216,15.9296037
P2,217,15.73980239
P2,218,19.34229108
P2,219,14.96661435
P2,220,18.35739661
P2,221,22.12013663
P2,222,19.12738874
P2,223,17.13734365
P2,224,13.61816046
P2,225,13.55085575
P2,226,18.8330237
P2,227,19.08285141
P2,229,13.08040183
P2,230,17.78155727
P2,231,15.65430862
P2,232,13.5015725
P2,233,14.89323932
P2,234,19.55450808
P2,235,17.57877939
P2,236,16.58858031
P2,237,15.38893229
P2,238,19.41465916
P2,239,14.83085778
P2,240,14.66229779
P2,242,18.78249894
P2,243,16.45879579
P2,244,14.45529743
P2,245,14.35539868
P2,246,18.90872372
P2,247,15.05939253
P2,248,13.96105589
P2,250,16.46385791
P2,252,#NUM!
P2,253,19.07065131
P2,254,18.69469566
P2,255,19.00112383
P2,257,18.23774099
P2,258,17.85417758
P2,259,19.89861523
P2,260,15.98146922
P2,261,17.24823617
P2,262,17.97655727
P2,263,17.2373715
P2,264,18.77465776
P2,265,18.46572443
P2,266,20.33875013
P2,268,19.53140493
P2,269,20.63035877
P2,270,15.01870364
P2,271,19.6882307
P2,272,13.6096787
P2,273,22.17013798
P2,274,17.47515016
P2,276,14.31304427
P2,277,20.32786309
P2,278,21.6017177
P2,279,17.11290178
P2,280,17.16496423
P2,281,15.97888405
P2,282,15.02646495
P2,283,17.2011514
P2,284,21.20265306
P2,285,17.4552028
P2,286,21.36819754
P2,288,19.81512685
P2,289,17.23151626
P2,290,16.30224826
P2,291,14.77517953
P2,292,14.99499567
P2,293,16.77754403
P2,294,16.49416732
P2,296,18.69985591
P2,297,18.86917555
P2,299,12.06040975
P2,300,16.92362454
P2,302,20.95727663
P2,303,17.89286089
P2,304,18.01897484
P2,305,#NUM!
P2,306,15.40576676
P2,307,14.49138634
P2,308,20.54955483
P2,309,21.40244018
P2,310,15.66376344
P2,311,21.05350018
P2,312,15.65803615
P2,313,18.81896996
P2,314,15.8293034
P2,315,19.54496162
P2,317,19.89850271
P2,318,18.51075472
P2,319,18.10560898
P2,320,#NUM!
P2,321,17.70056347
P2,322,21.33823552
P2,323,14.91858853
P2,324,21.55408487
P2,326,19.41829813
P2,327,19.51546301
P2,328,18.09580611
P2,329,16.51022496
P2,330,21.55974237
P2,331,#NUM!
P2,332,17.35224543
P2,333,#NUM!
P2,334,15.86187592
P2,336,18.35894859
P2,337,15.58750798
P2,338,18.55892732
P2,340,21.25306793
P2,341,13.42399043
P2,342,17.48833041
P2,343,15.41502592
P2,345,14.82925815
P2,346,17.01342118
P2,348,18.16301677
P2,349,17.04693704
P2,350,17.85029442
P2,351,17.85097316
P2,352,15.6537585
P2,353,17.14134356
P2,354,19.35802454
P2,355,18.15130451
P2,356,13.8568372
P2,357,18.7154933
P2,359,19.21896934
P2,360,16.46687501
P2,361,17.97881752
P2,362,17.32300753
P2,363,17.09262783
P2,364,22.05141233
P2,365,18.78538014
P2,366,17.27372791
P2,367,18.75473254
P2,368,17.56050758
P2,369,20.63073005
P2,370,19.92606891
P2,371,19.19618708
P2,372,#NUM!
P2,373,19.67750528
P2,374,16.86010564
P2,375,14.78559596
P2,376,14.72420802
P2,377,21.4643652
P2,378,19.48282584
P2,379,#NUM!
P2,380,#NUM!
P2,381,11.60425836
P2,382,16.04044829
P2,383,18.0600166
P2,384,20.22975395
P2,385,17.43093987
P2,386,18.93904919
P2,387,18.11362282
P2,388,13.80250417
P2,389,14.72519931
P2,391,17.06158117
P2,392,18.01141039
P2,393,20.9963708
P2,394,23.109427
P2,395,17.16961537
P2,396,16.80193027
P2,397,14.49106916
P2,398,17.8511773
P2,399,17.11744166
P2,400,14.38172128
P2,401,18.53562291
P2,402,#NUM!
P2,403,16.40061759
P2,405,20.04216607
P2,406,16.64623639
P2,407,20.47848495
P2,408,19.89612926
P2,409,17.79363883
P2,410,18.44218429
P2,411,19.37463096
P2,412,18.71644383
P2,413,#NUM!
P2,414,18.75909627
P2,415,20.26632637
P2,416,18.63199187
P2,417,#NUM!
P2,418,20.72317513
P2,419,16.77463982
P2,420,22.54087294
P2,421,18.31528171
P2,422,#NUM!
P2,424,#NUM!
P2,425,#NUM!
P2,426,17.30264845
P2,427,20.5309616
P2,428,19.53163559
P2,429,18.62608338
P2,430,18.38609841
P2,431,16.56350381
P2,432,18.6765269
P2,433,17.7340615
P2,434,17.03039762
P2,435,19.36171746
P2,436,17.73151373
P2,437,17.20341356
P2,439,18.65610429
P2,440,15.12184748
P2,442,21.08507927
P2,443,#NUM!
P2,444,16.64545119
P2,445,20.64203343
P2,446,18.74396291
P2,447,13.55797209
P2,448,#NUM!
P2,449,17.67506375
P2,450,19.3117338
P2,451,18.76469262
P2,452,18.60750089
P2,453,16.63011351
P2,454,17.45219425
P2,457,16.74828614
P2,459,13.61101881
P2,461,20.03697285
P2,462,17.23411441
P2,464,19.43974071
P2,465,14.12897484
P2,466,15.79352191
P2,467,20.05009248
P2,468,21.69227126
P2,470,18.23602747
P2,471,17.27355005
P2,473,17.94461821
P2,474,#NUM!
P2,477,16.03562435
P2,478,15.26822194
P2,479,17.75732471
P2,480,19.79401878
P2,481,18.17601347
P2,482,16.69990382
P2,483,15.0847118
P2,484,14.57353918
P2,485,14.36164968
P2,486,15.50736623
P2,487,14.00918103
P2,488,#NUM!
P2,490,20.28413957
P2,491,16.67317552
P2,493,16.98495086
P2,494,21.00987804
P2,495,16.35294592
P2,496,14.48856285
P2,497,15.75596112
P2,498,20.62833965
P2,500,15.68007101
P2,501,18.81405274
P2,504,20.30187262
P2,505,18.31030666
P2,506,#NUM!
P2,507,15.12552911
P2,508,20.9923997
P2,509,14.9887277
P2,511,12.46293635
P2,512,18.77952798
P2,514,19.4442791
P2,515,16.93749118
P2,516,18.72601015
P2,517,20.52655232
P2,518,15.21621522
P2,519,21.51244817
P2,521,15.03013232
P2,522,19.76734392
P2,523,19.01889281
P2,524,20.19800402
P2,525,23.21933641
P2,526,21.01753657
P2,527,14.74435525
P2,528,15.03836171
P2,529,19.17137706
P2,530,17.61735963
P2,531,20.55683435
P2,532,15.94910908
P2,533,16.89972062
P2,534,16.51424846
P2,536,19.10258806
P2,537,16.23022052
P2,538,15.87298734
P2,539,#NUM!
P2,540,18.98035978
P2,541,20.03327133
P2,542,14.57416752
P2,543,17.31075677
P2,546,22.50789809
P2,549,17.34805875
P2,550,21.21682776
P2,552,20.32808446
P2,553,16.53054962
P2,555,16.79427137
P2,557,21.02249961
P2,558,16.92612005
P2,559,16.03062786
P2,560,17.40569898
P2,563,15.39057315
P2,564,16.53033723
P2,565,16.48582178
P2,566,17.76514043
P2,567,17.32339172
P2,568,17.34782259
P2,569,19.68722855
P2,570,16.24121795
P2,572,19.95262648
P2,573,18.73081689
P2,575,18.90075524
P2,576,20.084665
P2,578,15.30557005
P2,579,21.28244568
P2,581,19.58340768
P2,583,17.96921365
P2,584,#NUM!
P2,586,#NUM!
P2,587,19.69123515
P2,589,18.60798577
P2,590,17.5134936
P2,591,16.21542469
P2,593,19.72980186
P2,595,14.99100587
P2,596,12.57704489
P2,597,14.3015925
P2,598,21.42859453
P2,599,#NUM!
P2,600,18.23406281
P2,601,17.11294714
P2,602,13.31526428
P2,603,#NUM!
P2,605,18.3026665
P2,608,18.09956539
P2,609,19.41676467
P2,611,17.880983
P2,612,15.52759915
P2,614,18.45413407
P2,615,15.27360621
P2,617,16.00857585
P2,618,14.89135915
P2,620,#NUM!
P2,621,18.04166023
P2,622,12.65689803
P2,623,16.09754835
P2,624,16.18965719
P2,627,16.43859289
P2,630,15.22914883
P2,631,#NUM!
P2,632,17.86605694
P2,633,18.20643934
P2,634,#NUM!
P2,635,17.64493748
P2,640,16.84819685
P2,641,16.64376908
P2,642,13.72479707
P2,643,19.01821857
P2,644,16.30772012
P2,645,13.21309386
P2,646,16.35404333
P2,648,17.04311298
P2,650,14.05241649
P2,651,16.60638913
P2,654,16.14768755
P2,655,21.55760627
P2,656,13.50478511
P2,657,#NUM!
P2,659,15.31145192
P2,660,15.85165889
P2,661,16.17010919
P2,662,17.28830278
P2,667,16.05191841
P2,668,16.24613758
P2,669,17.2304463
P2,671,15.48522371
P2,672,#NUM!
P2,673,20.65140887
P2,674,#NUM!
P2,675,14.05294484
P2,676,20.92749907
P2,679,15.88733772
P2,680,17.41877209
P2,682,15.87476774
P2,683,15.78941777
P2,686,17.87993203
P2,687,#NUM!
P2,688,#NUM!
P2,690,16.36659499
P2,691,15.53368493
P2,692,18.82730781
P2,693,14.43883674
P2,694,12.75556244
P2,695,16.50355678
P2,697,16.19225077
P2,698,16.78022587
P2,699,16.70468905
P2,701,#NUM!
P2,702,18.07859731
P2,703,15.50208954
P2,704,13.71055716
P2,705,18.91689644
P2,706,15.65506972
P2,707,16.78295583
P2,708,14.52825034
P2,711,#NUM!
P2,712,17.92576389
P2,713,14.08272209
P2,714,14.10158797
P2,715,15.97205577
P2,717,15.03814152
P2,720,20.61083708
P2,722,18.74550489
P2,723,15.73367618
P2,724,19.60879509
P2,727,19.25736799
P2,729,19.76917363
P2,731,14.76105166
P2,732,17.67383021
P2,733,#NUM!
P2,735,13.48015057
P2,738,13.65793246
P2,739,16.52301091
P2,740,17.17463388
P2,741,#NUM!
P2,742,16.68695577
P2,743,16.92528425
P2,744,17.6230048
P2,748,16.68297668
P2,749,18.61068235
P2,751,19.70153979
P2,752,15.56979792
P2,754,17.90231673
P2,755,18.59465235
P2,757,14.93413241
P2,758,16.33996843
P2,759,14.6323619
P2,760,#NUM!
P2,763,#NUM!
P2,765,16.58538743
P2,766,18.48541938
P2,768,15.37304411
P2,769,17.43699536
P2,770,15.98975406
P2,771,18.49534676
P2,772,16.56459113
P2,775,14.76506329
P2,776,11.87466931
P2,778,16.17596908
P2,780,15.3491026
P2,783,14.41590203
P2,784,18.16049486
P2,785,16.03490602
P2,787,#NUM!
P2,788,21.09435948
P2,789,13.67065025
P2,790,#NUM!
P2,792,#NUM!
P2,793,16.59144099
P2,796,16.63364531
P2,800,17.89203473
P2,801,15.11570249
P2,802,16.23066271
P2,803,14.91285992
P2,804,15.44773442
P2,805,16.99394237
P2,806,13.22329504
P2,807,15.90849117
P2,810,15.54537486
P2,811,16.91445256
P2,812,17.14023278
P2,813,15.5783278
P2,814,12.41880629
P2,816,15.63563424
P2,818,18.05026234
P2,822,14.68350748
P2,824,17.32421423
P2,825,19.04171948
P2,826,18.33735017
P2,828,17.55333832
P2,830,18.60089501
P2,833,15.48153021
P2,834,20.37367902
P2,835,16.60412902
P2,837,14.52029757
P2,839,16.63267295
P2,840,16.64337245
P2,841,16.06975913
P2,843,15.57996306
P2,845,16.02906862
P2,847,17.00159912
P2,849,11.04936747
P2,852,14.46022806
P2,854,#NUM!
P2,856,15.02563022
P2,857,#NUM!
P2,858,14.17539876
P2,859,#NUM!
P2,860,15.86455259
P2,861,#NUM!
P2,862,15.05524435
P2,863,16.09678656
P2,867,11.9110899
P2,879,#NUM!
P2,881,#NUM!
P2,882,11.153449
P2,886,#NUM!
P2,888,#NUM!
P2,890,13.06415321
P2,892,16.6078685
P2,893,#NUM!
P2,895,17.93516689
P2,897,#NUM!
P2,898,#NUM!
P2,902,16.88458544
P2,903,#NUM!
P2,904,#NUM!
P2,905,16.71592051
P2,906,18.42593838
P2,908,#NUM!
P2,909,#NUM!
P2,910,#NUM!
P2,913,17.62070512
P2,914,#NUM!
P2,916,#NUM!
P2,917,12.79963085
P2,919,#NUM!
P2,920,13.05060494
P2,922,12.96544879
P2,923,15.00487135
P2,925,#NUM!
P2,926,18.2589541
P2,927,#NUM!
P2,928,#NUM!
P2,931,#NUM!
P2,933,18.64451028
P2,935,#NUM!
P2,936,14.52580413
P2,937,13.21716398
P2,941,#NUM!
P2,942,#NUM!
P2,943,#NUM!
P2,944,14.58157467
P2,945,#NUM!
P2,946,#NUM!
P2,947,13.90995292
P2,951,18.6084025
P2,952,#NUM!
P2,953,15.26040732
P2,954,#NUM!
P2,956,#NUM!
P2,958,17.69071271
P2,959,17.42299755
P2,960,13.06703771
P2,961,#NUM!
P2,962,#NUM!
P2,964,#NUM!
P2,968,#NUM!
P2,970,#NUM!
P2,971,#NUM!
P2,972,#NUM!
P2,973,#NUM!
P2,974,#NUM!
P2,977,12.80770739
P2,978,14.98159243
P2,982,14.88039313
P2,983,11.87989453
P2,986,17.58766524
P2,987,11.7117352
P2,988,#NUM!
P2,990,#NUM!
P2,991,#NUM!
P2,992,14.70931816
P2,994,#NUM!
P2,995,15.3933059
P2,997,#NUM!
P2,998,15.9530062
P2,999,#NUM!
P2,1000,#NUM!
P3,1,21.42735027
P3,2,17.55789337
P3,3,16.5612262
P3,4,22.94037944
P3,5,18.27280601
P3,6,20.42645709
P3,7,20.97314308
P3,8,19.53213548
P3,9,18.76303104
P3,10,18.57708181
P3,11,#NUM!
P3,12,18.87979231
P3,13,21.8190567
P3,14,20.24989301
P3,15,20.20119688
P3,17,22.53425575
P3,18,20.23033246
P3,20,20.90821358
P3,22,17.76540271
P3,23,22.12781135
P3,24,22.33320395
P3,25,17.64260793
P3,26,20.53872296
P3,27,19.44841645
P3,28,15.69646973
P3,30,16.56745675
P3,32,18.17887291
P3,33,18.52125709
P3,34,20.29225303
P3,35,18.52251204
P3,36,17.39773963
P3,37,19.33034774
P3,38,15.83247944
P3,39,19.67842671
P3,40,22.46924084
P3,41,19.07794497
P3,42,21.95886233
P3,43,20.46237226
P3,44,20.19927153
P3,45,20.98588666
P3,46,20.36340477
P3,48,20.34758364
P3,50,16.38950107
P3,51,21.78645963
P3,52,19.12598339
P3,53,19.44963939
P3,54,19.40289046
P3,55,18.13036186
P3,56,18.37217797
P3,57,17.94882637
P3,58,20.71347377
P3,59,18.22925707
P3,60,16.51661352
P3,63,19.9168079
P3,64,22.40768893
P3,66,20.6044177
P3,67,17.09443851
P3,68,22.35796471
P3,69,16.68796209
P3,70,17.92219834
P3,71,22.26318327
P3,72,18.27858345
P3,73,18.46769599
P3,75,19.41303285
P3,76,21.64740732
P3,77,18.79665751
P3,78,18.47976723
P3,79,18.38644734
P3,81,21.86545724
P3,82,17.31007503
P3,83,18.79292268
P3,84,21.31237369
P3,85,17.61265959
P3,86,16.02344933
P3,87,22.77732066
P3,88,23.31093242
P3,89,19.63210363
P3,90,20.45770223
P3,91,19.55496624
P3,92,14.1550494
P3,93,21.77868097
P3,94,15.25101291
P3,95,17.40264187
P3,96,20.66179915
P3,97,18.61472814
P3,98,21.55990297
P3,99,22.4653698
P3,100,19.09721596
P3,101,15.37435349
P3,102,23.53447122
P3,103,20.11111837
P3,104,18.74882573
P3,105,19.19275617
P3,106,14.52701426
P3,107,20.69844918
P3,109,17.15796029
P3,110,22.85399567
P3,111,16.00372672
P3,112,22.26648025
P3,113,17.68658126
P3,115,18.53282518
P3,116,17.94778197
P3,117,20.8690849
P3,118,19.71244997
P3,119,19.39009088
P3,120,23.09503658
P3,121,17.49040572
P3,122,21.99117432
P3,123,19.19439528
P3,124,15.90096552
P3,125,16.65061484
P3,126,17.85326572
P3,127,19.67499993
P3,128,18.44618892
P3,129,21.83233911
P3,130,21.34452058
P3,131,22.27440389
P3,132,18.71288479
P3,133,15.85037996
P3,134,21.1107398
P3,135,18.98073223
P3,136,16.83196823
P3,138,16.21207602
P3,139,21.28793047
P3,140,22.20550155
P3,141,19.94583127
P3,142,20.28661591
P3,143,17.68279893
P3,144,20.50921323
P3,145,17.52876883
P3,146,20.94595189
P3,147,21.92266715
P3,148,21.41263368
P3,150,20.91358584
P3,151,20.99938594
P3,152,17.94981636
P3,153,19.71003512
P3,154,21.01544593
P3,155,23.17410169
P3,156,19.66970909
P3,157,20.62266233
P3,158,22.20680416
P3,159,20.00383202
P3,160,18.6482291
P3,161,23.05505966
P3,162,16.77606137
P3,163,21.05175123
P3,164,23.44786421
P3,165,18.70561863
P3,166,#NUM!
P3,167,16.15371937
P3,168,20.3085852
P3,169,22.60276306
P3,170,22.20255466
P3,171,21.19132226
P3,172,22.52641375
P3,173,14.5022384
P3,174,#NUM!
P3,175,18.81596148
P3,176,18.91695773
P3,177,20.91416088
P3,178,22.58979959
P3,179,22.24098305
P3,180,20.34235175
P3,181,19.05431574
P3,182,20.94468307
P3,183,20.34972962
P3,184,17.56398166
P3,185,16.35379003
P3,186,12.42953452
P3,187,22.38244849
P3,188,19.82689014
P3,189,23.72876835
P3,190,19.42845575
P3,191,20.02875213
P3,193,20.21087511
P3,194,21.2489763
P3,195,20.7410626
P3,196,22.21241326
P3,199,20.87734972
P3,200,12.85379361
P3,201,22.12633204
P3,202,15.0138107
P3,203,18.56559156
P3,204,19.8885652
P3,205,23.24009716
P3,206,18.36870713
P3,207,19.62174083
P3,208,20.08385267
P3,209,21.21953743
P3,210,19.6588351
P3,212,21.51261444
P3,213,18.29237099
P3,214,13.42569497
P3,215,17.6771066
P3,216,20.81088661
P3,217,18.13089192
P3,218,21.9664835
P3,219,18.60430205
P3,220,20.57626724
P3,221,22.65562653
P3,222,21.33985818
P3,223,19.48267644
P3,224,18.74509512
P3,225,15.04242124
P3,226,22.67953886
P3,227,21.45544678
P3,229,16.06611396
P3,230,20.58845207
P3,231,19.51642434
P3,232,16.1214875
P3,233,22.66069315
P3,234,20.22439501
P3,235,22.68130983
P3,236,19.27728637
P3,237,18.82728418
P3,238,22.10467005
P3,239,20.01467554
P3,240,17.15190381
P3,242,20.89978825
P3,243,19.2303926
P3,244,18.7979777
P3,245,#NUM!
P3,246,19.53593364
P3,247,#NUM!
P3,248,18.17068512
P3,250,20.84866794
P3,252,#NUM!
P3,253,18.17453436
P3,254,18.90622434
P3,255,18.83120686
P3,257,19.22268461
P3,258,17.96380382
P3,259,23.08235928
P3,260,18.25893268
P3,261,18.60520471
P3,262,18.04243205
P3,263,20.83624941
P3,264,18.04066713
P3,265,17.28200549
P3,266,20.22992546
P3,268,19.69718796
P3,269,16.80809723
P3,270,17.72349935
P3,271,21.58581028
P3,272,18.63882385
P3,273,20.36611736
P3,274,16.80109062
P3,276,18.69120701
P3,277,20.75686638
P3,278,20.79186529
P3,279,17.71864204
P3,280,16.22708103
P3,281,16.89316581
P3,282,16.65378589
P3,283,18.25374882
P3,284,20.55491554
P3,285,21.80677226
P3,286,20.80896235
P3,288,16.62882753
P3,289,16.58140908
P3,290,19.66720076
P3,291,15.37173384
P3,292,17.76562173
P3,293,20.0410557
P3,294,20.34951005
P3,296,16.65309652
P3,297,20.63857269
P3,299,#NUM!
P3,300,16.5871548
P3,302,19.16993298
P3,303,19.5745311
P3,304,19.3401738
P3,305,20.36724015
P3,306,20.43827909
P3,307,14.99014362
P3,308,22.53903614
P3,309,22.61933762
P3,310,19.32609341
P3,311,22.64537171
P3,312,#NUM!
P3,313,20.39574664
P3,314,17.35839636
P3,315,18.81215617
P3,317,22.06633642
P3,318,20.18017637
P3,319,19.11245676
P3,320,15.63848235
P3,321,20.63258226
P3,322,21.93380453
P3,323,17.15798768
P3,324,21.91951232
P3,326,21.19276844
P3,327,23.13008964
P3,328,20.34762172
P3,329,18.64694297
P3,330,17.70410857
P3,331,15.11407315
P3,332,18.1607915
P3,333,#NUM!
P3,334,17.22585555
P3,336,22.54877478
P3,337,16.76440953
P3,338,22.90185548
P3,340,22.81393245
P3,341,14.95902347
P3,342,18.58935469
P3,343,16.29895613
P3,345,18.71452059
P3,346,17.92398259
P3,348,22.53093808
P3,349,21.66696613
P3,350,18.04488313
P3,351,15.17216645
P3,352,15.76875842
P3,353,13.89976917
P3,354,19.71315855
P3,355,20.40908068
P3,356,#NUM!
P3,357,13.51144596
P3,359,#NUM!
P3,360,#NUM!
P3,361,13.92249097
P3,362,15.7186442
P3,364,15.36739406
P3,365,18.85626773
P3,367,#NUM!
P3,368,17.4469585
P3,369,14.57593384
P3,370,20.05821445
P3,371,17.85933747
P3,372,#NUM!
P3,373,#NUM!
P3,377,17.76837249
P3,380,12.81265404
P3,383,#NUM!
P3,384,14.49390199
P3,385,20.02322864
P3,386,16.91215763
P3,391,#NUM!
P3,392,15.3643056
P3,393,#NUM!
P3,394,15.67871019
P3,396,#NUM!
P3,398,#NUM!
P3,399,13.49590641
P3,401,20.31720514
P3,402,18.73068803
P3,403,16.77769895
P3,405,20.22563626
P3,406,17.03850487
P3,407,22.80836767
P3,408,19.78492213
P3,409,17.73995423
P3,410,#NUM!
P3,411,21.78909063
P3,412,21.71196968
P3,413,22.0093487
P3,414,14.95266676
P3,415,22.00989816
P3,416,20.8085591
P3,417,18.54729163
P3,418,20.52380904
P3,419,18.47039943
P3,420,20.7163009
P3,421,18.51038483
P3,422,16.05497676
P3,424,#NUM!
P3,425,22.4681297
P3,426,17.72710921
P3,427,18.54401781
P3,428,16.80215588
P3,429,19.65345558
P3,430,20.61282853
P3,431,16.71449417
P3,432,19.45664294
P3,433,18.71491673
P3,434,#NUM!
P3,435,20.74077448
P3,436,18.61865931
P3,437,19.00517356
P3,439,19.17326011
P3,440,18.0882048
P3,442,23.33660037
P3,443,17.56636884
P3,444,16.84231759
P3,445,19.41643749
P3,446,21.62586552
P3,447,17.05899946
P3,448,18.12979978
P3,449,19.94322807
P3,450,20.24436708
P3,451,21.24864708
P3,452,20.21495409
P3,453,15.85219597
P3,454,18.72701747
P3,457,18.26268713
P3,459,17.99484995
P3,461,24.31402347
P3,462,18.5705208
P3,464,22.19637806
P3,465,19.35219947
P3,466,19.79420082
P3,467,19.73424011
P3,468,19.01093015
P3,470,20.62368331
P3,471,19.65889624
P3,473,19.71182821
P3,474,19.24581828
P3,477,21.50133216
P3,478,16.85403223
P3,479,22.44460473
P3,480,21.85600305
P3,481,19.87630851
P3,482,21.84293467
P3,483,#NUM!
P3,484,11.5712212
P3,485,17.75611789
P3,486,16.98117405
P3,487,14.61832788
P3,488,#NUM!
P3,490,22.90191121
P3,491,16.45597967
P3,493,19.4092469
P3,494,20.29207393
P3,495,#NUM!
P3,496,18.28367055
P3,497,15.22201928
P3,498,#NUM!
P3,500,17.30246499
P3,501,17.29948362
P3,504,21.17789345
P3,505,20.35477834
P3,506,16.3819326
P3,507,16.45349192
P3,508,19.75306914
P3,509,14.00013151
P3,511,15.57789783
P3,512,20.53341548
P3,514,16.46831614
P3,515,18.37743111
P3,516,19.19815447
P3,517,19.5424281
P3,518,16.84728463
P3,519,20.99977264
P3,521,18.71849335
P3,522,21.75306548
P3,523,22.51555664
P3,524,22.39813609
P3,525,21.97099718
P3,526,20.58161179
P3,527,17.20391415
P3,528,16.28660393
P3,529,19.65523712
P3,530,18.68096096
P3,531,19.35411775
P3,532,15.86406864
P3,533,18.21752156
P3,534,20.36761059
P3,536,18.59567563
P3,537,16.73459176
P3,538,17.15640773
P3,539,16.54141464
P3,540,17.74925615
P3,541,18.69688908
P3,542,18.63968041
P3,543,16.16454953
P3,546,22.12148413
P3,549,19.33513678
P3,550,21.0876821
P3,552,14.18433278
P3,553,16.49935104
P3,555,#NUM!
P3,557,18.69486193
P3,558,#NUM!
P3,559,#NUM!
P3,560,#NUM!
P3,563,#NUM!
P3,565,#NUM!
P3,567,#NUM!
P3,568,15.56596837
P3,569,15.95569268
P3,570,#NUM!
P3,572,#NUM!
P3,573,#NUM!
P3,575,#NUM!
P3,576,14.15666987
P3,579,#NUM!
P3,581,16.3333618
P3,586,14.06860827
P3,587,#NUM!
P3,589,#NUM!
P3,590,#NUM!
P3,591,#NUM!
P3,593,15.10600292
P3,595,#NUM!
P3,597,12.00510671
P3,598,19.20444652
P3,599,#NUM!
P3,600,12.98778882
P3,601,18.93918959
P3,602,15.07677646
P3,603,14.74762962
P3,605,16.25669007
P3,608,13.55285128
P3,609,19.54173438
P3,611,18.80865406
P3,612,#NUM!
P3,614,19.28185505
P3,615,17.08955312
P3,617,#NUM!
P3,618,15.38647041
P3,620,#NUM!
P3,621,18.76696393
P3,622,13.25076049
P3,623,16.95424101
P3,624,15.42097415
P3,627,20.32208324
P3,630,19.73911364
P3,631,#NUM!
P3,632,17.41140866
P3,633,21.7553333
P3,634,14.57690954
P3,635,19.85666501
P3,640,15.55520044
P3,641,16.47953713
P3,642,14.57160188
P3,643,19.06347854
P3,644,17.23956798
P3,645,14.64030423
P3,646,14.91472614
P3,648,19.11119204
P3,650,16.91635242
P3,651,17.10684695
P3,654,16.86847108
P3,655,20.14141197
P3,656,19.33708119
P3,657,13.90482732
P3,659,15.26030649
P3,660,17.77505617
P3,661,16.10138017
P3,662,17.91662084
P3,667,15.41455436
P3,668,18.61384665
P3,669,15.18459407
P3,671,16.4948998
P3,672,17.1300999
P3,673,19.70163062
P3,674,#NUM!
P3,675,17.24001464
P3,676,21.80799436
P3,679,15.18819843
P3,680,17.59273667
P3,682,20.00333549
P3,683,13.49960456
P3,686,16.60543647
P3,687,#NUM!
P3,688,15.71585638
P3,690,15.579786
P3,691,19.2151766
P3,692,21.90985431
P3,693,#NUM!
P3,694,13.86651865
P3,695,18.70268446
P3,697,19.06148996
P3,698,17.27997025
P3,699,17.08809399
P3,701,16.39734791
P3,702,19.1332663
P3,703,15.5657285
P3,704,15.422921
P3,705,20.91382156
P3,706,15.64058963
P3,707,19.4675128
P3,708,16.07984827
P3,711,15.98377496
P3,712,19.65310927
P3,713,15.12630247
P3,714,15.93703064
P3,715,17.13840636
P3,717,16.7868033
P3,720,19.35119129
P3,722,20.81740516
P3,723,15.17197006
P3,724,16.6135192
P3,727,21.41340505
P3,729,20.25551192
P3,731,18.48255545
P3,732,17.08194184
P3,733,#NUM!
P3,735,14.9976157
P3,738,15.04840342
P3,739,18.54765478
P3,740,18.3553569
P3,741,#NUM!
P3,742,18.22458697
P3,743,19.19719508
P3,744,15.39072044
P3,748,#NUM!
P3,749,18.33565422
P3,751,18.33826971
P3,752,13.04818864
P3,754,13.76820127
P3,755,18.61207895
P3,757,15.80343855
P3,758,15.15500333
P3,759,14.9603579
P3,760,#NUM!
P3,763,#NUM!
P3,765,15.99976002
P3,766,16.19237501
P3,768,#NUM!
P3,769,16.7256625
P3,770,16.27834917
P3,771,17.85851183
P3,772,17.39833485
P3,776,12.48695821
P3,778,#NUM!
P3,783,#NUM!
P3,784,20.77383766
P3,785,15.99782821
P3,787,11.3601642
P3,788,21.03481681
P3,789,12.02203823
P3,790,14.75116422
P3,792,#NUM!
P3,793,16.57583814
P3,796,15.24667217
P3,800,18.23191193
P3,801,16.16827601
P3,802,15.84154915
P3,803,12.99660349
P3,804,16.77199683
P3,805,20.87767238
P3,806,#NUM!
P3,807,17.31579547
P3,810,18.99007464
P3,811,19.52223937
P3,812,19.06393338
P3,813,19.50770665
P3,814,14.00255996
P3,816,15.74627366
P3,818,18.3370788
P3,822,15.29162701
P3,824,19.40117292
P3,825,17.7711198
P3,826,18.84267632
P3,828,19.71402043
P3,830,20.52233991
P3,833,17.93517311
P3,834,20.28864906
P3,835,20.97452674
P3,837,17.40533942
P3,839,16.90300804
P3,840,21.74876268
P3,841,17.26224354
P3,843,18.98227676
P3,845,16.19118127
P3,847,16.15376856
P3,849,#NUM!
P3,852,#NUM!
P3,854,#NUM!
P3,856,14.43130031
P3,857,#NUM!
P3,858,11.29026111
P3,859,12.71957447
P3,861,#NUM!
P3,862,#NUM!
P3,863,13.11453876
P3,867,14.27865472
P3,879,#NUM!
P3,881,#NUM!
P3,882,11.24836719
P3,886,#NUM!
P3,888,#NUM!
P3,890,#NUM!
P3,892,12.11108999
P3,893,#NUM!
P3,895,13.17982737
P3,897,#NUM!
P3,898,#NUM!
P3,902,16.79121281
P3,903,#NUM!
P3,904,#NUM!
P3,905,16.83207783
P3,906,18.15231455
P3,908,#NUM!
P3,909,13.81893473
P3,910,#NUM!
P3,913,17.09856413
P3,914,#NUM!
P3,916,#NUM!
P3,917,#NUM!
P3,919,#NUM!
P3,920,13.74340067
P3,922,13.19434998
P3,923,16.82254576
P3,925,#NUM!
P3,926,16.99956951
P3,927,#NUM!
P3,928,#NUM!
P3,931,#NUM!
P3,933,15.15745188
P3,935,#NUM!
P3,936,14.88365537
P3,937,12.61329376
P3,941,15.58074919
P3,942,17.32932202
P3,943,#NUM!
P3,944,13.4279793
P3,945,#NUM!
P3,946,#NUM!
P3,947,14.34636163
P3,951,20.36317965
P3,952,#NUM!
P3,953,20.28127592
P3,954,#NUM!
P3,956,#NUM!
P3,958,13.83660668
P3,959,21.45794671
P3,960,#NUM!
P3,961,#NUM!
P3,962,#NUM!
P3,964,#NUM!
P3,968,11.75272347
P3,970,#NUM!
P3,971,#NUM!
P3,972,#NUM!
P3,973,#NUM!
P3,974,11.72392345
P3,977,14.73693727
P3,978,15.40440727
P3,982,17.67830348
P3,983,#NUM!
P3,986,15.38885411
P3,987,12.93453314
P3,988,14.96240979
P3,990,#NUM!
P3,991,#NUM!
P3,992,17.27344374
P3,994,#NUM!
P3,995,14.97441277
P3,997,#NUM!
P3,998,17.39233974
P3,999,#NUM!
P3,1000,13.1909177
P4,1,19.81772658
P4,2,22.06524133
P4,3,20.59523224
P4,4,23.52443618
P4,5,21.90184623
P4,6,18.86881358
P4,7,18.44208974
P4,8,19.99443826
P4,9,16.58566093
P4,10,20.15415413
P4,11,#NUM!
P4,12,17.69410741
P4,13,23.05375989
P4,14,18.95993105
P4,15,20.81624558
P4,17,22.55605937
P4,18,22.36567936
P4,20,20.37973609
P4,22,18.96507406
P4,23,19.65733579
P4,24,20.36044511
P4,25,18.34228295
P4,26,19.48596222
P4,27,19.84880242
P4,28,20.61595858
P4,30,16.95014769
P4,32,19.45579778
P4,33,19.57664376
P4,34,21.02475439
P4,35,22.03523259
P4,36,15.01884813
P4,37,18.66047219
P4,38,14.33509304
P4,39,22.69727622
P4,40,21.38913785
P4,41,19.11670366
P4,42,20.47300152
P4,43,19.23489572
P4,44,20.33734837
P4,45,21.56563064
P4,46,19.0955534
P4,48,20.03089458
P4,50,16.83890228
P4,51,21.43194132
P4,52,18.4874431
P4,53,20.49519142
P4,54,18.56804027
P4,55,16.89210087
P4,56,17.36496273
P4,57,17.82815213
P4,58,20.98917814
P4,59,16.83487446
P4,60,18.01052331
P4,63,18.74814945
P4,64,20.93839028
P4,66,20.34414008
P4,67,17.2771953
P4,68,19.00998047
P4,69,17.05789201
P4,70,20.0233666
P4,71,22.34114657
P4,72,17.57070884
P4,73,19.7467886
P4,75,19.42896795
P4,76,17.50562759
P4,77,23.22486207
P4,78,20.09584539
P4,79,20.32323648
P4,81,19.43339909
P4,82,17.78385524
P4,83,18.63617844
P4,84,19.45169862
P4,85,20.7115996
P4,86,16.33013819
P4,87,23.15074632
P4,88,20.53758644
P4,89,17.3726441
P4,90,19.2321122
P4,91,16.85054303
P4,92,16.82385586
P4,93,21.76146229
P4,94,17.81251586
P4,95,17.12277622
P4,96,20.03022707
P4,97,17.39705344
P4,98,20.73092229
P4,99,21.09716735
P4,100,15.40273657
P4,101,16.35175136
P4,102,20.52396665
P4,103,21.72161567
P4,104,18.42227753
P4,105,21.04912291
P4,106,16.073749
P4,107,18.22874184
P4,109,16.34124132
P4,110,21.01870748
P4,111,15.64753294
P4,112,19.13093542
P4,113,16.62469105
P4,115,18.91042622
P4,116,16.96494532
P4,117,21.24156829
P4,118,19.75026463
P4,119,18.91983356
P4,120,19.91860396
P4,121,19.16167879
P4,122,20.55805157
P4,123,18.35480298
P4,124,17.36814319
P4,125,17.76032192
P4,126,15.42000051
P4,127,19.44713969
P4,128,15.04685204
P4,129,19.01347616
P4,130,22.06616831
P4,131,19.6109647
P4,132,19.00486391
P4,133,18.45347864
P4,134,23.33081339
P4,135,17.6261413
P4,136,19.83458173
P4,138,17.87384479
P4,139,19.40516043
P4,140,20.45261591
P4,141,19.60150616
P4,142,20.37476976
P4,143,16.97993572
P4,144,18.44601353
P4,145,#NUM!
P4,146,21.00489956
P4,147,19.25410715
P4,148,19.34000491
P4,150,17.81696941
P4,151,20.77882176
P4,152,18.99110943
P4,153,18.00544342
P4,154,19.27967642
P4,155,22.03197591
P4,156,17.80118466
P4,157,19.22612009
P4,158,22.47292577
P4,159,17.87108813
P4,160,16.3590183
P4,161,19.21183188
P4,162,15.69390394
P4,163,18.00533619
P4,164,20.55822041
P4,165,16.17665316
P4,166,15.70877842
P4,167,14.19004148
P4,168,16.81996089
P4,169,19.50618238
P4,170,19.2659024
P4,171,19.97738986
P4,172,21.46935076
P4,173,16.72710786
P4,174,#NUM!
P4,175,19.31085755
P4,176,19.79487304
P4,177,21.92859854
P4,178,22.1088942
P4,179,18.44342774
P4,180,18.43029647
P4,181,21.7359551
P4,182,17.45577545
P4,183,16.71335508
P4,184,20.60414969
P4,185,16.22679787
P4,186,16.94361415
P4,187,20.66268019
P4,188,18.20382121
P4,189,20.91278636
P4,190,20.91201632
P4,191,19.2554349
P4,193,21.17822389
P4,194,22.05795543
P4,195,20.568576
P4,196,19.41011981
P4,199,20.95133077
P4,200,13.41016383
P4,201,21.73499646
P4,202,17.49322984
P4,203,16.88409279
P4,204,18.82371991
P4,205,22.77590191
P4,206,20.30870413
P4,207,19.97704326
P4,208,18.74637117
P4,209,19.52481736
P4,210,19.33946557
P4,212,19.29445862
P4,213,18.51616588
P4,214,19.7912782
P4,215,19.00821026
P4,216,19.4550851
P4,217,17.31876205
P4,218,19.37988624
P4,219,18.88776358
P4,220,18.39476052
P4,221,21.24278323
P4,222,18.19410201
P4,223,18.83027235
P4,224,17.51414932
P4,225,16.3433825
P4,226,21.17013737
P4,227,22.41791033
P4,229,16.86762352
P4,230,19.79455098
P4,231,19.9650036
P4,232,16.4563675
P4,233,20.57342004
P4,234,19.72423088
P4,235,19.24666715
P4,236,18.87507778
P4,237,17.8837657
P4,238,20.65066691
P4,239,15.8956142
P4,240,19.9156954
P4,242,20.30015152
P4,243,16.68039622
P4,244,18.01524434
P4,245,18.86340425
P4,246,21.65112097
P4,247,18.25759922
P4,248,17.23491245
P4,250,19.4938214
P4,252,#NUM!
P4,253,20.22327953
P4,254,22.61438832
P4,255,19.99047876
P4,257,19.48325685
P4,258,17.61111661
P4,259,21.26285818
P4,260,15.62249823
P4,261,19.80185448
P4,262,14.55915089
P4,263,19.15337216
P4,264,19.61475952
P4,265,18.40452455
P4,266,19.07957684
P4,268,20.13490771
P4,269,17.87430563
P4,270,16.12222273
P4,271,21.24876456
P4,272,17.02834777
P4,273,20.15548205
P4,274,17.31203633
P4,276,18.66346234
P4,277,22.15976534
P4,278,19.20409511
P4,279,20.10458762
P4,280,16.91940591
P4,281,16.51130221
P4,282,17.94695515
P4,283,20.89774699
P4,284,19.86361123
P4,285,18.53376168
P4,286,20.87904584
P4,288,18.69189126
P4,289,18.54802296
P4,290,18.26467937
P4,291,#NUM!
P4,292,19.37618585
P4,293,19.9477603
P4,294,19.60208067
P4,296,18.4228914
P4,297,18.62784621
P4,299,14.24451845
P4,300,15.26507473
P4,302,20.59190407
P4,303,19.39140091
P4,304,18.26565369
P4,305,20.80225653
P4,306,19.55869811
P4,307,18.28198054
P4,308,19.32122775
P4,309,22.4945006
P4,310,16.4912125
P4,311,20.44963173
P4,312,#NUM!
P4,313,19.940882
P4,314,17.0649626
P4,315,18.86227452
P4,317,18.88319883
P4,318,19.7446261
P4,319,18.60341997
P4,320,17.85388292
P4,321,18.34705405
P4,322,21.29569114
P4,323,19.14058903
P4,324,19.58352424
P4,326,20.38758592
P4,327,21.2949041
P4,328,18.24084701
P4,329,18.99866651
P4,330,18.16304368
P4,331,17.39542268
P4,332,17.78142755
P4,333,#NUM!
P4,334,19.62679493
P4,336,20.24549311
P4,337,19.02982784
P4,338,20.10632226
P4,340,22.82726174
P4,341,17.14405336
P4,342,18.85820103
P4,343,17.30490897
P4,345,15.91315128
P4,346,19.22730091
P4,348,20.64986075
P4,349,20.5269628
P4,350,16.76324239
P4,351,16.94290306
P4,352,16.00235151
P4,353,16.35098086
P4,354,20.26197169
P4,355,17.5040804
P4,356,15.83258855
P4,357,20.35821653
P4,359,21.55960778
P4,360,#NUM!
P4,361,20.14292043
P4,362,18.29700813
P4,363,#NUM!
P4,364,19.60507993
P4,365,21.84037797
P4,366,17.67208932
P4,367,20.97645393
P4,368,21.74298201
P4,369,20.13220769
P4,370,22.12906125
P4,371,21.69766428
P4,372,#NUM!
P4,373,18.47204253
P4,374,16.64972838
P4,375,17.22228728
P4,376,17.76905276
P4,377,21.76075024
P4,378,17.37569305
P4,379,#NUM!
P4,380,#NUM!
P4,381,16.8660052
P4,382,#NUM!
P4,383,17.76293326
P4,384,19.35609914
P4,385,19.70305477
P4,386,21.10192139
P4,387,15.86084497
P4,388,15.33357417
P4,389,15.78872611
P4,391,18.49289991
P4,392,19.84781268
P4,393,22.3285437
P4,394,19.19530916
P4,395,17.43146875
P4,396,18.4559813
P4,397,#NUM!
P4,398,18.09859842
P4,399,22.45458757
P4,400,14.74096702
P4,401,20.47219812
P4,402,18.70399683
P4,403,16.43210882
P4,405,21.63073235
P4,406,15.72766119
P4,407,19.62044234
P4,408,19.20719863
P4,409,18.6763642
P4,410,17.24565248
P4,411,23.94694493
P4,412,18.50848192
P4,413,22.18166552
P4,414,#NUM!
P4,415,20.02144869
P4,416,19.88242868
P4,417,20.22640913
P4,418,20.71337561
P4,419,18.49075742
P4,420,20.25565409
P4,421,18.99602195
P4,422,14.9948605
P4,424,#NUM!
P4,425,21.74235451
P4,426,18.75345487
P4,427,17.93858604
P4,428,23.50545962
P4,429,20.07148692
P4,430,16.82272863
P4,431,18.28069262
P4,432,21.31007517
P4,433,18.38976003
P4,434,14.7514103
P4,435,20.66036746
P4,436,19.99683963
P4,437,20.02177136
P4,439,19.23489196
P4,440,16.09064047
P4,442,22.45615161
P4,443,18.45272669
P4,444,#NUM!
P4,445,17.62969578
P4,446,20.12943174
P4,447,17.4940216
P4,448,18.80923381
P4,449,18.67940235
P4,450,20.6325106
P4,451,19.4376562
P4,452,19.18498607
P4,453,17.44430991
P4,454,18.90329783
P4,457,17.98305925
P4,459,18.98772858
P4,461,21.80888949
P4,462,18.5791625
P4,464,21.62169309
P4,465,17.17999616
P4,466,19.35245193
P4,467,18.19305885
P4,468,18.05013965
P4,470,18.85740167
P4,471,20.94161993
P4,473,19.46035531
P4,474,23.6931872
P4,477,20.20852351
P4,478,17.78121887
P4,479,19.78068541
P4,480,20.98763407
P4,481,20.84642846
P4,482,18.9077569
P4,483,#NUM!
P4,484,#NUM!
P4,485,18.33811955
P4,486,16.94557661
P4,487,#NUM!
P4,488,#NUM!
P4,490,21.60650464
P4,491,18.53961252
P4,493,18.15736056
P4,494,18.42163027
P4,495,17.66160951
P4,496,16.07338417
P4,497,#NUM!
P4,498,17.94594389
P4,500,18.25097628
P4,501,20.06495464
P4,504,17.29013688
P4,505,21.07939176
P4,506,12.31552735
P4,507,16.86242789
P4,508,19.33488859
P4,509,17.89842098
P4,511,#NUM!
P4,512,19.91223917
P4,514,19.55595567
P4,515,16.09899029
P4,516,18.65039361
P4,517,18.58321002
P4,518,16.97488243
P4,519,19.6838775
P4,521,17.87043661
P4,522,20.59415988
P4,523,22.01030084
P4,524,20.79055798
P4,525,21.9635617
P4,526,20.89222491
P4,527,16.22981357
P4,528,15.56608866
P4,529,17.50708704
P4,530,18.88880745
P4,531,22.41533275
P4,532,17.76961679
P4,533,15.89277774
P4,534,18.58317594
P4,536,19.26414566
P4,537,17.24556292
P4,538,16.6083237
P4,539,#NUM!
P4,540,20.53127389
P4,541,16.49351293
P4,542,16.79698654
P4,543,15.49077435
P4,546,18.60897103
P4,549,18.03672601
P4,550,21.72871087
P4,552,21.82850215
P4,553,17.79234374
P4,555,17.93299382
P4,557,20.64430328
P4,558,17.99475887
P4,559,16.51333676
P4,560,19.8100779
P4,563,15.60091026
P4,564,17.67813566
P4,565,16.74515043
P4,566,18.82744766
P4,567,20.17160679
P4,568,21.68800497
P4,569,20.33897305
P4,570,19.76105545
P4,572,20.30860273
P4,573,16.91914131
P4,575,20.41548111
P4,576,19.64668668
P4,578,16.20613401
P4,579,18.84082237
P4,581,20.93527651
P4,583,15.09581182
P4,584,#NUM!
P4,586,#NUM!
P4,587,20.5982498
P4,589,19.79745102
P4,590,16.73972985
P4,591,17.10948629
P4,593,21.63358363
P4,595,16.23115992
P4,596,#NUM!
P4,597,17.23172294
P4,598,20.67373714
P4,599,16.84137589
P4,600,20.26259155
P4,601,18.54567798
P4,602,14.40276526
P4,603,15.5282694
P4,605,17.93661747
P4,608,14.32683941
P4,609,20.07813232
P4,611,16.03958133
P4,612,16.42390451
P4,614,19.57925877
P4,615,#NUM!
P4,617,#NUM!
P4,618,16.8608213
P4,620,#NUM!
P4,621,18.40609605
P4,622,15.51403086
P4,623,16.52526951
P4,624,16.5059418
P4,627,20.9064639
P4,630,18.79452406
P4,631,13.00893036
P4,632,#NUM!
P4,633,17.8793106
P4,634,15.12213511
P4,635,20.67959502
P4,640,16.83751559
P4,641,18.15211404
P4,642,16.23721318
P4,643,19.51399166
P4,644,#NUM!
P4,645,14.3126501
P4,646,17.09188342
P4,648,19.38317869
P4,650,16.22903177
P4,651,18.23994106
P4,654,#NUM!
P4,655,21.34682549
P4,656,18.70508511
P4,657,#NUM!
P4,659,13.56696416
P4,660,17.14569999
P4,661,16.63573053
P4,662,17.32876655
P4,667,17.15297644
P4,668,16.95035071
P4,669,17.22966914
P4,671,#NUM!
P4,672,15.30313139
P4,673,18.47357144
P4,674,#NUM!
P4,675,15.47490006
P4,676,18.75891898
P4,679,15.48000659
P4,680,18.1754708
P4,682,18.75983874
P4,683,15.61033915
P4,686,17.18014557
P4,687,#NUM!
P4,688,16.11815637
P4,690,16.65540704
P4,691,18.81818984
P4,692,18.4795258
P4,693,15.61390316
P4,694,14.46091046
P4,695,18.34602424
P4,697,15.85011265
P4,698,18.05738318
P4,699,16.59515278
P4,701,15.14272181
P4,702,17.19754942
P4,703,16.63958818
P4,704,#NUM!
P4,705,18.58491417
P4,706,13.45451677
P4,707,18.02251108
P4,708,#NUM!
P4,711,14.25550165
P4,712,19.09337226
P4,713,14.49852657
P4,714,13.69368771
P4,715,15.63088464
P4,717,15.87067768
P4,720,18.87421324
P4,722,18.59309849
P4,723,14.65506464
P4,724,17.60020699
P4,727,19.22104288
P4,729,19.3850167
P4,731,17.03597346
P4,732,18.31363793
P4,733,14.63496412
P4,735,12.53251552
P4,738,15.729262
P4,739,16.64351942
P4,740,16.25228002
P4,741,#NUM!
P4,742,19.75318729
P4,743,17.85300838
P4,744,15.2581879
P4,748,#NUM!
P4,749,17.00401432
P4,751,17.81184328
P4,752,16.43774806
P4,754,17.08863451
P4,755,17.08135729
P4,757,15.50457688
P4,758,15.10882392
P4,759,15.39214259
P4,760,15.5745105
P4,763,13.51783236
P4,765,#NUM!
P4,766,16.59837053
P4,768,18.110367
P4,769,14.12539903
P4,770,17.78429348
P4,771,18.88193001
P4,772,#NUM!
P4,775,15.42483584
P4,776,15.52983356
P4,778,15.02895897
P4,780,#NUM!
P4,783,#NUM!
P4,784,19.84713788
P4,785,15.65458182
P4,787,#NUM!
P4,788,21.40023677
P4,789,#NUM!
P4,790,16.88004
P4,792,#NUM!
P4,793,18.1084343
P4,796,#NUM!
P4,800,20.87060479
P4,801,#NUM!
P4,802,17.13467364
P4,803,15.3863295
P4,804,14.23774689
P4,805,18.68342209
P4,806,14.39356268
P4,807,15.99515255
P4,810,17.64154827
P4,811,16.9258724
P4,812,19.06221105
P4,813,15.51435627
P4,814,13.67617077
P4,816,13.75055666
P4,818,19.03011792
P4,822,15.2493421
P4,824,17.87678763
P4,825,19.05647957
P4,826,18.83890095
P4,828,18.9592478
P4,830,19.11479142
P4,833,16.30905506
P4,834,19.73138601
P4,835,19.91504678
P4,837,14.9844942
P4,839,15.85801953
P4,840,17.57992526
P4,841,18.68717515
P4,843,16.07034939
P4,845,19.25429685
P4,847,16.338556
P4,849,#NUM!
P4,852,17.32038238
P4,854,#NUM!
P4,856,17.72495353
P4,857,#NUM!
P4,858,#NUM!
P4,859,#NUM!
P4,860,#NUM!
P4,861,#NUM!
P4,862,17.08349071
P4,863,#NUM!
P4,867,16.91863685
P4,879,#NUM!
P4,881,#NUM!
P4,882,16.54704377
P4,886,15.71598128
P4,888,#NUM!
P4,890,17.53821699
P4,892,17.30930071
P4,893,#NUM!
P4,895,15.717981
P4,897,#NUM!
P4,898,14.28387848
P4,902,#NUM!
P4,903,#NUM!
P4,904,#NUM!
P4,905,14.28185087
P4,906,14.95615412
P4,908,#NUM!
P4,909,11.83467886
P4,910,#NUM!
P4,913,#NUM!
P4,914,14.55947725
P4,916,#NUM!
P4,917,15.11492197
P4,919,#NUM!
P4,920,#NUM!
P4,922,14.75123593
P4,923,14.60556552
P4,925,#NUM!
P4,926,15.5832471
P4,927,#NUM!
P4,928,#NUM!
P4,931,#NUM!
P4,933,#NUM!
P4,935,#NUM!
P4,936,15.44078726
P4,937,12.29559835
P4,941,15.89155519
P4,942,15.9316376
P4,943,#NUM!
P4,944,16.71934964
P4,945,#NUM!
P4,946,#NUM!
P4,947,14.66481001
P4,951,18.2562429
P4,952,#NUM!
P4,953,17.73281704
P4,954,#NUM!
P4,956,#NUM!
P4,958,15.19803225
P4,959,18.76691527
P4,960,#NUM!
P4,961,#NUM!
P4,962,#NUM!
P4,964,#NUM!
P4,968,14.49512183
P4,970,#NUM!
P4,971,#NUM!
P4,972,15.19340727
P4,973,#NUM!
P4,974,14.00265533
P4,977,16.11227571
P4,978,15.99192924
P4,982,18.57392541
P4,983,15.77000991
P4,986,15.74293328
P4,987,#NUM!
P4,988,14.87834981
P4,990,#NUM!
P4,991,#NUM!
P4,992,16.4744902
P4,994,#NUM!
P4,995,17.80161494
P4,997,#NUM!
P4,998,#NUM!
P4,999,#NUM!
P4,1000,#NUM!
P5,1,19.54757325
P5,2,16.22182348
P5,3,17.0648617
P5,4,20.82297059
P5,5,17.72974108
P5,6,17.65621489
P5,7,14.91759008
P5,8,18.31263307
P5,9,19.36930055
P5,10,17.40899744
P5,11,#NUM!
P5,12,18.83083371
P5,13,22.86082781
P5,14,15.53528319
P5,15,21.19206275
P5,17,22.78596102
P5,18,18.10923214
P5,20,16.73515111
P5,22,18.6372711
P5,23,18.61296133
P5,24,19.48620051
P5,25,14.26161927
P5,26,21.1469035
P5,27,19.93190214
P5,28,16.48651482
P5,30,16.83045079
P5,32,19.15995213
P5,33,20.65005131
P5,34,22.08923071
P5,35,18.21476091
P5,36,21.00224888
P5,37,19.65098049
P5,38,15.96184879
P5,39,21.39490924
P5,40,21.43568003
P5,41,18.70357027
P5,42,17.92804666
P5,43,19.79082421
P5,44,19.26411529
P5,45,23.9124104
P5,46,#NUM!
P5,48,21.88383413
P5,50,16.95543911
P5,51,22.67197976
P5,52,19.2985432
P5,53,21.73164024
P5,54,18.55104851
P5,55,17.72327267
P5,56,15.11251208
P5,57,16.50605934
P5,58,20.17901336
P5,59,17.34675681
P5,60,16.66386755
P5,63,18.41996875
P5,64,21.93624507
P5,66,21.62107657
P5,67,16.93571738
P5,68,21.5610095
P5,69,18.10686339
P5,70,19.43082436
P5,71,22.62278926
P5,72,20.55887629
P5,73,19.55472643
P5,75,20.36312529
P5,76,21.92792556
P5,77,21.83676851
P5,78,15.16817748
P5,79,16.36248979
P5,81,12.12216716
P5,82,15.88366957
P5,83,#NUM!
P5,84,11.88493705
P5,85,#NUM!
P5,87,#NUM!
P5,88,12.90803249
P5,89,14.33296499
P5,90,15.85226994
P5,91,12.74817541
P5,92,#NUM!
P5,93,15.85371907
P5,94,11.49837001
P5,95,10.59386154
P5,96,11.76191505
P5,97,14.34077443
P5,98,#NUM!
P5,99,11.775332
P5,100,10.16141525
P5,101,16.17929194
P5,102,21.04817374
P5,103,22.04938669
P5,104,20.80455445
P5,105,22.3261729
P5,106,15.85241004
P5,107,18.60091816
P5,109,16.26921967
P5,110,21.20589821
P5,111,16.68423542
P5,112,21.20756333
P5,113,18.20210552
P5,115,20.07986138
P5,116,16.00334949
P5,117,22.20059198
P5,118,19.65628529
P5,119,18.51880077
P5,120,21.03975185
P5,121,19.37292632
P5,122,20.27323103
P5,123,19.85801858
P5,124,16.4682364
P5,125,18.2604885
P5,126,17.11028926
P5,127,19.86695408
P5,128,17.23590667
P5,129,21.0416054
P5,130,21.8026853
P5,131,19.67351569
P5,132,19.01146082
P5,133,15.79501569
P5,134,22.4270444
P5,135,17.29091571
P5,136,17.54484078
P5,138,17.20265483
P5,139,19.71082282
P5,140,20.51721739
P5,141,16.71848398
P5,142,21.14060009
P5,143,19.34656578
P5,144,20.41862636
P5,145,15.98230678
P5,146,19.77863807
P5,147,21.90814656
P5,148,19.9867489
P5,150,18.1629178
P5,151,21.23399833
P5,152,17.53389588
P5,153,14.31572591
P5,154,20.44994126
P5,155,20.60721478
P5,156,20.61181385
P5,157,19.79849166
P5,158,19.39206576
P5,159,17.26879907
P5,160,16.31224034
P5,161,21.35303131
P5,162,18.19811289
P5,163,17.96022221
P5,164,21.55728816
P5,165,14.39221232
P5,166,14.81247441
P5,167,#NUM!
P5,168,17.15904032
P5,169,17.27669625
P5,170,19.24107325
P5,171,19.03866287
P5,172,19.96006956
P5,173,16.09762768
P5,174,#NUM!
P5,175,16.65324335
P5,176,19.37012177
P5,177,18.82401451
P5,178,21.52624731
P5,179,18.41042527
P5,180,16.33471615
P5,181,18.88073329
P5,182,17.48848291
P5,183,16.77427448
P5,184,19.10167844
P5,185,18.59914823
P5,186,17.6467798
P5,187,16.82201957
P5,188,18.92261557
P5,189,21.33021238
P5,190,18.61035221
P5,191,18.6108457
P5,193,18.53271478
P5,194,20.61872674
P5,195,18.89972641
P5,196,21.05430433
P5,199,19.10249964
P5,200,16.63011648
P5,201,20.69216133
P5,202,18.03251831
P5,203,#NUM!
P5,204,19.16680302
P5,205,21.68425851
P5,206,19.37069648
P5,207,21.96560465
P5,208,18.22543932
P5,209,20.68002467
P5,210,17.67594068
P5,212,20.28759255
P5,213,14.33131443
P5,214,17.45488289
P5,215,#NUM!
P5,216,15.82189514
P5,217,16.41776776
P5,218,19.78843855
P5,219,20.3942706
P5,220,18.32111747
P5,221,21.75429117
P5,222,18.35500052
P5,223,18.03050608
P5,224,18.97922512
P5,225,14.77004807
P5,226,22.53551824
P5,227,19.80734811
P5,229,16.22914087
P5,230,20.15044831
P5,231,15.07549714
P5,232,13.59532868
P5,233,21.01779929
P5,234,20.96380204
P5,235,18.13807876
P5,236,18.72031444
P5,237,18.20581125
P5,238,19.16924677
P5,239,16.31808845
P5,240,16.99133513
P5,242,18.96176438
P5,243,20.00049284
P5,244,18.00589501
P5,245,16.16432708
P5,246,19.34835552
P5,247,#NUM!
P5,248,17.3470081
P5,250,19.41620175
P5,252,#NUM!
P5,253,20.07879276
P5,254,20.57150464
P5,255,21.69078225
P5,257,19.00363624
P5,258,18.54513168
P5,259,19.92917285
P5,260,16.38520822
P5,261,20.08660866
P5,262,13.46409987
P5,263,17.43440069
P5,264,18.25724972
P5,265,17.05111269
P5,266,17.78238068
P5,268,17.78082503
P5,269,15.65689446
P5,270,16.47670125
P5,271,18.50585527
P5,272,12.19395176
P5,273,22.1873123
P5,274,17.27533424
P5,276,15.70371509
P5,277,20.01442988
P5,278,20.55871505
P5,279,18.35894078
P5,280,15.18282236
P5,281,13.43053945
P5,282,15.37667193
P5,283,18.58496701
P5,284,17.38023659
P5,285,22.71666758
P5,286,20.71531839
P5,288,16.12177345
P5,289,17.0994643
P5,290,19.05060565
P5,291,#NUM!
P5,292,16.94984259
P5,293,18.32229665
P5,294,17.68516007
P5,296,16.44512354
P5,297,19.84219831
P5,299,#NUM!
P5,300,16.08123973
P5,302,18.73877817
P5,303,16.20327271
P5,304,16.82526169
P5,305,21.27782382
P5,306,20.98703494
P5,307,15.26080964
P5,308,17.69621219
P5,309,20.38423894
P5,310,18.62404529
P5,311,20.30665152
P5,312,18.63375706
P5,313,17.84932004
P5,314,18.59877765
P5,315,#NUM!
P5,317,19.59274021
P5,318,18.5454648
P5,319,17.36657048
P5,320,#NUM!
P5,321,16.47793377
P5,322,18.26886562
P5,323,16.24840759
P5,324,20.31274447
P5,326,#NUM!
P5,327,22.28912777
P5,328,17.7091426
P5,329,16.61606659
P5,330,#NUM!
P5,331,17.30790301
P5,332,17.85455529
P5,333,#NUM!
P5,334,#NUM!
P5,336,19.40819865
P5,337,#NUM!
P5,338,19.61979241
P5,340,19.48229699
P5,341,14.27224376
P5,342,17.69610287
P5,343,16.46518258
P5,345,14.80873095
P5,346,#NUM!
P5,348,20.04365631
P5,349,19.41074398
P5,350,17.39116966
P5,351,15.11784137
P5,352,13.44084838
P5,353,15.81435568
P5,354,15.38304512
P5,355,18.0803425
P5,356,14.90805522
P5,357,18.3428619
P5,359,21.02785725
P5,360,15.59454631
P5,361,19.16739997
P5,362,18.06723827
P5,363,16.1975153
P5,364,18.81999895
P5,365,18.21944373
P5,366,16.36100558
P5,367,17.93924994
P5,368,18.23898149
P5,369,20.14390854
P5,370,19.34232643
P5,371,23.54474197
P5,372,#NUM!
P5,373,20.45912409
P5,374,18.51234595
P5,375,15.26316935
P5,376,18.28341519
P5,377,22.09547968
P5,378,#NUM!
P5,379,#NUM!
P5,380,#NUM!
P5,381,15.1920079
P5,382,12.42143054
P5,383,17.56435942
P5,384,18.23660257
P5,385,18.78308665
P5,386,19.38259349
P5,387,#NUM!
P5,388,#NUM!
P5,389,#NUM!
P5,391,18.22620398
P5,392,17.76246197
P5,393,18.73377381
P5,394,18.95688452
P5,395,17.07352527
P5,396,18.08047047
P5,397,16.57612465
P5,398,17.24597351
P5,399,21.16985864
P5,400,#NUM!
P5,401,18.35248291
P5,402,17.70707794
P5,403,16.68174146
P5,405,18.86033581
P5,406,17.65858186
P5,407,17.79662826
P5,408,19.56933182
P5,409,18.88776337
P5,410,17.68769514
P5,411,20.91045757
P5,412,20.1626978
P5,413,20.96649808
P5,414,15.46238681
P5,415,20.8450951
P5,416,19.3540209
P5,417,19.75345601
P5,418,18.89945977
P5,419,16.01151505
P5,420,19.57041129
P5,421,16.34080757
P5,422,16.2189463
P5,424,#NUM!
P5,425,19.83680148
P5,426,16.50246396
P5,427,17.96044232
P5,428,19.85780501
P5,429,19.38091725
P5,430,16.12814038
P5,431,17.58776831
P5,432,19.18061216
P5,433,17.61993836
P5,434,#NUM!
P5,435,20.77683775
P5,436,16.41567221
P5,437,#NUM!
P5,439,17.36780871
P5,440,#NUM!
P5,442,19.40384029
P5,443,15.29036495
P5,444,14.34022998
P5,445,#NUM!
P5,446,18.66590905
P5,447,14.89102642
P5,448,15.91934575
P5,449,#NUM!
P5,450,18.97089868
P5,451,17.7834566
P5,452,17.65847978
P5,453,#NUM!
P5,454,17.55704659
P5,457,18.8677418
P5,459,14.84515271
P5,461,19.40755606
P5,462,16.61643392
P5,464,20.32527248
P5,465,15.39111639
P5,466,19.93761822
P5,467,16.24081651
P5,468,18.0798989
P5,470,18.1775013
P5,471,20.81085961
P5,473,18.41498676
P5,474,20.19188515
P5,477,18.86651325
P5,478,17.29919776
P5,479,19.75967932
P5,480,19.43090081
P5,481,21.135642
P5,482,21.70284326
P5,483,#NUM!
P5,484,16.72593193
P5,485,18.30086605
P5,486,17.89313126
P5,487,#NUM!
P5,488,#NUM!
P5,490,22.94588314
P5,491,15.24698792
P5,493,17.94378949
P5,494,18.70645145
P5,495,15.81412633
P5,496,14.33821203
P5,497,16.06647172
P5,498,19.36111791
P5,500,16.091453
P5,501,17.99632318
P5,504,16.56680676
P5,505,19.12443813
P5,506,13.0054231
P5,507,15.55920919
P5,508,17.1749586
P5,509,14.34149577
P5,511,17.28432133
P5,512,18.08029495
P5,514,18.34273997
P5,515,18.92422263
P5,516,19.16789991
P5,517,19.43285686
P5,518,15.75124873
P5,519,19.0951463
P5,521,17.65391987
P5,522,17.53858897
P5,523,20.00611202
P5,524,#NUM!
P5,525,21.82263167
P5,526,19.90693452
P5,527,#NUM!
P5,528,14.87927699
P5,529,19.79184251
P5,530,15.69378321
P5,531,17.24848821
P5,532,17.27085601
P5,533,15.56586528
P5,534,14.73333718
P5,536,18.71526772
P5,537,18.09020219
P5,538,15.88626801
P5,539,15.39568566
P5,540,17.28511901
P5,541,17.96791523
P5,542,14.85268366
P5,543,14.18695777
P5,546,18.25152707
P5,549,17.69263103
P5,550,19.99696256
P5,552,20.97195605
P5,553,17.77367851
P5,555,18.0391694
P5,557,20.88960034
P5,558,18.38969734
P5,559,14.81990875
P5,560,20.43942212
P5,563,16.33232067
P5,564,18.57181527
P5,565,16.01435422
P5,566,17.85266495
P5,567,17.69910871
P5,568,18.36994801
P5,569,20.70226789
P5,570,18.15488836
P5,572,20.42480027
P5,573,17.11486608
P5,575,19.46571571
P5,576,17.72626255
P5,578,15.41563805
P5,579,18.86841982
P5,581,18.87830508
P5,583,15.16755243
P5,584,#NUM!
P5,586,16.15092057
P5,587,19.16196212
P5,589,16.895167
P5,590,20.03576822
P5,591,17.13329929
P5,593,22.28890703
P5,595,#NUM!
P5,596,13.01371361
P5,597,17.59410854
P5,598,19.95819147
P5,599,15.10611453
P5,600,16.74424757
P5,601,18.14830362
P5,602,12.7012957
P5,603,16.71955247
P5,605,18.61625083
P5,608,15.45623624
P5,609,19.2172419
P5,611,16.62285363
P5,612,15.0266915
P5,614,18.36601152
P5,615,#NUM!
P5,617,14.4992951
P5,618,15.69664731
P5,620,#NUM!
P5,621,16.1424944
P5,622,#NUM!
P5,623,13.13436117
P5,624,16.16531706
P5,627,18.75864312
P5,630,15.73841215
P5,631,#NUM!
P5,632,#NUM!
P5,633,16.93450772
P5,634,15.2164999
P5,635,16.74375608
P5,640,15.62905828
P5,641,13.38945456
P5,642,16.12891993
P5,643,18.29440361
P5,644,16.63036907
P5,645,13.6998185
P5,646,15.95685187
P5,648,17.65097896
P5,650,15.85756761
P5,651,17.12544533
P5,654,15.87288831
P5,655,17.83897923
P5,656,14.08087527
P5,657,13.67949649
P5,659,#NUM!
P5,660,15.69745587
P5,661,17.01036307
P5,662,19.47760214
P5,667,16.54509051
P5,668,15.03375012
P5,669,16.68669696
P5,671,15.0980018
P5,672,15.65757407
P5,673,16.56573742
P5,674,#NUM!
P5,675,14.9473442
P5,676,19.32643398
P5,679,#NUM!
P5,680,17.75509588
P5,682,16.93375066
P5,683,16.27376494
P5,686,15.56569809
P5,687,#NUM!
P5,688,15.35448451
P5,690,18.27010247
P5,691,#NUM!
P5,692,18.76039384
P5,693,13.87673469
P5,694,#NUM!
P5,695,17.97797505
P5,697,16.08554143
P5,698,16.22770816
P5,699,17.2067522
P5,701,16.32085006
P5,702,17.02590145
P5,703,14.42966401
P5,704,11.89753005
P5,705,19.98102644
P5,706,15.01515767
P5,707,18.93759727
P5,708,14.5061191
P5,711,#NUM!
P5,712,14.12896096
P5,713,14.08445811
P5,714,11.77299466
P5,715,#NUM!
P5,717,13.2849801
P5,720,19.08960918
P5,722,17.11317018
P5,723,14.78801123
P5,724,15.53655811
P5,727,18.26182004
P5,729,19.34760293
P5,731,17.43119564
P5,732,16.73445495
P5,733,16.67038432
P5,735,#NUM!
P5,738,12.6042233
P5,739,13.4035303
P5,740,15.96306474
P5,741,#NUM!
P5,742,#NUM!
P5,743,16.94272779
P5,744,15.81946405
P5,748,13.69874311
P5,749,16.66703327
P5,751,19.2394792
P5,752,16.29814952
P5,754,15.67050306
P5,755,21.39846443
P5,757,15.14334703
P5,758,14.99181173
P5,759,14.08089021
P5,760,15.45293935
P5,763,13.584496
P5,765,14.04032346
P5,766,15.10724229
P5,768,13.98691841
P5,769,15.292228
P5,770,13.97993458
P5,771,17.33988232
P5,772,#NUM!
P5,775,#NUM!
P5,776,#NUM!
P5,778,14.80271291
P5,780,#NUM!
P5,783,12.84571772
P5,784,20.63180862
P5,785,16.91999185
P5,787,12.62531309
P5,788,19.63531576
P5,789,14.89992646
P5,790,14.6765266
P5,792,13.97241996
P5,793,14.73810765
P5,796,15.6575548
P5,800,22.05159399
P5,801,16.3576417
P5,802,15.29019249
P5,803,15.68044557
P5,804,15.21169928
P5,805,18.01189275
P5,806,12.37016503
P5,807,14.53082848
P5,810,15.47605582
P5,811,15.3073492
P5,812,16.90595183
P5,813,14.83008159
P5,814,11.4259948
P5,816,11.73227787
P5,818,19.09008693
P5,822,14.44992057
P5,824,17.75317148
P5,825,17.29764961
P5,826,17.27872988
P5,828,18.7059134
P5,830,17.83554876
P5,833,16.07519538
P5,834,19.34723703
P5,835,15.31915248
P5,837,14.35800582
P5,839,12.36471259
P5,840,18.50028099
P5,841,14.34448515
P5,843,#NUM!
P5,845,16.66353536
P5,847,18.42266582
P5,849,#NUM!
P5,852,13.89383267
P5,854,#NUM!
P5,856,14.35796464
P5,857,#NUM!
P5,858,13.57527438
P5,859,#NUM!
P5,860,14.28275319
P5,861,#NUM!
P5,862,13.44858837
P5,863,#NUM!
P5,867,15.52173743
P5,879,#NUM!
P5,881,#NUM!
P5,882,14.74547505
P5,886,12.8304189
P5,888,#NUM!
P5,890,13.01624264
P5,892,13.48710278
P5,893,#NUM!
P5,895,13.71506691
P5,897,#NUM!
P5,898,#NUM!
P5,902,18.66843808
P5,903,#NUM!
P5,904,#NUM!
P5,905,16.98287183
P5,906,#NUM!
P5,908,#NUM!
P5,909,13.53088924
P5,910,#NUM!
P5,913,#NUM!
P5,914,#NUM!
P5,916,#NUM!
P5,917,#NUM!
P5,919,#NUM!
P5,920,11.17840884
P5,922,#NUM!
P5,923,12.70404449
P5,925,#NUM!
P5,926,#NUM!
P5,927,#NUM!
P5,928,#NUM!
P5,931,#NUM!
P5,933,12.4318196
P5,935,#NUM!
P5,936,18.9890858
P5,937,14.3451697
P5,941,14.25343796
P5,942,15.80367849
P5,943,#NUM!
P5,944,13.09864532
P5,945,#NUM!
P5,946,#NUM!
P5,947,15.49309368
P5,951,17.84016269
P5,952,#NUM!
P5,953,17.00124253
P5,954,#NUM!
P5,956,#NUM!
P5,958,13.90497647
P5,959,17.40200987
P5,960,#NUM!
P5,961,#NUM!
P5,962,#NUM!
P5,964,#NUM!
P5,968,17.24597826
P5,970,#NUM!
P5,971,#NUM!
P5,972,#NUM!
P5,973,#NUM!
P5,974,#NUM!
P5,977,12.92051789
P5,978,13.98187488
P5,982,14.69293613
P5,983,11.8340492
P5,986,16.24152322
P5,987,#NUM!
P5,988,12.84367984
P5,990,#NUM!
P5,991,#NUM!
P5,992,12.17950075
P5,994,#NUM!
P5,995,#NUM!
P5,997,#NUM!
P5,998,#NUM!
P5,999,#NUM!
P5,1000,12.9625383
