Zero Weights processed. Default weights will be used
...*
optimization finished, #iter = 3824
C = 0.1968940001922783
obj = 28.130750053812395, rho = 3.581231587036286
nSV = 676, nBSV = 320
Total nSV = 676
...*
optimization finished, #iter = 3113
C = 0.18457350796928215
obj = 23.439870051499376, rho = -3.697158458989126
nSV = 634, nBSV = 284
Total nSV = 634
...*
optimization finished, #iter = 2830
C = 0.19236411097029532
obj = 25.72654509684467, rho = 3.9870895570141536
nSV = 621, nBSV = 286
Total nSV = 621
....*
optimization finished, #iter = 3779
C = 0.19154439360511416
obj = 25.8671403549533, rho = -2.767554945406521
nSV = 642, nBSV = 279
Total nSV = 642
...*
optimization finished, #iter = 3099
C = 0.1995443820940906
obj = 26.9908850660567, rho = -4.571243997612563
nSV = 631, nBSV = 273
Total nSV = 631
...*
optimization finished, #iter = 2984
C = 0.19232353456329726
obj = 25.436901124803246, rho = 3.316692548113139
nSV = 621, nBSV = 280
Total nSV = 621
...*
optimization finished, #iter = 2998
C = 0.19043418352928917
obj = 25.290839684606308, rho = -2.556542656743386
nSV = 629, nBSV = 282
Total nSV = 629
...*
optimization finished, #iter = 3074
C = 0.18828522834719275
obj = 25.269004260708314, rho = 1.7287233039852734
nSV = 629, nBSV = 279
Total nSV = 629
...*
optimization finished, #iter = 3309
C = 0.18423418951592513
obj = 24.9556393625706, rho = 3.601215798598561
nSV = 621, nBSV = 270
Total nSV = 621
...*
optimization finished, #iter = 3144
C = 0.19306771083442237
obj = 25.28025279812002, rho = -4.699906722653876
nSV = 630, nBSV = 278
Total nSV = 630
...*
optimization finished, #iter = 3218
C = 0.1931424334277511
obj = 25.332620323402853, rho = 2.2602769905701803
nSV = 634, nBSV = 273
Total nSV = 634



=== Stratified cross-validation ===

Correctly Classified Instances         732               73.6419 %
Incorrectly Classified Instances       262               26.3581 %
Kappa statistic                          0.4314
Mean absolute error                      0.2636
Root mean squared error                  0.5134
Relative absolute error                 55.6368 %
Root relative squared error            105.4925 %
Total Number of Instances              994     


=== Detailed Accuracy By Class ===

               TP Rate   FP Rate   Precision   Recall  F-Measure   ROC Area  Class
                 0.601     0.178      0.678     0.601     0.637      0.711    1
                 0.822     0.399      0.766     0.822     0.793      0.711    -1
Weighted Avg.    0.736     0.314      0.733     0.736     0.733      0.711


=== Confusion Matrix ===

   a   b   <-- classified as
 230 153 |   a = 1
 109 502 |   b = -1

