Sentence	L	DP	SC	TermNonterm	CorrDist	DisCon	HeighHyp	NE	NumCount	OOV	Passive	Pnoun	Pverb 	Pprep	SyllCount	Perplexity	TME	Tp
1	20	5.95	1.75	0.9047619048	3	1	2.8071190598	2	2	0.45	0	0.2857142857	0.1428571429	0.1904761905	1.15	42.9018000547	3.2608197787	733.18
2	10	9	2	1.0909090909	7	0	3.8932130992	0	0	0.3	1	0.0909090909	0.2727272727	0	1.3	35.6175366234	14.8736616345	699.85
3	10	7.4	1.6	0.9090909091	0	2	4.9355654762	1	0	0.2	0	0.4545454545	0.0909090909	0.0909090909	1.7	42.5020672347	40	470.35
4	20	6.75	2	0.9090909091	0	0	3.6336963384	1	2	0.5	0	0.3636363636	0.1363636364	0.1363636364	1.65	89.9139818656	102.970905787	760.58
5	11	4.8181818182	1.9090909091	0.9166666667	0	0	3.8212018141	0	0	0.2727272727	0	0.3333333333	0.0833333333	0.1666666667	1.0909090909	49.1863727026	11.5566565935	498.18
6	11	3.8181818182	1.7272727273	1	0	0	4.5079365079	0	0	0.2727272727	1	0.25	0.1666666667	0.1666666667	1.3636363636	22.0562086168	12.1111111111	532.77
7	28	6.7142857143	2.2142857143	0.9666666667	0	1	2.476248777	0	0	0.3214285714	0	0.2333333333	0.2	0.2	1.8214285714	24.1751695033	116.755957489	754.29
8	30	2.8	3.1333333333	0.9117647059	5	3	2.6782051282	2	0	0.3333333333	0	0.2352941176	0.1470588235	0.1764705882	1.6	61.0337222828	105.107427059	903.45
9	10	8.8	1.4	0.8181818182	0	2	4.6808063995	2	0	0.4	0	0.4545454545	0.0909090909	0.0909090909	1.7	143.487305116	12.3232996425	594.2
10	32	9.65625	2.59375	1.1176470588	12	3	4.3447893016	2	0	0.25	0	0.2647058824	0.2058823529	0.2058823529	1.421875	16.7415453226	6.8884903469	953.98
11	21	4.4761904762	3.1904761905	0.6956521739	0	1	4.3606150794	2	0	0.2857142857	0	0.3043478261	0.1739130435	0.1304347826	1.2142857143	38.4671730558	58.1293930772	621.39
12	14	3.7857142857	3.1428571429	0.7222222222	2	3	4.7636363636	0	0	0.6428571429	3	0.2777777778	0.1111111111	0.1111111111	0.9285714286	256.308201293	9.0909090909	871.11
13	25	6.8	2.6	0.962962963	0	2	4.2743930543	0	0	0.24	0	0.2962962963	0.2222222222	0.1481481481	1.4	21.525080077	68.6600744119	729.26
14	15	6.8	2.5333333333	0.5882352941	0	1	3.6971428571	0	0	0.4	1	0.2352941176	0.2352941176	0.1764705882	1.2666666667	26.4834601091	11.9708745316	553.97
15	11	6.7272727273	3	0.8461538462	2	0	4.9290905191	0	0	0.5454545455	0	0.2307692308	0.2307692308	0.0769230769	1.0909090909	137.57329677	11	790.77
16	17	4.1176470588	2.4705882353	0.9473684211	6	2	3.695952381	0	0	0.3529411765	0	0.2631578947	0.2105263158	0.1578947368	1.3235294118	31.5689236282	102.199687715	739.41
17	18	7.9444444444	2	0.7368421053	0	1	3.6442224442	4	0	0.3888888889	0	0.3684210526	0.1578947368	0.1052631579	1.6111111111	43.5285769425	3.4827953137	647.19
18	24	5.2916666667	2.4583333333	0.8461538462	18	2	4.4585421888	1	1	0.3333333333	0	0.2692307692	0.1153846154	0.1538461538	1.125	28.8498135064	58.8167092737	810.89
19	24	5.2916666667	2.4583333333	0.8461538462	18	2	4.4585421888	1	1	0.3333333333	0	0.2692307692	0.1153846154	0.1538461538	1.125	28.8498135064	58.8167092737	821.97
20	26	3.3461538462	1.8076923077	1	17	2	4.3823895122	0	0	0.2692307692	0	0.25	0.1071428571	0.2142857143	1.1923076923	16.384918753	107.043575218	819.58
21	33	5.696969697	2.2424242424	0.9189189189	14	3	4.6856006006	2	0	0.2727272727	0	0.3513513514	0.1081081081	0.1621621622	1.4848484849	39.2117495005	52.9709057872	927.7
22	13	3.8461538462	2.0769230769	0.9375	4	1	3.0648148148	0	0	0.5384615385	0	0.25	0.125	0.25	1.2307692308	50.1247009398	30.9523809524	803.38
23	14	7.2857142857	1.7857142857	1.0625	0	0	3.5934199134	0	0	0.2142857143	0	0.1875	0.25	0.125	1.1428571429	27.7035838509	8.9077504288	531.29
24	12	4.5833333333	2.3333333333	0.7857142857	3	1	4.9177962094	0	0	0.5	0	0.2142857143	0.1428571429	0.1428571429	1.4166666667	53.7130263518	10.0429034182	734.12
25	12	7.5833333333	1.4166666667	1	7	3	4.0261494669	0	0	0.4166666667	1	0.2142857143	0.1428571429	0.1428571429	0.9166666667	22.1797120644	11.2924823926	733.96
26	9	5.6666666667	2.1111111111	1.1	0	2	4.9202380952	0	1	0.2222222222	0	0.1	0.2	0.2	0.7777777778	14.591250076	6.3306247323	547.78
27	35	7.6	2.8285714286	1.0540540541	17	3	3.3345319641	2	0	0.3714285714	1	0.1891891892	0.2702702703	0.1891891892	1.2857142857	30.4899496583	106.735807721	1145.71
28	17	3.9411764706	1.5882352941	0.8888888889	0	4	3.7620439989	2	0	0.4705882353	1	0.4444444444	0.1111111111	0.2222222222	1.4117647059	55.3035552123	4.3175565493	720.98
29	21	4.2380952381	2.5238095238	0.652173913	0	5	3.1758562046	0	0	0.3333333333	0	0.1739130435	0.0434782609	0.1304347826	1.6190476191	16.9024250579	54.7811283655	633.71
30	16	3.5	3.0625	0.8333333333	5	6	2.270952381	0	0	0.25	0	0.1666666667	0.1666666667	0.1111111111	1.125	31.4781712235	169.67471954	651.72
31	17	4.8823529412	1.7647058824	0.8888888889	0	5	4.6916208791	0	0	0.2941176471	0	0.3333333333	0.1111111111	0.1666666667	1.6470588235	21.9627559243	100	586.85
32	35	3.7428571429	0.6857142857	0.7857142857	2	1	4.6761101472	4	0	0.4285714286	0	0.3571428571	0.0714285714	0.1428571429	1.5	72.1541983551	7.0413107187	735.43
33	27	3.8148148148	2.5555555556	0.8709677419	0	1	3.9037894132	3	0	0.4814814815	0	0.3548387097	0.0967741935	0.2258064516	1.4814814815	69.8968374501	204.797026998	896.96
34	11	4.4545454546	2.0909090909	0.8461538462	0	2	3.9197278912	0	0	0.5454545455	0	0.3846153846	0.1538461538	0.1538461538	1.5	58.492897065	12.0686599507	733.32
35	26	7.0384615385	3.9615384615	0.8928571429	0	2	3.5814358001	0	0	0.2307692308	1	0.2142857143	0.2857142857	0.1071428571	1.4615384615	48.7037136792	70.1519390136	761.31
36	20	3.6	1.7	0.8571428571	0	3	3.7531746032	0	0	0.25	0	0.2857142857	0.1428571429	0.1904761905	2.125	33.5694190877	57.804211062	569.45
37	14	3.4285714286	1.9285714286	0.9333333333	0	0	3.637037037	0	0	0.2142857143	0	0.2666666667	0.0666666667	0.2666666667	1.3571428571	14.5660277604	11.7912879023	436.46
38	15	4.5333333333	1.6	1.2941176471	10	1	4.1943774131	0	0	0.3333333333	0	0.1176470588	0.2352941176	0.1764705882	1.1333333333	42.7415735341	11.2418373529	804.37
39	6	9.5	1.3333333333	1.1428571429	0	2	4.9316017316	0	0	0.5	0	0	0.4285714286	0.1428571429	1	41.2633807771	24.09898021	707.83
40	21	6.1428571429	2.9523809524	0.9545454545	0	5	3.6302581902	0	0	0.1904761905	1	0.1818181818	0.2272727273	0.1818181818	1.5238095238	12.645344031	65.0986590305	644.71
41	8	5.125	2.375	0.9090909091	6	1	4.0989819005	0	0	0.5	0	0.2727272727	0.0909090909	0.0909090909	1	1037.14071919	17.6076423806	679.94
42	18	5.5555555556	2.6111111111	0.6315789474	5	1	4.135774451	2	0	0.3888888889	0	0.3684210526	0.1052631579	0.1052631579	1.3888888889	46.992544435	52.1330640875	626.14
43	28	2.5357142857	2.6785714286	0.9666666667	2	2	4.231737013	0	0	0.3928571429	0	0.2333333333	0.1666666667	0.2666666667	1.4285714286	41.0013564644	158.275991688	823.52
44	16	4	2.1875	0.7647058824	0	0	4.7310876623	0	0	0.1875	0	0.2941176471	0.0588235294	0.1764705882	1.3125	9.8339806957	12.3725814237	390.88
45	14	5.3571428571	2	0.8666666667	0	0	2.8103174603	2	0	0.4285714286	0	0.4	0.2666666667	0.1333333333	1.4285714286	75.0830933432	9.1389234983	635.39
46	13	5.3076923077	1.6153846154	1	0	1	4.9948773449	0	0	0.3076923077	0	0.2857142857	0.1428571429	0.2142857143	1.4615384615	36.887245667	9.9182956918	566.65
47	10	11.6	2.2	1.0909090909	0	0	5.2212069212	0	0	0.1	0	0.1818181818	0.2727272727	0.1818181818	0.9	18.61135642	12.1111111111	491.35
48	25	5.24	3.68	1.0384615385	0	3	3.0611111111	0	0	0.16	0	0.2307692308	0.1923076923	0.1923076923	1.82	14.2944545464	72.8187672587	736.18
49	7	5.4285714286	2.7142857143	0.75	0	0	3.8273809524	1	0	0.4285714286	0	0.25	0.125	0	2.2857142857	47.5995609573	58.3333333333	622.86
50	23	4	2.9565217391	0.88	15	1	2.7423687424	0	0	0.347826087	0	0.2	0.16	0.16	1.3043478261	15.4076175265	25.1082378772	821.39
51	5	2.2	1.4	0.8571428571	0	0	5.25	0	0	0.6	0	0.1428571429	0.1428571429	0	1.4	545.807645735	83.3333333333	481.7
52	15	6.2	1.2666666667	1.0625	0	0	4.4399322899	0	0	0.2666666667	0	0.375	0.1875	0.1875	1.2666666667	41.3645588239	15.5742292644	539.23
53	5	4.2	1	1	0	1	3.1944444444	0	0	0.2	0	0.3333333333	0.1666666667	0	0.8	874.257686093	33.3333333333	233.8
54	29	3.1724137931	2.9655172414	0.9032258065	0	3	4.4985615079	0	0	0.3103448276	1	0.2580645161	0.1935483871	0.1290322581	1.5172413793	16.3383857685	105.96885897	792.48
55	25	8.52	2.28	0.8148148148	8	0	4.2261648156	0	0	0.2	0	0.2962962963	0.1481481481	0.1111111111	1.16	25.544643838	111.460273441	615.5
56	7	3.1428571429	1.5714285714	1	0	2	5.7946428571	0	0	0.5714285714	0	0.25	0.125	0.125	1.5714285714	234.4722183	25.0980387882	772.64
57	11	3.2727272727	1.6363636364	0.8333333333	0	0	2.8685064935	0	0	0.2727272727	1	0.25	0.1666666667	0.1666666667	1.1363636364	49.3921254812	12.0073523074	366.05
58	18	6.2777777778	2.0555555556	1.052631579	0	1	2.2020228602	1	0	0.3888888889	0	0.2631578947	0.2631578947	0.2105263158	1.3055555556	39.9732839958	0	735.8
59	17	8.9411764706	2.3529411765	0.7777777778	7	0	4.4043987966	2	0	0.2352941176	0	0.3888888889	0.1666666667	0.1111111111	1.1176470588	69.1453676601	106.735807721	618.21
60	12	6.8333333333	1.75	0.8461538462	0	1	5.8126984127	0	0	0.4166666667	0	0.3076923077	0.1538461538	0.1538461538	1.25	63.5866429132	17.5222812124	638.54
61	17	3.8235294118	2.8823529412	0.8947368421	5	4	3.0263949014	0	0	0.2352941176	0	0.1578947368	0.2105263158	0.2105263158	1.3529411765	50.5031728441	66.0189488359	645.18
62	26	2.3846153846	3.6538461539	0.7428571429	0	2	4.3358134921	3	1	0.5769230769	1	0.3428571429	0.0571428571	0.1142857143	0.8461538462	346.059786568	203.20914775	954.88
63	7	3.1428571429	1.8571428571	0.6666666667	0	1	1.3587301587	0	0	0.2857142857	0	0.2222222222	0.1111111111	0	1	111.587019572	18.4722153347	277.71
64	41	5.9512195122	3.1707317073	0.8837209302	0	6	4.0173884595	0	0	0.2564102564	0	0.2558139535	0.1627906977	0.1395348837	1.3902439024	17.5956141741	61.5380847106	892.03
65	7	8.2857142857	1.4285714286	0.875	0	1	2.8636904762	0	0	0.1428571429	0	0.125	0.125	0.25	0.8571428571	58.8026305891	18.9411436948	239.29
66	22	6.6818181818	2.0454545455	0.9583333333	0	0	4.4687155855	1	0	0.3181818182	0	0.375	0.1666666667	0.0833333333	1.3863636364	75.5506230868	106.425794033	650.95
67	39	5.0256410256	2.9487179487	0.9090909091	9	3	3.7977154604	0	0	0.2820512821	0	0.2727272727	0.1818181818	0.1590909091	1.4230769231	44.4488437293	106.253965684	1021.69
68	10	4.6	2.3	0.9230769231	0	1	3.0149159664	0	0	0.5	0	0.1538461538	0.2307692308	0	1.55	97.5767203124	40	742.25
69	18	5	1.6111111111	1.15	6	2	4.0346652071	0	0	0.3333333333	0	0.25	0.1	0.2	1.1111111111	53.5366911881	53.8221007537	713.03
70	14	7.5714285714	1.5714285714	0.9375	0	2	4.0838095238	0	0	0.5	1	0.25	0.1875	0.125	1.1428571429	14.496998318	28.5714285714	654.96
71	27	4.8148148148	3.3333333333	1.0666666667	4	0	4.2905555556	0	0	0.2592592593	0	0.2	0.2666666667	0.0333333333	1.3209876543	25.5305518201	106.335660292	792
72	26	5.2307692308	1.3076923077	1.0909090909	7	4	5.0125021178	0	1	0.2692307692	0	0.3636363636	0.1818181818	0.0909090909	1.2307692308	50.7731560768	114.072166706	731.89
73	27	5.0740740741	2.4814814815	0.9032258065	8	4	4.2240854272	1	0	0.2592592593	0	0.3225806452	0.064516129	0.1612903226	1.2962962963	58.2792563512	103.356496025	767.11
74	38	6	0.7368421053	0.7647058824	5	4	3.4566041864	0	0	0.2368421053	0	0.2352941176	0.1176470588	0.1176470588	1.3157894737	53.7104407904	64.9915026679	789.68
75	19	3.2631578947	2.6315789474	1.15	3	0	5.5392651208	2	0	0.2105263158	0	0.3	0.2	0.2	1.5789473684	28.7721378642	53.1209505945	717.29
76	17	4.4117647059	1.8235294118	0.7894736842	5	0	4.8145604396	0	0	0.2941176471	0	0.2631578947	0.0526315789	0.2105263158	1.2352941177	62.8010071227	105.913182913	535.39
77	11	2.8181818182	2.6363636364	0.9166666667	0	0	5.5142857143	0	0	0.3636363636	0	0.25	0.1666666667	0.1666666667	1.2727272727	27.4855065377	14.7461217696	588.12
78	25	4.2	3.04	0.7857142857	0	3	4.2841000736	0	0	0.16	0	0.2142857143	0.1428571429	0.2142857143	1.32	14.2840386034	58.422267584	576.23
79	26	5.8461538462	2.2692307692	0.8571428571	1	2	4.4850437145	2	0	0.1923076923	0	0.25	0.1428571429	0.1785714286	1	16.6965179532	106.965835774	610
80	23	3.6956521739	2.4347826087	0.8888888889	5	0	4.5564484127	0	0	0.4782608696	0	0.2962962963	0.0740740741	0.2222222222	1.0652173913	69.354144268	104.470905787	823.9
