Participant, Doc_id,FD,FFD, RFD,FC,SKIP, RC,SD,RD,NLL
adityajo,1,0.258764,0.272625,0.319796,0.317739,0.445722,0.36,0.241648,0.439732,0.402197
adityajo,2,0.131137,0.185836,0.18111,0.181287,0.488805,0.215,0.151383,0.27567,0.329866
adityajo,3,0.371893,0.389195,0.426781,0.417154,0.349481,0.39,0.375943,0.532366,0.535842
adityajo,4,0.104901,0.112158,0.193683,0.128655,0.473623,0.2,0.063941,0.289621,0.267268
adityajo,5,0.058477,0.076711,0.112037,0.099415,0.448419,0.155,0.051754,0.188058,0.200006
adityajo,6,0.016088,0.035623,0.049366,0.035088,0.214927,0.075,0.007086,0.060826,0.051431
adityajo,7,0.439702,0.406493,0.41282,0.536062,0.199323,0.49,0.466408,0.595982,0.778575
adityajo,8,0.279084,0.218601,0.376065,0.302144,0.473288,0.4,0.183681,0.47154,0.474701
adityajo,9,0.174761,0.128604,0.267075,0.208577,0.412309,0.26,0.078533,0.31808,0.333562
adityajo,10,0.133292,0.121133,0.167264,0.150097,0.328855,0.19,0.056891,0.195871,0.26621
adityajo,11,0.054731,0.077137,0.078021,0.081871,0.433219,0.11,0.033173,0.13058,0.168938
adityajo,12,0.219924,0.206618,0.256894,0.298246,0.2721,0.33,0.19452,0.376674,0.505757
adityajo,13,0.336917,0.28892,0.395966,0.393762,0.33538,0.42,0.257369,0.44029,0.671756
adityajo,14,0.172855,0.173903,0.233599,0.208577,0.574659,0.23,0.12464,0.328683,0.318204
adityajo,15,0.377098,0.302607,0.500636,0.461988,0.329368,0.54,0.309305,0.796875,0.673777
adityajo,16,0.090851,0.108574,0.095723,0.105263,0.550137,0.12,0.046016,0.165737,0.164006
adityajo,17,0.23078,0.190449,0.265726,0.294347,0.472839,0.285,0.140817,0.399554,0.41852
adityajo,18,0.1873,0.17443,0.239654,0.274854,0.3453,0.315,0.151893,0.453683,0.568344
adityajo,19,0.465386,0.429105,0.553897,0.539961,0.414297,0.525,0.465552,0.818638,0.894002
adityajo,20,0.121423,0.123991,0.191677,0.153996,0.182563,0.185,0.052629,0.168527,0.226195
adityajo,21,0.06476,0.053171,0.136025,0.083821,0.388915,0.15,0.024156,0.140067,0.124546
adityajo,22,0.211459,0.128854,0.310425,0.253411,0.228744,0.315,0.071629,0.308594,0.315276
adityajo,23,0.177364,0.130258,0.239462,0.235867,0.348907,0.295,0.062666,0.256696,0.319002
adityajo,24,0.002116,0,0.045702,0.021442,1,0.06,0.003152,0.023996,0.012907
adityajo,25,0.137853,0.185034,0.189209,0.140351,0.489587,0.185,0.067275,0.220424,0.223057
adityajo,26,0.07977,0.061469,0.125458,0.099415,0.382539,0.135,0.032845,0.152344,0.131637
adityajo,27,0.121239,0.112409,0.164796,0.136452,0.2661,0.165,0.035887,0.183036,0.219003
adityajo,28,0.061211,0.063149,0.120213,0.077973,0.320684,0.14,0.023737,0.144531,0.118557
adityajo,29,0.238417,0.22369,0.312314,0.267057,0.44246,0.29,0.161238,0.342076,0.436929
adityajo,30,0.116521,0.120832,0.178873,0.148148,0.54271,0.21,0.079608,0.299665,0.350205
adityajo,31,0.192532,0.231261,0.158163,0.22807,0.301281,0.195,0.137483,0.257254,0.292145
adityajo,32,0.004508,0.011807,0.064407,0.013645,0.44763,0.06,0.003352,0.044085,0.035643
adtiyasa,1,0.346263,0.455929,0.297698,0.323587,0.308073,0.27,0.289522,0.24442,0.287107
adtiyasa,2,0.303887,0.446227,0.225269,0.261209,0.230893,0.2,0.195613,0.151786,0.270239
adtiyasa,3,0.585797,0.762697,0.405492,0.454191,0.147198,0.335,0.505338,0.296875,0.370224
adtiyasa,4,0.196803,0.275984,0.196537,0.134503,0.28156,0.14,0.062229,0.110491,0.195726
adtiyasa,5,0.228467,0.281173,0.185352,0.191033,0.253485,0.175,0.081466,0.136161,0.19552
adtiyasa,6,0.084042,0.144698,0.051602,0.038986,0.214927,0.04,0.007851,0.026786,0.034427
adtiyasa,7,0.502346,0.662422,0.358286,0.403509,0.157043,0.325,0.371461,0.213728,0.282726
adtiyasa,8,0.409485,0.502908,0.348259,0.323587,0.276709,0.31,0.264182,0.210379,0.281085
adtiyasa,9,0.34575,0.304738,0.258167,0.302144,0.162291,0.27,0.163406,0.222656,0.300351
adtiyasa,10,0.177508,0.244873,0.108836,0.11306,0.294919,0.095,0.046016,0.102121,0.176175
adtiyasa,11,0.163996,0.238381,0.124764,0.107212,0.291897,0.105,0.038766,0.108817,0.199068
adtiyasa,12,0.264889,0.340637,0.215743,0.226121,0.249865,0.185,0.13772,0.154576,0.258791
adtiyasa,13,0.543,0.713337,0.306105,0.360624,0.194851,0.255,0.262706,0.211496,0.331737
adtiyasa,14,0.276981,0.39288,0.237302,0.241715,0.330688,0.2,0.163552,0.228795,0.264031
adtiyasa,15,0.384564,0.531838,0.275213,0.323587,0.235582,0.255,0.252195,0.263393,0.397481
adtiyasa,16,0.153179,0.225646,0.125188,0.140351,0.284248,0.125,0.075363,0.107701,0.18128
adtiyasa,17,0.365702,0.441263,0.288943,0.300195,0.196505,0.255,0.214996,0.195313,0.280144
adtiyasa,18,0.287365,0.390649,0.250029,0.230019,0.305621,0.195,0.140799,0.222098,0.255728
adtiyasa,19,0.717682,0.963475,0.526206,0.502924,0.185042,0.42,0.535559,0.302455,0.392644
adtiyasa,20,0.202587,0.202632,0.166686,0.161793,0.182563,0.16,0.060316,0.111607,0.186315
adtiyasa,21,0.207884,0.208899,0.231517,0.14425,0.225161,0.18,0.043702,0.184152,0.183641
adtiyasa,22,0.180216,0.240862,0.140422,0.134503,0.228744,0.125,0.052847,0.136719,0.164529
adtiyasa,23,0.25277,0.334946,0.191677,0.165692,0.202366,0.145,0.07254,0.113281,0.212552
adtiyasa,24,0.083148,0.094911,0.096147,0.070175,0.871044,0.095,0.012278,0.034598,0.036783
adtiyasa,25,0.267491,0.40727,0.159975,0.192982,0.184781,0.14,0.105348,0.138951,0.225033
adtiyasa,26,0.126812,0.194309,0.094759,0.091618,0.234557,0.105,0.027016,0.151228,0.164819
adtiyasa,27,0.248735,0.218601,0.242778,0.224172,0,0.235,0.075345,0.106027,0.164601
adtiyasa,28,0.224261,0.189045,0.267731,0.165692,0.129638,0.195,0.040259,0.13058,0.159942
adtiyasa,29,0.416201,0.577639,0.270277,0.307992,0.211877,0.23,0.214468,0.192522,0.258361
adtiyasa,30,0.217873,0.384608,0.131822,0.152047,0.29874,0.13,0.079116,0.176339,0.273043
adtiyasa,31,0.357382,0.454249,0.231864,0.2846,0.160236,0.23,0.156447,0.167969,0.299874
adtiyasa,32,0.050118,0.071597,0.06244,0.038986,0.210078,0.06,0.00654,0.018415,0.022028
ajay,1,0.462139,0.596365,0.325659,0.376218,0.177668,0.26,0.332532,0.253906,0.342881
ajay,2,0.42021,0.4271,0.345019,0.350877,0.239489,0.295,0.276023,0.268415,0.366847
ajay,3,0.564964,0.745901,0.369239,0.436647,0.254661,0.305,0.431195,0.352679,0.380595
ajay,4,0.226206,0.30559,0.15824,0.175439,0.267842,0.145,0.095293,0.217076,0.232742
ajay,5,0.247289,0.260993,0.175711,0.202729,0.148521,0.16,0.097406,0.126116,0.194834
ajay,6,0.171633,0.137453,0.152031,0.130604,0.092112,0.125,0.019638,0.056362,0.074339
ajay,7,0.571759,0.666207,0.363685,0.461988,0.199323,0.36,0.377928,0.530134,0.89725
ajay,8,0.467594,0.596641,0.261406,0.374269,0.166624,0.245,0.295551,0.302455,0.346534
ajay,9,0.428294,0.390223,0.374638,0.311891,0.18861,0.32,0.134404,0.253348,0.325367
ajay,10,0.258514,0.21642,0.25107,0.204678,0.19311,0.18,0.075892,0.126116,0.192157
ajay,11,0.240415,0.249812,0.235605,0.155945,0.16824,0.115,0.054797,0.100446,0.182466
ajay,12,0.307738,0.40895,0.197964,0.220273,0.227632,0.16,0.160273,0.145647,0.196697
ajay,13,0.646206,0.62918,0.39855,0.495127,0.145252,0.37,0.315973,0.275112,0.485268
ajay,14,0.829261,0.52176,0.667862,0.736842,0.121571,0.625,0.481983,0.538504,0.654141
ajay,15,0.621075,0.759363,0.365344,0.39961,0.196505,0.255,0.293821,0.253906,0.301368
ajay,16,0.170923,0.245174,0.126962,0.167641,0.297543,0.14,0.093398,0.260603,0.259288
ajay,17,0.364059,0.452895,0.226117,0.309942,0.205716,0.21,0.214741,0.336496,0.39206
ajay,18,0.21694,0.323465,0.131282,0.214425,0.256023,0.16,0.150927,0.158482,0.211135
ajay,19,1,1,0.653053,0.690058,0.213698,0.48,0.591886,0.486607,0.63406
ajay,20,0.268227,0.153447,0.280612,0.241715,0.165137,0.225,0.088953,0.131138,0.19615
ajay,21,0.233711,0.195488,0.214355,0.175439,0.102346,0.155,0.053011,0.098772,0.135979
ajay,22,0.231608,0.238506,0.208184,0.167641,0.277102,0.14,0.050078,0.131138,0.143671
ajay,23,0.203231,0.21627,0.13483,0.210526,0.202366,0.15,0.08797,0.160156,0.256447
ajay,24,0.044229,0.053322,0.054996,0.052632,0.900803,0.06,0.011805,0.016741,0.021278
ajay,25,0.357619,0.361143,0.300899,0.311891,0.184781,0.27,0.170456,0.430246,0.778295
ajay,26,0.188957,0.172976,0.135254,0.155945,0.065435,0.105,0.049204,0.072545,0.084939
ajay,27,0.258501,0.270293,0.183077,0.150097,0.225161,0.145,0.042682,0.116071,0.169927
ajay,28,0.275141,0.215944,0.267654,0.191033,0.1774,0.195,0.045451,0.112165,0.133315
ajay,29,0.363468,0.485435,0.273053,0.300195,0.211877,0.215,0.211936,0.287946,0.311523
ajay,30,0.321158,0.367335,0.231517,0.263158,0.182563,0.165,0.140143,0.207589,0.386951
ajay,31,0.536455,0.497919,0.366269,0.385965,0.170311,0.315,0.188946,0.372768,0.513577
ajay,32,0.054836,0.06909,0.054264,0.035088,0.277951,0.04,0.009874,0.021763,0.018274
arpan,1,0.420565,0.630158,0.230861,0.272904,0.344297,0.175,0.254345,0.284598,0.315534
arpan,2,0.22292,0.394761,0.091673,0.155945,0.437223,0.055,0.125679,0.144531,0.171124
arpan,3,0.449442,0.599499,0.303483,0.382066,0.29259,0.235,0.359165,0.320871,0.379281
arpan,4,0.133752,0.247355,0.04574,0.08577,0.418747,0.055,0.050643,0.125,0.199182
arpan,5,0.163116,0.27997,0.089591,0.105263,0.26848,0.075,0.049331,0.105469,0.151332
arpan,6,0.043309,0.070745,0.063635,0.035088,0.214927,0.035,0.00705,0.039063,0.035994
arpan,7,0.437626,0.6456,0.230128,0.346979,0.199323,0.195,0.299486,0.261161,0.378507
arpan,8,0.366859,0.547556,0.215782,0.259259,0.300299,0.165,0.209695,0.227679,0.345371
arpan,9,0.203507,0.294861,0.145706,0.167641,0.201769,0.125,0.080701,0.129464,0.19713
arpan,10,0.118584,0.164101,0.079023,0.103314,0.345821,0.07,0.046799,0.111049,0.157536
arpan,11,0.160145,0.2181,0.088742,0.111111,0.185906,0.08,0.045488,0.089844,0.154551
arpan,12,0.197868,0.329982,0.137838,0.140351,0.338801,0.105,0.099228,0.188058,0.260087
arpan,13,0.351113,0.538381,0.209071,0.253411,0.269249,0.175,0.209258,0.227121,0.325708
arpan,14,0.278926,0.459539,0.11759,0.202729,0.313263,0.105,0.149798,0.181362,0.237415
arpan,15,0.481723,0.63833,0.300513,0.325536,0.259029,0.225,0.280031,0.323103,0.315715
arpan,16,0.162708,0.268313,0.0479,0.109162,0.337425,0.045,0.062939,0.104353,0.190795
arpan,17,0.322051,0.485084,0.196768,0.237817,0.270194,0.18,0.167159,0.364955,0.482687
arpan,18,0.216335,0.356681,0.112654,0.179337,0.295701,0.12,0.131162,0.186384,0.272433
arpan,19,0.4639,0.629682,0.306452,0.380117,0.334058,0.29,0.390953,0.477121,0.424419
arpan,20,0.105335,0.155202,0.124802,0.087719,0.339402,0.09,0.038201,0.114955,0.160096
arpan,21,0.074237,0.143169,0.056115,0.066277,0.24563,0.06,0.024629,0.029576,0.044908
arpan,22,0.156373,0.236375,0.136411,0.11306,0.260983,0.095,0.041862,0.103237,0.17094
arpan,23,0.139917,0.259087,0.080296,0.093567,0.3196,0.07,0.04567,0.111049,0.220506
arpan,24,0.047344,0.108047,0.050445,0.02729,0.890884,0.045,0.006922,0.032366,0.02658
arpan,25,0.215678,0.36538,0.103783,0.157895,0.255121,0.105,0.094947,0.106585,0.228376
arpan,26,0.127062,0.163399,0.113888,0.076023,0.340258,0.075,0.023518,0.047991,0.061446
arpan,27,0.140981,0.219729,0.040649,0.079922,0.184223,0.04,0.027143,0.068638,0.156918
arpan,28,0.112275,0.161895,0.077249,0.066277,0.296804,0.065,0.017889,0.071987,0.076097
arpan,29,0.320737,0.47646,0.204983,0.22807,0.348519,0.17,0.155591,0.308036,0.361828
arpan,30,0.166494,0.262898,0.108759,0.148148,0.321975,0.1,0.078406,0.147879,0.220521
arpan,31,0.346355,0.484457,0.186856,0.239766,0.19046,0.135,0.141327,0.16183,0.25583
arpan,32,0.014734,0.065731,0,0.001949,0.244015,0,0.001476,0,0
jayasar,1,0.486784,0.505365,0.573026,0.504873,0.184913,0.54,0.470252,0.392857,0.418762
jayasar,2,0.339257,0.33996,0.385244,0.348928,0.230893,0.34,0.244289,0.257254,0.324999
jayasar,3,0.514307,0.527526,0.525126,0.536062,0.254661,0.525,0.531734,0.318638,0.415231
jayasar,4,0.206214,0.177513,0.256778,0.216374,0.254123,0.265,0.099446,0.242188,0.285328
jayasar,5,0.277757,0.209225,0.31027,0.269006,0.223495,0.325,0.097734,0.241071,0.248124
jayasar,6,0.104113,0.085961,0.124108,0.089669,0.184223,0.13,0.01379,0.068638,0.069788
jayasar,7,0.519696,0.469491,0.64102,0.526316,0.269792,0.605,0.424436,0.478237,0.531061
jayasar,8,0.460023,0.426373,0.46878,0.440546,0.190214,0.46,0.328943,0.281808,0.308626
jayasar,9,0.270619,0.258185,0.343515,0.278752,0.162291,0.32,0.117281,0.188058,0.268535
jayasar,10,0.242426,0.146077,0.3579,0.269006,0.074335,0.35,0.093653,0.3125,0.280526
jayasar,11,0.190678,0.154575,0.199931,0.191033,0.20357,0.2,0.06937,0.099888,0.189632
jayasar,12,0.359709,0.283906,0.423773,0.403509,0.094229,0.45,0.23008,0.239955,0.328367
jayasar,13,0.535916,0.457358,0.560338,0.489279,0.186585,0.505,0.340474,0.296317,0.406248
jayasar,14,0.375192,0.353923,0.376605,0.395712,0.165137,0.395,0.24642,0.259487,0.365273
jayasar,15,0.497628,0.500251,0.426549,0.45614,0.180874,0.44,0.326119,0.374442,0.368586
jayasar,16,0.152246,0.155177,0.200046,0.175439,0.257659,0.185,0.095949,0.127232,0.216919
jayasar,17,0.383525,0.38902,0.396853,0.374269,0.178082,0.37,0.251047,0.244978,0.40392
jayasar,18,0.301192,0.271547,0.404528,0.335283,0.226264,0.36,0.211626,0.332031,0.324867
jayasar,19,0.485995,0.46899,0.632882,0.528265,0.356983,0.615,0.668488,1,0.995703
jayasar,20,0.379451,0.16182,0.509738,0.436647,0.060578,0.52,0.174864,0.267299,0.382939
jayasar,21,0.20812,0.151542,0.248486,0.204678,0.122815,0.23,0.065672,0.146205,0.189504
jayasar,22,0.199642,0.200852,0.235605,0.222222,0.083668,0.26,0.081721,0.143415,0.189375
jayasar,23,0.306134,0.255678,0.319411,0.304094,0.14375,0.335,0.129777,0.208705,0.374364
jayasar,24,0.076432,0.094385,0.132323,0.072125,0.890884,0.105,0.011513,0.047991,0.045316
jayasar,25,0.233593,0.247932,0.272243,0.231969,0.196505,0.235,0.115878,0.140625,0.250902
jayasar,26,0.130256,0.144999,0.153149,0.1423,0.065435,0.17,0.044049,0.104911,0.124404
jayasar,27,0.24445,0.175508,0.30464,0.218324,0.102346,0.255,0.060334,0.145647,0.206049
jayasar,28,0.168084,0.111807,0.206603,0.159844,0.1774,0.19,0.034175,0.177455,0.160911
jayasar,29,0.433683,0.453497,0.465001,0.393762,0.194796,0.38,0.25511,0.239397,0.303785
jayasar,30,0.161433,0.203986,0.203247,0.224172,0.229034,0.25,0.121124,0.169643,0.264002
jayasar,31,0.448916,0.354976,0.535308,0.423002,0.150162,0.445,0.217802,0.214286,0.360372
jayasar,32,0.055125,0.064553,0.096417,0.066277,0.142208,0.12,0.009855,0.045759,0.044356
kevinp,1,0.249892,0.356756,0.201782,0.270955,0.366031,0.225,0.245054,0.308594,0.468583
kevinp,2,0.19219,0.295137,0.183694,0.196881,0.420028,0.18,0.164317,0.361049,0.586423
kevinp,3,0.397511,0.513988,0.293417,0.352827,0.406374,0.26,0.358546,0.370536,0.508159
kevinp,4,0.106229,0.132966,0.128775,0.089669,0.528498,0.105,0.048311,0.135603,0.158238
kevinp,5,0.153678,0.164728,0.171931,0.1423,0.388439,0.16,0.063158,0.185268,0.233581
kevinp,6,0.02889,0.057483,0.037101,0.023392,0.429853,0.045,0.0045,0.035156,0.029422
kevinp,7,0.344252,0.40549,0.342589,0.311891,0.431867,0.315,0.266149,0.496094,0.549186
kevinp,8,0.238088,0.307646,0.281191,0.235867,0.481152,0.245,0.199439,0.36942,0.33496
kevinp,9,0.223946,0.224969,0.227236,0.194932,0.359674,0.185,0.084672,0.282924,0.361998
kevinp,10,0.196541,0.183555,0.18084,0.179337,0.294919,0.19,0.064251,0.194754,0.233599
kevinp,11,0.139391,0.164151,0.15986,0.111111,0.344892,0.125,0.035614,0.154576,0.194147
kevinp,12,0.224747,0.288167,0.158818,0.167641,0.41662,0.145,0.099282,0.209263,0.389043
kevinp,13,0.357369,0.413011,0.26291,0.28655,0.401511,0.245,0.213247,0.285156,0.423946
kevinp,14,0.222132,0.298045,0.173512,0.212476,0.443961,0.19,0.144114,0.366629,0.424437
kevinp,15,0.296487,0.442316,0.191176,0.224172,0.438786,0.155,0.191624,0.25,0.331679
kevinp,16,0.119084,0.198371,0.095839,0.081871,0.510253,0.075,0.049568,0.088728,0.168237
kevinp,17,0.23726,0.276034,0.235296,0.249513,0.389939,0.245,0.156192,0.392299,0.458502
kevinp,18,0.169464,0.264101,0.135832,0.165692,0.414738,0.15,0.106551,0.199777,0.261689
kevinp,19,0.375613,0.513412,0.300243,0.309942,0.483073,0.265,0.327504,0.359933,0.439143
kevinp,20,0.131649,0.124091,0.147942,0.14425,0.304549,0.165,0.053631,0.165179,0.236053
kevinp,21,0.091587,0.105139,0.102665,0.089669,0.409384,0.11,0.024192,0.110491,0.104322
kevinp,22,0.11451,0.139584,0.136835,0.116959,0.34158,0.12,0.042118,0.140625,0.146355
kevinp,23,0.100511,0.126974,0.103706,0.103314,0.53941,0.13,0.048912,0.123884,0.173736
kevinp,24,0.011567,0.038406,0.02746,0.011696,0.970241,0.03,0.003898,0.03404,0.01812
kevinp,25,0.157004,0.245751,0.105866,0.146199,0.407523,0.125,0.086676,0.15904,0.266534
kevinp,26,0.139325,0.125846,0.183038,0.148148,0.149995,0.175,0.04148,0.191964,0.178326
kevinp,27,0.235512,0.154901,0.284701,0.210526,0.307038,0.235,0.055325,0.204241,0.313874
kevinp,28,0.168097,0.150589,0.214355,0.124756,0.249043,0.15,0.028473,0.163504,0.178236
kevinp,29,0.314126,0.453873,0.198349,0.237817,0.38268,0.19,0.162604,0.158482,0.222893
kevinp,30,0.171291,0.227852,0.167342,0.153996,0.391681,0.14,0.08551,0.24721,0.422171
kevinp,31,0.290348,0.361795,0.251957,0.243665,0.432253,0.235,0.121088,0.308594,0.387229
kevinp,32,0.038078,0.078817,0.049674,0.011696,0.379758,0.05,0.00337,0.019531,0.012601
lakshya,1,0.284736,0.470945,0.119789,0.230019,0.337052,0.06,0.231829,0.137277,0.157879
lakshya,2,0.273761,0.439509,0.107216,0.206628,0.377043,0.1,0.139888,0.136161,0.180948
lakshya,3,0.404082,0.579594,0.131012,0.350877,0.29259,0.13,0.332113,0.254464,0.366565
lakshya,4,0.179375,0.301529,0.090092,0.081871,0.446185,0.045,0.04117,0.090402,0.184367
lakshya,5,0.083963,0.147656,0.051988,0.097466,0.32846,0.05,0.049113,0.09096,0.112202
lakshya,6,0.084581,0.098546,0.064175,0.072125,0.184223,0.065,0.015667,0.083705,0.068019
lakshya,7,0.368844,0.535548,0.150604,0.327485,0.234557,0.135,0.286006,0.246094,0.373748
lakshya,8,0.218189,0.339935,0.073316,0.233918,0.418246,0.115,0.157886,0.169643,0.204513
lakshya,9,0.240546,0.259188,0.157353,0.192982,0.346515,0.14,0.097843,0.237723,0.289647
lakshya,10,0.135132,0.205014,0.100351,0.107212,0.311887,0.095,0.042045,0.116071,0.142673
lakshya,11,0.139102,0.200451,0.109568,0.099415,0.309562,0.085,0.037254,0.121094,0.184097
lakshya,12,0.191033,0.341063,0.070076,0.107212,0.405502,0.035,0.080318,0.121652,0.228628
lakshya,13,0.395105,0.543094,0.148714,0.276803,0.318848,0.13,0.199475,0.183036,0.232413
lakshya,14,0.15682,0.257483,0.104208,0.185185,0.417821,0.115,0.139086,0.189174,0.249163
lakshya,15,0.353308,0.581148,0.139188,0.241715,0.337184,0.125,0.200423,0.207031,0.236826
lakshya,16,0.09323,0.147105,0.080836,0.093567,0.510253,0.07,0.052556,0.137835,0.165315
lakshya,17,0.1679,0.285811,0.053377,0.191033,0.297827,0.085,0.149688,0.126116,0.243312
lakshya,18,0.177364,0.310328,0.099657,0.134503,0.434577,0.075,0.09706,0.117188,0.180344
lakshya,19,0.43735,0.647606,0.219021,0.315789,0.402834,0.16,0.348581,0.285714,0.293006
lakshya,20,0.085435,0.169391,0.037101,0.05848,0.374255,0.03,0.029384,0.068638,0.099628
lakshya,21,0.089339,0.111682,0.090632,0.091618,0.327507,0.075,0.029293,0.09375,0.108258
lakshya,22,0.094452,0.18714,0.043503,0.08577,0.293222,0.06,0.037855,0.089286,0.144518
lakshya,23,0.090377,0.146553,0.045162,0.083821,0.451485,0.025,0.060517,0.082589,0.164309
lakshya,24,0.001577,0.028203,0.011917,0.011696,0.950401,0.02,0.004408,0.007813,0.003305
lakshya,25,0.240665,0.381023,0.096494,0.177388,0.255121,0.095,0.098936,0.165179,0.35176
lakshya,26,0.077325,0.118025,0.066991,0.070175,0.297979,0.07,0.023573,0.071987,0.065855
lakshya,27,0.145529,0.213186,0.080103,0.081871,0.388915,0.085,0.027125,0.091518,0.157177
lakshya,28,0.110501,0.17819,0.039145,0.060429,0.225161,0.035,0.022771,0.023438,0.032101
lakshya,29,0.182818,0.27438,0.091596,0.245614,0.331439,0.14,0.166193,0.233259,0.294496
lakshya,30,0.138957,0.223088,0.066065,0.111111,0.484622,0.055,0.085966,0.190848,0.212561
lakshya,31,0.329412,0.453572,0.154962,0.212476,0.291207,0.12,0.126863,0.129464,0.182458
lakshya,32,0.043664,0.094385,0.061476,0.007797,0.379758,0.035,0.002478,0.00558,0.001447
meghnas,1,0.329793,0.497042,0.199429,0.267057,0.366031,0.15,0.227566,0.291853,0.332192
meghnas,2,0.233909,0.301053,0.170196,0.241715,0.351252,0.145,0.174026,0.246652,0.324717
meghnas,3,0.380463,0.546678,0.30356,0.282651,0.406374,0.15,0.27677,0.344308,0.322618
meghnas,4,0.096463,0.182151,0.058159,0.097466,0.363873,0.075,0.051918,0.100446,0.165094
meghnas,5,0.1628,0.185159,0.161132,0.118908,0.403434,0.1,0.046417,0.132813,0.182535
meghnas,6,0.059713,0.081148,0.066952,0.046784,0.24563,0.04,0.007177,0.043527,0.047887
meghnas,7,0.294239,0.442993,0.178217,0.22807,0.445961,0.145,0.219131,0.277344,0.292184
meghnas,8,0.301876,0.418902,0.211115,0.224172,0.371067,0.125,0.164426,0.185268,0.200633
meghnas,9,0.256766,0.244773,0.217826,0.19883,0.293879,0.17,0.081138,0.186384,0.264691
meghnas,10,0.150668,0.177689,0.140113,0.109162,0.260983,0.1,0.041079,0.135045,0.145742
meghnas,11,0.11213,0.130509,0.106097,0.116959,0.291897,0.11,0.039002,0.119978,0.175962
meghnas,12,0.198065,0.227726,0.198735,0.19883,0.327684,0.17,0.124531,0.144531,0.199629
meghnas,13,0.327677,0.4183,0.271395,0.269006,0.285782,0.18,0.227894,0.204799,0.272388
meghnas,14,0.26573,0.280998,0.257087,0.230019,0.461387,0.195,0.139833,0.249442,0.24825
meghnas,15,0.307054,0.476485,0.167342,0.212476,0.391892,0.105,0.185867,0.184152,0.213931
meghnas,16,0.107451,0.17255,0.095877,0.095517,0.390603,0.06,0.057493,0.11942,0.15364
meghnas,17,0.207213,0.353121,0.077481,0.173489,0.334672,0.08,0.134241,0.131696,0.192604
meghnas,18,0.163983,0.26014,0.100351,0.155945,0.365139,0.085,0.107698,0.129464,0.156489
meghnas,19,0.468527,0.63096,0.296541,0.331384,0.402834,0.175,0.342442,0.292969,0.279629
meghnas,20,0.112052,0.187641,0.09283,0.05848,0.443961,0.055,0.029821,0.138393,0.18722
meghnas,21,0.092323,0.105415,0.106483,0.074074,0.388915,0.075,0.027016,0.081473,0.091061
meghnas,22,0.110106,0.143921,0.091211,0.105263,0.325461,0.06,0.036798,0.097098,0.15693
meghnas,23,0.188957,0.214189,0.161094,0.155945,0.260983,0.13,0.075855,0.164621,0.232509
meghnas,24,0.028075,0.050013,0.038297,0.023392,0.950401,0.03,0.006795,0.020089,0.01737
meghnas,25,0.227192,0.27631,0.193606,0.185185,0.337184,0.165,0.103381,0.343192,0.451726
meghnas,26,0.10498,0.14916,0.080412,0.074074,0.213417,0.06,0.026487,0.049107,0.052535
meghnas,27,0.166441,0.193282,0.128929,0.122807,0.102346,0.1,0.042482,0.098214,0.132429
meghnas,28,0.161512,0.143545,0.175248,0.111111,0.225161,0.1,0.025449,0.125,0.13602
meghnas,29,0.257699,0.357633,0.202206,0.226121,0.280198,0.15,0.171585,0.222656,0.263845
meghnas,30,0.24905,0.233567,0.294535,0.163743,0.461387,0.17,0.06252,0.223772,0.226627
meghnas,31,0.334065,0.346979,0.254233,0.230019,0.34158,0.14,0.113728,0.164063,0.228838
meghnas,32,0.018507,0.046352,0.043773,0.015595,0.311887,0.035,0.002878,0.037388,0.026125
pratikm,1,0.259513,0.296265,0.219793,0.317739,0.387766,0.24,0.284822,0.303571,0.331429
pratikm,2,0.233685,0.21073,0.249103,0.290448,0.394237,0.265,0.230244,0.276786,0.244406
pratikm,3,0.260946,0.397593,0.195611,0.253411,0.507516,0.195,0.267315,0.318638,0.303437
pratikm,4,0.048317,0.088844,0.050098,0.077973,0.51478,0.075,0.042591,0.125,0.129948
pratikm,5,0.236274,0.132991,0.323036,0.267057,0.283475,0.29,0.090483,0.394531,0.414194
pratikm,6,0.079967,0.047681,0.109106,0.099415,0.214927,0.12,0.014009,0.079799,0.073667
pratikm,7,0.503503,0.466357,0.477419,0.469786,0.283885,0.405,0.381444,0.4375,0.46989
pratikm,8,0.377032,0.259589,0.42115,0.405458,0.394657,0.415,0.256658,0.440848,0.390037
pratikm,9,0.228336,0.188393,0.218057,0.212476,0.346515,0.19,0.083579,0.232143,0.311969
pratikm,10,0.106452,0.148183,0.119172,0.105263,0.345821,0.125,0.046471,0.152902,0.18293
pratikm,11,0.164272,0.119303,0.17976,0.212476,0.16824,0.205,0.060626,0.194754,0.243552
pratikm,12,0.255005,0.183404,0.270238,0.341131,0.260983,0.3,0.201752,0.303013,0.348979
pratikm,13,0.326685,0.377024,0.256913,0.329435,0.302314,0.26,0.265038,0.331473,0.413335
pratikm,14,0.216191,0.2092,0.18273,0.233918,0.452674,0.205,0.155044,0.307478,0.387955
pratikm,15,0.348681,0.313086,0.253037,0.382066,0.399708,0.285,0.225598,0.256138,0.363466
pratikm,16,0.188404,0.194009,0.151182,0.251462,0.151303,0.18,0.116297,0.205915,0.341271
pratikm,17,0.203757,0.281349,0.179953,0.208577,0.39915,0.175,0.180858,0.261161,0.355108
pratikm,18,0.126602,0.163374,0.14856,0.181287,0.444497,0.17,0.10564,0.214844,0.283539
pratikm,19,0.36448,0.31988,0.393228,0.387914,0.655015,0.345,0.289594,0.431362,0.534847
pratikm,20,0.239915,0.127476,0.243743,0.300195,0.165137,0.285,0.105986,0.256138,0.326463
pratikm,21,0.087486,0.076385,0.117166,0.11306,0.429853,0.15,0.028346,0.107701,0.106893
pratikm,22,0.194753,0.153572,0.186625,0.230019,0.228744,0.21,0.063504,0.15904,0.21177
pratikm,23,0.331765,0.232214,0.285318,0.335283,0.173058,0.28,0.145116,0.279018,0.351058
pratikm,24,0.000421,0.008298,0.034286,0.015595,0.98016,0.05,0.005811,0.03125,0.022921
pratikm,25,0.321302,0.245099,0.251687,0.346979,0.231675,0.25,0.163661,0.282924,0.308847
pratikm,26,0.163471,0.110053,0.229511,0.179337,0.128855,0.21,0.046544,0.133929,0.135647
pratikm,27,0.275128,0.131612,0.297813,0.321637,0.081877,0.34,0.08143,0.257254,0.378478
pratikm,28,0.215573,0.085886,0.238999,0.28655,0.081877,0.3,0.073815,0.239955,0.223199
pratikm,29,0.261156,0.259388,0.246481,0.2846,0.38268,0.23,0.193154,0.239955,0.319539
pratikm,30,0.195003,0.176836,0.246712,0.226121,0.356828,0.245,0.127081,0.354353,0.40736
pratikm,31,0.519026,0.35079,0.38347,0.475634,0.180385,0.36,0.242741,0.508929,0.602069
pratikm,32,0.097922,0.027275,0.124571,0.107212,0.277951,0.13,0.014938,0.103795,0.092669
prerana,1,0.217282,0.297493,0.177909,0.17154,0.605107,0.145,0.15264,0.302455,0.278283
prerana,2,0.164299,0.29461,0.104748,0.132554,0.53179,0.085,0.112599,0.192522,0.19209
prerana,3,0.239679,0.40366,0.180609,0.210526,0.520158,0.155,0.216235,0.335379,0.34985
prerana,4,0.078863,0.120431,0.102241,0.062378,0.583373,0.075,0.034721,0.114397,0.134138
prerana,5,0.119346,0.148584,0.141579,0.079922,0.523393,0.09,0.031789,0.098772,0.136615
prerana,6,0.09574,0.066683,0.127502,0.074074,0.337742,0.115,0.011568,0.057478,0.052353
prerana,7,0.338113,0.446578,0.24918,0.280702,0.467101,0.185,0.229861,0.396205,0.407597
prerana,8,0.229466,0.359288,0.182807,0.187135,0.481152,0.16,0.147247,0.242188,0.224522
prerana,9,0.159711,0.223189,0.182498,0.105263,0.530738,0.12,0.053521,0.169085,0.238192
prerana,10,0.19194,0.171797,0.1889,0.126706,0.345821,0.125,0.050661,0.241629,0.264293
prerana,11,0.044518,0.091828,0.052567,0.02729,0.645201,0.04,0.011003,0.095424,0.121777
prerana,12,0.122462,0.214014,0.126114,0.099415,0.527789,0.095,0.05966,0.207589,0.26218
prerana,13,0.190218,0.302306,0.120329,0.155945,0.533774,0.11,0.122982,0.199219,0.261282
prerana,14,0.176391,0.272148,0.089976,0.136452,0.565946,0.055,0.092833,0.237723,0.270063
prerana,15,0.201141,0.33467,0.119364,0.173489,0.532572,0.115,0.147083,0.220424,0.290453
prerana,16,0.109305,0.146453,0.08018,0.076023,0.616609,0.05,0.039731,0.126674,0.141072
prerana,17,0.231043,0.340236,0.130202,0.161793,0.463628,0.105,0.11167,0.195313,0.29957
prerana,18,0.150011,0.242316,0.136681,0.118908,0.553613,0.11,0.070263,0.251674,0.244685
prerana,19,0.365505,0.502682,0.358055,0.311891,0.500268,0.3,0.294841,0.439174,0.407685
prerana,20,0.095779,0.178716,0.077057,0.031189,0.6008,0.055,0.015412,0.105469,0.130239
prerana,21,0.051419,0.075006,0.063211,0.040936,0.552668,0.07,0.016013,0.12221,0.120901
prerana,22,0.082583,0.131411,0.087161,0.064327,0.535014,0.075,0.022261,0.129464,0.146104
prerana,23,0.081137,0.154174,0.086313,0.060429,0.524756,0.075,0.035851,0.147879,0.223581
prerana,24,0.025473,0.060416,0.044583,0.013645,0.960322,0.04,0.003844,0.032366,0.021119
prerana,25,0.16606,0.29624,0.11867,0.11306,0.384078,0.09,0.073779,0.135603,0.224258
prerana,26,0.061421,0.141589,0.034132,0.019493,0.488242,0.025,0.011294,0.016183,0.012057
prerana,27,0.190797,0.182477,0.1577,0.134503,0.143284,0.095,0.042482,0.143973,0.227175
prerana,28,0.129533,0.189296,0.094836,0.064327,0.1774,0.07,0.022443,0.066964,0.072138
prerana,29,0.1781,0.237654,0.181881,0.155945,0.596183,0.155,0.095621,0.271205,0.28278
prerana,30,0.08027,0.1456,0.072043,0.074074,0.612417,0.07,0.04046,0.140067,0.224248
prerana,31,0.288429,0.30722,0.232905,0.265107,0.321431,0.205,0.137738,0.379464,0.399239
prerana,32,0.038275,0.051792,0.074935,0.015595,0.481566,0.055,0.000911,0.05692,0.04364
prtk,1,0.188549,0.301103,0.150449,0.204678,0.496436,0.155,0.174136,0.25279,0.249868
prtk,2,0.145424,0.25648,0.127386,0.150097,0.497402,0.115,0.125897,0.193638,0.242594
prtk,3,0.215021,0.355252,0.104632,0.233918,0.469588,0.12,0.249791,0.293527,0.293428
prtk,4,0.048882,0.092605,0.059663,0.070175,0.528498,0.075,0.037782,0.147321,0.203238
prtk,5,0.060922,0.091426,0.065255,0.076023,0.508398,0.075,0.034139,0.125,0.190225
prtk,6,0.030231,0.048734,0.049173,0.046784,0.24563,0.055,0.006595,0.059152,0.054105
prtk,7,0.274326,0.416169,0.202823,0.263158,0.347306,0.17,0.246858,0.276228,0.403703
prtk,8,0.224327,0.309476,0.166763,0.206628,0.465426,0.16,0.160345,0.215402,0.317031
prtk,9,0.095438,0.140336,0.09418,0.083821,0.570214,0.075,0.041826,0.18471,0.279816
prtk,10,0.087906,0.105189,0.091481,0.079922,0.413694,0.075,0.033774,0.083147,0.130696
prtk,11,0.099946,0.092855,0.078715,0.105263,0.486215,0.09,0.027234,0.149554,0.228597
prtk,12,0.159146,0.184608,0.194261,0.132554,0.494437,0.105,0.064251,0.130022,0.21447
prtk,13,0.208935,0.324793,0.148251,0.202729,0.409778,0.135,0.154971,0.224888,0.266903
prtk,14,0.117125,0.210579,0.113657,0.126706,0.592086,0.105,0.09338,0.243862,0.347887
prtk,15,0.188142,0.288694,0.134714,0.194932,0.477863,0.125,0.155718,0.206473,0.291803
prtk,16,0.070819,0.121434,0.068803,0.081871,0.510253,0.07,0.043611,0.12221,0.202859
prtk,17,0.165061,0.229732,0.116433,0.155945,0.537317,0.125,0.100412,0.246652,0.34012
prtk,18,0.118729,0.198421,0.095877,0.128655,0.504016,0.095,0.077987,0.186942,0.168167
prtk,19,0.25419,0.407471,0.179066,0.269006,0.488805,0.18,0.245036,0.307478,0.312771
prtk,20,0.083529,0.10925,0.097574,0.083821,0.426534,0.075,0.030623,0.133371,0.176762
prtk,21,0.053285,0.079418,0.05866,0.054581,0.409384,0.055,0.018326,0.070871,0.099573
prtk,22,0.084752,0.119153,0.113502,0.08577,0.470536,0.095,0.029256,0.138951,0.183209
prtk,23,0.099815,0.147832,0.099618,0.101365,0.348907,0.09,0.042154,0.098772,0.1583
prtk,24,0.01296,0.038832,0.029157,0.015595,0.930562,0.035,0.003042,0.030692,0.019843
prtk,25,0.170095,0.219403,0.143739,0.159844,0.384078,0.13,0.068769,0.166853,0.177389
prtk,26,0.05113,0.059163,0.096224,0.068226,0.340258,0.1,0.021168,0.083705,0.066477
prtk,27,0.078574,0.096917,0.101778,0.101365,0.204692,0.105,0.032463,0.106585,0.16751
prtk,28,0.043664,0.066984,0.072004,0.054581,0.368445,0.085,0.012916,0.064174,0.045154
prtk,29,0.201864,0.286764,0.160052,0.185185,0.43392,0.16,0.133348,0.199777,0.236338
prtk,30,0.071516,0.111206,0.08153,0.099415,0.554328,0.08,0.053631,0.107143,0.183719
prtk,31,0.164943,0.24367,0.090285,0.167641,0.371805,0.095,0.104857,0.130022,0.188653
prtk,32,0.018572,0.012384,0.058275,0.023392,0.413694,0.045,0.00286,0.035714,0.03032
rajitas,1,0.187655,0.310755,0.089475,0.210526,0.387766,0.095,0.201607,0.184152,0.254685
rajitas,2,0.193767,0.227425,0.12002,0.263158,0.316863,0.145,0.181568,0.248884,0.258975
rajitas,3,0.275233,0.401153,0.146207,0.321637,0.317875,0.145,0.304387,0.233259,0.357981
rajitas,4,0.048462,0.104337,0.027884,0.077973,0.391311,0.04,0.052447,0.066964,0.085573
rajitas,5,0.064826,0.131186,0.035944,0.087719,0.313465,0.06,0.042828,0.104911,0.146612
rajitas,6,0.028759,0.038531,0.080566,0.048733,0.368445,0.08,0.005884,0.075335,0.063921
rajitas,7,0.27518,0.360391,0.20452,0.311891,0.319119,0.215,0.301873,0.291853,0.417117
rajitas,8,0.16581,0.259514,0.076864,0.179337,0.449698,0.115,0.143896,0.19308,0.19076
rajitas,9,0.15887,0.186488,0.114466,0.179337,0.267562,0.12,0.110959,0.108817,0.195704
rajitas,10,0.150918,0.177363,0.126654,0.146199,0.210078,0.115,0.052683,0.169643,0.170353
rajitas,11,0.086355,0.147756,0.041267,0.087719,0.256566,0.025,0.040879,0.049107,0.103135
rajitas,12,0.203099,0.264979,0.123607,0.204678,0.294333,0.115,0.115732,0.128348,0.177224
rajitas,13,0.475664,0.37636,0.366539,0.54191,0.145252,0.38,0.39886,0.623326,0.702885
rajitas,14,0.091087,0.186438,0.03633,0.163743,0.374255,0.065,0.123401,0.144531,0.19536
rajitas,15,0.252902,0.361419,0.175865,0.274854,0.298106,0.195,0.229715,0.277344,0.262153
rajitas,16,0.088971,0.154024,0.067531,0.095517,0.377309,0.055,0.051426,0.161272,0.24794
rajitas,17,0.197618,0.253146,0.113194,0.222222,0.371516,0.135,0.1226,0.223772,0.271907
rajitas,18,0.135251,0.216596,0.077134,0.150097,0.424657,0.075,0.097351,0.175223,0.162465
rajitas,19,0.387429,0.532289,0.154306,0.419103,0.293939,0.205,0.376016,0.324219,0.44596
rajitas,20,0.075262,0.11652,0.059624,0.095517,0.217416,0.05,0.040296,0.097656,0.186538
rajitas,21,0.096805,0.109476,0.093602,0.099415,0.163754,0.07,0.038401,0.070313,0.082752
rajitas,22,0.105611,0.123164,0.122257,0.11306,0.373819,0.11,0.037727,0.143973,0.16983
rajitas,23,0.19148,0.166057,0.072737,0.231969,0.158404,0.095,0.092414,0.137277,0.275621
rajitas,24,0.078692,0.056079,0.05785,0.079922,0.910722,0.06,0.013499,0.044085,0.061359
rajitas,25,0.172448,0.219955,0.13429,0.187135,0.266844,0.115,0.098025,0.232143,0.242282
rajitas,26,0.053246,0.100401,0.05195,0.05848,0.255698,0.045,0.020439,0.048549,0.067258
rajitas,27,0.138537,0.145976,0.110533,0.148148,0.102346,0.12,0.053977,0.069754,0.104321
rajitas,28,0.079626,0.083404,0.105018,0.097466,0.1774,0.1,0.026305,0.111607,0.124206
rajitas,29,0.295632,0.299524,0.222608,0.327485,0.228958,0.22,0.1982,0.296317,0.403433
rajitas,30,0.116534,0.183881,0.049674,0.138402,0.368445,0.06,0.088097,0.118304,0.172031
rajitas,31,0.183186,0.247781,0.115893,0.191033,0.311357,0.12,0.107352,0.185826,0.275422
rajitas,32,0.014051,0.014866,0.04817,0.02729,0.277951,0.04,0.003079,0.024554,0.028894
rajkumar,1,0.356725,0.438205,0.276409,0.362573,0.25736,0.265,0.345247,0.277344,0.413858
rajkumar,2,0.18822,0.304086,0.162675,0.192982,0.377043,0.155,0.152457,0.142299,0.243516
rajkumar,3,0.646377,0.497343,0.62945,0.62963,0.279947,0.56,0.665446,0.514509,0.622544
rajkumar,4,0.180636,0.195312,0.140576,0.183236,0.267842,0.165,0.095165,0.185826,0.217351
rajkumar,5,0.207082,0.170444,0.212002,0.231969,0.193505,0.215,0.095147,0.167969,0.217083
rajkumar,6,0.09319,0.067285,0.169733,0.081871,0.184223,0.12,0.013644,0.074777,0.080251
rajkumar,7,0.938316,0.599423,0.973852,0.88694,0.100668,0.82,0.579681,0.727679,1
rajkumar,8,0.360182,0.367736,0.378495,0.360624,0.260983,0.345,0.261668,0.258371,0.384234
rajkumar,9,0.494486,0.326824,0.489028,0.444444,0.083339,0.415,0.20627,0.390067,0.496902
rajkumar,10,0.260906,0.188092,0.280034,0.263158,0.12524,0.255,0.083743,0.191406,0.254801
rajkumar,11,0.111184,0.147907,0.106907,0.109162,0.274231,0.11,0.040697,0.09933,0.166839
rajkumar,12,0.27497,0.264452,0.257125,0.311891,0.205399,0.28,0.206908,0.251116,0.307686
rajkumar,13,0.769575,0.461068,0.666512,0.717349,0.103921,0.585,0.521842,0.510045,0.617091
rajkumar,14,0.249957,0.304788,0.26588,0.237817,0.417821,0.23,0.149069,0.323103,0.325977
rajkumar,15,0.449127,0.502407,0.322843,0.39961,0.204321,0.31,0.378894,0.353237,0.44545
rajkumar,16,0.142335,0.16365,0.197347,0.11501,0.403898,0.12,0.067858,0.083705,0.122125
rajkumar,17,0.322774,0.385034,0.255428,0.294347,0.251771,0.25,0.209039,0.271763,0.431131
rajkumar,18,0.370119,0.260867,0.433183,0.389864,0.285782,0.415,0.15825,0.453683,0.501846
rajkumar,19,0.927433,0.693632,1,1,0.127728,1,1,0.811384,0.968415
rajkumar,20,0.32075,0.194359,0.307224,0.306043,0.078004,0.305,0.119649,0.228795,0.310474
rajkumar,21,0.143623,0.122011,0.16603,0.126706,0.347976,0.15,0.040332,0.132254,0.136057
rajkumar,22,0.34943,0.235172,0.401712,0.321637,0.083668,0.345,0.12812,0.210938,0.239906
rajkumar,23,0.398273,0.241915,0.386286,0.417154,0.026517,0.41,0.189037,0.353795,0.511934
rajkumar,24,0.074605,0.059012,0.095222,0.081871,0.900803,0.095,0.017543,0.045201,0.047999
rajkumar,25,0.419724,0.345425,0.302904,0.407407,0.055825,0.285,0.207655,0.322545,0.530082
rajkumar,26,0.114838,0.117899,0.11115,0.122807,0.128855,0.1,0.044231,0.056362,0.082622
rajkumar,27,0.263298,0.191878,0.246442,0.231969,0.102346,0.23,0.079098,0.12779,0.196679
rajkumar,28,0.184974,0.147932,0.171545,0.14425,0.081877,0.135,0.041243,0.142299,0.135369
rajkumar,29,0.548902,0.422537,0.557368,0.54191,0.152096,0.505,0.341804,0.520089,0.604498
rajkumar,30,0.160579,0.185861,0.224999,0.159844,0.368445,0.175,0.077604,0.226563,0.248473
rajkumar,31,0.490858,0.376535,0.4338,0.434698,0.19046,0.365,0.210715,0.418527,0.477862
rajkumar,32,0.064576,0.041564,0.097227,0.064327,0.277951,0.1,0.007888,0.032924,0.033871
shehzaad,1,0.317267,0.297017,0.243897,0.395712,0.366031,0.27,0.447699,0.433594,0.543608
shehzaad,2,0.123605,0.199749,0.130047,0.175439,0.463014,0.15,0.147065,0.282924,0.30633
shehzaad,3,0.399732,0.401554,0.306182,0.495127,0.267304,0.335,0.509673,0.493862,0.643552
shehzaad,4,0.087683,0.117197,0.11759,0.122807,0.405029,0.12,0.076165,0.282366,0.325389
shehzaad,5,0.080151,0.101228,0.09364,0.101365,0.463414,0.11,0.038092,0.109375,0.122867
shehzaad,6,0.036777,0.047907,0.061437,0.052632,0.24563,0.075,0.009272,0.071987,0.066983
shehzaad,7,0.280307,0.348132,0.22658,0.331384,0.326165,0.235,0.296371,0.359375,0.53447
shehzaad,8,0.292386,0.309025,0.259516,0.358674,0.276709,0.245,0.296244,0.417969,0.392376
shehzaad,9,0.1531,0.158686,0.199121,0.179337,0.320197,0.19,0.09522,0.231027,0.267851
shehzaad,10,0.120529,0.123891,0.195727,0.134503,0.227046,0.17,0.059333,0.216518,0.24062
shehzaad,11,0.109239,0.100376,0.110533,0.120858,0.362557,0.12,0.044668,0.165179,0.176867
shehzaad,12,0.283698,0.22008,0.313009,0.354776,0.183164,0.315,0.231792,0.464286,0.576708
shehzaad,13,0.28977,0.261645,0.34876,0.366472,0.343647,0.345,0.265767,0.526228,0.589065
shehzaad,14,0.222552,0.220506,0.259362,0.274854,0.417821,0.235,0.183754,0.339844,0.485042
shehzaad,15,0.223288,0.279318,0.197154,0.267057,0.415339,0.175,0.224852,0.310268,0.319644
shehzaad,16,0.087289,0.103986,0.072313,0.107212,0.510253,0.075,0.061974,0.144531,0.214002
shehzaad,17,0.267767,0.299323,0.138378,0.335283,0.224139,0.175,0.235344,0.250558,0.363985
shehzaad,18,0.189811,0.194059,0.226349,0.241715,0.37506,0.225,0.175921,0.357143,0.380341
shehzaad,19,0.426664,0.462823,0.344055,0.444444,0.391371,0.345,0.432707,0.606585,0.606923
shehzaad,20,0.163352,0.120281,0.173589,0.214425,0.19999,0.18,0.073159,0.209263,0.25318
shehzaad,21,0.044321,0.06731,0.082456,0.068226,0.368445,0.085,0.032827,0.095424,0.095108
shehzaad,22,0.146173,0.146403,0.207683,0.140351,0.325461,0.14,0.0566,0.154576,0.171345
shehzaad,23,0.155334,0.123765,0.123453,0.216374,0.231675,0.145,0.098299,0.15904,0.20342
shehzaad,24,0.017784,0.047581,0.053762,0.019493,0.930562,0.05,0.004809,0.042969,0.027108
shehzaad,25,0.175116,0.201279,0.202245,0.208577,0.278567,0.18,0.114074,0.307478,0.434679
shehzaad,26,0.10151,0.063224,0.168923,0.11501,0.340258,0.16,0.037727,0.161272,0.119763
shehzaad,27,0.186604,0.123866,0.258552,0.210526,0.122815,0.235,0.071811,0.208705,0.240435
shehzaad,28,0.122028,0.098245,0.165645,0.134503,0.15352,0.17,0.038492,0.160156,0.147738
shehzaad,29,0.158949,0.213537,0.200625,0.194932,0.485161,0.18,0.15069,0.291853,0.326094
shehzaad,30,0.126654,0.135498,0.150102,0.163743,0.426534,0.12,0.124531,0.230469,0.330019
shehzaad,31,0.191007,0.196841,0.20506,0.255361,0.291207,0.215,0.179,0.348772,0.555178
shehzaad,32,0.028233,0.013612,0.092869,0.046784,0.379758,0.1,0.007578,0.075335,0.051523
srijay,1,0.453057,0.423214,0.466312,0.376218,0.366031,0.37,0.293074,0.512835,0.556773
srijay,2,0.283448,0.283931,0.363647,0.265107,0.428625,0.29,0.215233,0.354911,0.391161
srijay,3,0.445354,0.532389,0.430907,0.409357,0.324197,0.335,0.454603,0.328683,0.432302
srijay,4,0.153153,0.178115,0.2083,0.120858,0.487342,0.15,0.067384,0.198661,0.214581
srijay,5,0.141389,0.188243,0.164333,0.124756,0.343454,0.14,0.071447,0.126116,0.18077
srijay,6,0.145266,0.089997,0.234255,0.126706,0.15352,0.19,0.023391,0.146763,0.12846
srijay,7,0.574506,0.507069,0.608585,0.522417,0.241604,0.535,0.546581,0.383929,0.47447
srijay,8,0.363875,0.35267,0.449998,0.317739,0.386793,0.365,0.247659,0.382254,0.347982
srijay,9,0.195568,0.190599,0.246404,0.19883,0.307038,0.245,0.107298,0.239955,0.311789
srijay,10,0.162406,0.146277,0.236955,0.157895,0.294919,0.21,0.06212,0.266741,0.28148
srijay,11,0.127522,0.120231,0.163871,0.101365,0.380223,0.12,0.045196,0.131138,0.179113
srijay,12,0.153744,0.186438,0.210922,0.157895,0.472204,0.205,0.076675,0.262835,0.324477
srijay,13,0.328505,0.314741,0.376991,0.329435,0.368445,0.36,0.258753,0.330915,0.368094
srijay,14,0.221225,0.252344,0.243087,0.212476,0.513667,0.185,0.134787,0.236607,0.263201
srijay,15,0.299168,0.329481,0.319411,0.294347,0.399708,0.285,0.228914,0.338728,0.449111
srijay,16,0.127548,0.144422,0.168923,0.116959,0.457076,0.145,0.088024,0.162388,0.21226
srijay,17,0.264981,0.298446,0.261059,0.241715,0.417573,0.205,0.163661,0.328125,0.37165
srijay,18,0.15887,0.218325,0.18192,0.17154,0.434577,0.2,0.115659,0.248884,0.213338
srijay,19,0.473456,0.524868,0.448648,0.391813,0.454417,0.365,0.374431,0.546317,0.691304
srijay,20,0.094347,0.118777,0.101662,0.103314,0.339402,0.11,0.045852,0.094866,0.092504
srijay,21,0.22919,0.209727,0.290563,0.177388,0.204692,0.245,0.061883,0.141183,0.152651
srijay,22,0.178954,0.19258,0.218288,0.1423,0.309341,0.16,0.067129,0.203125,0.236124
srijay,23,0.196948,0.14728,0.253924,0.177388,0.348907,0.225,0.074598,0.271205,0.295922
srijay,24,0.014813,0.046954,0.043619,0.013645,0.950401,0.04,0.004973,0.016183,0.007358
srijay,25,0.272775,0.275132,0.295731,0.241715,0.266844,0.255,0.138667,0.227679,0.274996
srijay,26,0.099815,0.08892,0.185314,0.103314,0.340258,0.165,0.028892,0.143973,0.11072
srijay,27,0.099052,0.111381,0.164372,0.087719,0.307038,0.13,0.034375,0.119978,0.177627
srijay,28,0.177337,0.094134,0.197269,0.183236,0.057997,0.21,0.045779,0.147879,0.147014
srijay,29,0.247052,0.32354,0.272861,0.183236,0.485161,0.16,0.148122,0.203125,0.247257
srijay,30,0.154901,0.213387,0.161634,0.146199,0.449769,0.145,0.096003,0.160714,0.228409
srijay,31,0.32309,0.328503,0.349801,0.298246,0.281132,0.325,0.18747,0.286272,0.394249
srijay,32,0.030533,0.024417,0.084037,0.02924,0.44763,0.085,0.004008,0.053013,0.04067
vaibhavt,1,0.188983,0.308122,0.099001,0.196881,0.438478,0.09,0.187871,0.159598,0.206817
vaibhavt,2,0.186236,0.224041,0.19106,0.226121,0.454417,0.19,0.138813,0.235491,0.233891
vaibhavt,3,0.257581,0.422061,0.118323,0.259259,0.425338,0.115,0.250665,0.15904,0.226866
vaibhavt,4,0.06267,0.103058,0.054032,0.081871,0.50106,0.055,0.052629,0.094308,0.108244
vaibhavt,5,0.092638,0.12166,0.084809,0.103314,0.403434,0.075,0.040132,0.08817,0.118727
vaibhavt,6,0.047279,0.061444,0.081453,0.044834,0.214927,0.06,0.00736,0.051339,0.043864
vaibhavt,7,0.205938,0.32557,0.099695,0.22807,0.410726,0.115,0.198783,0.191406,0.242803
vaibhavt,8,0.189246,0.258812,0.17895,0.20078,0.473288,0.16,0.168962,0.233259,0.273059
vaibhavt,9,0.115758,0.175984,0.081337,0.11501,0.451785,0.09,0.053886,0.085938,0.105948
vaibhavt,10,0.084239,0.109802,0.086544,0.081871,0.396726,0.07,0.033064,0.085379,0.09816
vaibhavt,11,0.063787,0.107546,0.053608,0.072125,0.362557,0.045,0.033373,0.054688,0.095674
vaibhavt,12,0.110737,0.174655,0.095684,0.124756,0.494437,0.125,0.080519,0.190848,0.151069
vaibhavt,13,0.280399,0.330534,0.180801,0.267057,0.360179,0.18,0.158396,0.160156,0.331995
vaibhavt,14,0.11815,0.240035,0.056308,0.150097,0.400394,0.07,0.124258,0.138951,0.235305
vaibhavt,15,0.202127,0.34926,0.111535,0.175439,0.462233,0.09,0.158524,0.155134,0.202034
vaibhavt,16,0.073133,0.135097,0.070037,0.079922,0.457076,0.055,0.045852,0.082031,0.10645
vaibhavt,17,0.159895,0.270268,0.08423,0.167641,0.408361,0.1,0.133439,0.134487,0.219172
vaibhavt,18,0.117664,0.194334,0.104131,0.130604,0.464336,0.085,0.097916,0.162388,0.235245
vaibhavt,19,0.354267,0.506543,0.224382,0.329435,0.431491,0.22,0.319088,0.354353,0.350036
vaibhavt,20,0.049434,0.118676,0.043079,0.060429,0.339402,0.055,0.028837,0.066964,0.094188
vaibhavt,21,0.05502,0.08185,0.069575,0.054581,0.409384,0.055,0.021532,0.059152,0.058143
vaibhavt,22,0.074776,0.122036,0.093332,0.089669,0.34158,0.085,0.037436,0.078683,0.084186
vaibhavt,23,0.104034,0.159714,0.092753,0.118908,0.275637,0.09,0.059806,0.108259,0.149772
vaibhavt,24,0.010344,0.035297,0.026727,0.009747,0.98016,0.035,0.002241,0.012277,0.005785
vaibhavt,25,0.163615,0.226172,0.118092,0.159844,0.325461,0.09,0.079881,0.128906,0.216473
vaibhavt,26,0.028759,0.053096,0.052297,0.038986,0.488242,0.06,0.018017,0.050781,0.054484
vaibhavt,27,0.104914,0.1363,0.063905,0.11306,0.184223,0.075,0.046508,0.079799,0.125904
vaibhavt,28,0.088287,0.091276,0.087547,0.097466,0.249043,0.105,0.024775,0.064174,0.070141
vaibhavt,29,0.150563,0.224342,0.137529,0.169591,0.493702,0.13,0.126662,0.211496,0.31118
vaibhavt,30,0.055007,0.084382,0.080875,0.074074,0.658888,0.07,0.037035,0.125558,0.172647
vaibhavt,31,0.166152,0.290649,0.093756,0.1423,0.402028,0.085,0.093653,0.144531,0.245414
vaibhavt,32,0,0.019278,0.018358,0,0.481566,0.02,0,0.006138,0.003007
