@relation 'scanpath_complexty-weka.filters.unsupervised.attribute.Remove-R10-weka.filters.unsupervised.attribute.Normalize-S1.0-T0.0-weka.filters.unsupervised.attribute.Remove-R1-5,9'

@attribute RC numeric
@attribute SD numeric
@attribute RD numeric
@attribute Annotated_complexity numeric

@data
0.36,0.241648,0.439732,0.6
0.215,0.151383,0.27567,0.2
0.39,0.375943,0.532366,0.6
0.2,0.063941,0.289621,0.2
0.155,0.051754,0.188058,0.05
0.075,0.007086,0.060826,0.05
0.49,0.466408,0.595982,0.8
0.4,0.183681,0.47154,0.4
0.26,0.078533,0.31808,0.4
0.19,0.056891,0.195871,0.2
0.11,0.033173,0.13058,0.05
0.33,0.19452,0.376674,0.2
0.42,0.257369,0.44029,0.6
0.23,0.12464,0.328683,0.6
0.54,0.309305,0.796875,0.8
0.12,0.046016,0.165737,0.4
0.285,0.140817,0.399554,1
0.315,0.151893,0.453683,0.4
0.525,0.465552,0.818638,0.6
0.185,0.052629,0.168527,0.2
0.15,0.024156,0.140067,0.05
0.315,0.071629,0.308594,0.4
0.295,0.062666,0.256696,0.2
0.06,0.003152,0.023996,0.05
0.185,0.067275,0.220424,0.2
0.135,0.032845,0.152344,0.05
0.165,0.035887,0.183036,0.2
0.14,0.023737,0.144531,0.05
0.29,0.161238,0.342076,0.6
0.21,0.079608,0.299665,0.05
0.195,0.137483,0.257254,0.6
0.06,0.003352,0.044085,0.05
0.27,0.289522,0.24442,0.5
0.2,0.195613,0.151786,0.25
0.335,0.505338,0.296875,0.875
0.14,0.062229,0.110491,0.25
0.175,0.081466,0.136161,0.5
0.04,0.007851,0.026786,0.05
0.325,0.371461,0.213728,0.75
0.31,0.264182,0.210379,0.375
0.27,0.163406,0.222656,0.875
0.095,0.046016,0.102121,0.25
0.105,0.038766,0.108817,0.5
0.185,0.13772,0.154576,0.375
0.255,0.262706,0.211496,0.75
0.2,0.163552,0.228795,0.375
0.255,0.252195,0.263393,0.875
0.125,0.075363,0.107701,0.25
0.255,0.214996,0.195313,0.875
0.195,0.140799,0.222098,0.375
0.42,0.535559,0.302455,1
0.16,0.060316,0.111607,0.75
0.18,0.043702,0.184152,0.625
0.125,0.052847,0.136719,0.125
0.145,0.07254,0.113281,1
0.095,0.012278,0.034598,0.375
0.14,0.105348,0.138951,0.375
0.105,0.027016,0.151228,0.25
0.235,0.075345,0.106027,1
0.195,0.040259,0.13058,0.875
0.23,0.214468,0.192522,0.875
0.13,0.079116,0.176339,0.125
0.23,0.156447,0.167969,0.875
0.06,0.00654,0.018415,0.05
0.26,0.332532,0.253906,0.2
0.295,0.276023,0.268415,0.05
0.305,0.431195,0.352679,0.4
0.145,0.095293,0.217076,0.05
0.16,0.097406,0.126116,0.05
0.125,0.019638,0.056362,0.05
0.36,0.377928,0.530134,0.2
0.245,0.295551,0.302455,0.2
0.32,0.134404,0.253348,0.05
0.18,0.075892,0.126116,0.05
0.115,0.054797,0.100446,0.05
0.16,0.160273,0.145647,0.05
0.37,0.315973,0.275112,0.2
0.625,0.481983,0.538504,0.4
0.255,0.293821,0.253906,1
0.14,0.093398,0.260603,0.2
0.21,0.214741,0.336496,0.2
0.16,0.150927,0.158482,0.05
0.48,0.591886,0.486607,1
0.225,0.088953,0.131138,0.05
0.155,0.053011,0.098772,0.2
0.14,0.050078,0.131138,0.05
0.15,0.08797,0.160156,0.05
0.06,0.011805,0.016741,0.05
0.27,0.170456,0.430246,0.05
0.105,0.049204,0.072545,0.2
0.145,0.042682,0.116071,0.6
0.195,0.045451,0.112165,0.05
0.215,0.211936,0.287946,0.2
0.165,0.140143,0.207589,0.05
0.315,0.188946,0.372768,0.6
0.04,0.009874,0.021763,0.4
0.175,0.254345,0.284598,0.5
0.055,0.125679,0.144531,0.05
0.235,0.359165,0.320871,0.5
0.055,0.050643,0.125,0.05
0.075,0.049331,0.105469,0.05
0.035,0.00705,0.039063,0.05
0.195,0.299486,0.261161,0.5
0.165,0.209695,0.227679,0.375
0.125,0.080701,0.129464,0.25
0.07,0.046799,0.111049,0.125
0.08,0.045488,0.089844,0.125
0.105,0.099228,0.188058,0.25
0.175,0.209258,0.227121,0.875
0.105,0.149798,0.181362,0.125
0.225,0.280031,0.323103,1
0.045,0.062939,0.104353,0.25
0.18,0.167159,0.364955,0.625
0.12,0.131162,0.186384,0.5
0.29,0.390953,0.477121,0.75
0.09,0.038201,0.114955,0.25
0.06,0.024629,0.029576,0.05
0.095,0.041862,0.103237,0.25
0.07,0.04567,0.111049,0.125
0.045,0.006922,0.032366,0.05
0.105,0.094947,0.106585,0.375
0.075,0.023518,0.047991,0.05
0.04,0.027143,0.068638,0.375
0.065,0.017889,0.071987,0.05
0.17,0.155591,0.308036,0.125
0.1,0.078406,0.147879,0.125
0.135,0.141327,0.16183,0.75
0,0.001476,0,0.05
0.54,0.470252,0.392857,0.4
0.34,0.244289,0.257254,0.2
0.525,0.531734,0.318638,0.4
0.265,0.099446,0.242188,0.05
0.325,0.097734,0.241071,0.05
0.13,0.01379,0.068638,0.05
0.605,0.424436,0.478237,0.6
0.46,0.328943,0.281808,0.4
0.32,0.117281,0.188058,0.2
0.35,0.093653,0.3125,0.05
0.2,0.06937,0.099888,0.2
0.45,0.23008,0.239955,0.2
0.505,0.340474,0.296317,0.2
0.395,0.24642,0.259487,0.4
0.44,0.326119,0.374442,0.2
0.185,0.095949,0.127232,0.05
0.37,0.251047,0.244978,0.8
0.36,0.211626,0.332031,0.4
0.615,0.668488,1,0.6
0.52,0.174864,0.267299,0.2
0.23,0.065672,0.146205,0.2
0.26,0.081721,0.143415,0.2
0.335,0.129777,0.208705,1
0.105,0.011513,0.047991,0.2
0.235,0.115878,0.140625,0.05
0.17,0.044049,0.104911,0.05
0.255,0.060334,0.145647,0.2
0.19,0.034175,0.177455,0.2
0.38,0.25511,0.239397,0.4
0.25,0.121124,0.169643,0.05
0.445,0.217802,0.214286,0.6
0.12,0.009855,0.045759,0.05
0.225,0.245054,0.308594,1
0.18,0.164317,0.361049,0.285714
0.26,0.358546,0.370536,0.714286
0.105,0.048311,0.135603,0.142857
0.16,0.063158,0.185268,0.142857
0.045,0.0045,0.035156,0.05
0.315,0.266149,0.496094,0.285714
0.245,0.199439,0.36942,0.285714
0.185,0.084672,0.282924,0.571429
0.19,0.064251,0.194754,0.285714
0.125,0.035614,0.154576,0.05
0.145,0.099282,0.209263,0.285714
0.245,0.213247,0.285156,0.857143
0.19,0.144114,0.366629,0.142857
0.155,0.191624,0.25,0.571429
0.075,0.049568,0.088728,0.05
0.245,0.156192,0.392299,0.571429
0.15,0.106551,0.199777,0.142857
0.265,0.327504,0.359933,1
0.165,0.053631,0.165179,0.142857
0.11,0.024192,0.110491,0.142857
0.12,0.042118,0.140625,0.428571
0.13,0.048912,0.123884,0.142857
0.03,0.003898,0.03404,0.05
0.125,0.086676,0.15904,0.05
0.175,0.04148,0.191964,0.05
0.235,0.055325,0.204241,0.428571
0.15,0.028473,0.163504,0.05
0.19,0.162604,0.158482,0.428571
0.14,0.08551,0.24721,0.285714
0.235,0.121088,0.308594,0.285714
0.05,0.00337,0.019531,0.05
0.06,0.231829,0.137277,0.125
0.1,0.139888,0.136161,0.05
0.13,0.332113,0.254464,0.125
0.045,0.04117,0.090402,0.05
0.05,0.049113,0.09096,0.05
0.065,0.015667,0.083705,0.05
0.135,0.286006,0.246094,0.375
0.115,0.157886,0.169643,0.05
0.14,0.097843,0.237723,0.05
0.095,0.042045,0.116071,0.05
0.085,0.037254,0.121094,0.05
0.035,0.080318,0.121652,0.05
0.13,0.199475,0.183036,0.25
0.115,0.139086,0.189174,0.125
0.125,0.200423,0.207031,1
0.07,0.052556,0.137835,0.05
0.085,0.149688,0.126116,0.05
0.075,0.09706,0.117188,0.125
0.16,0.348581,0.285714,1
0.03,0.029384,0.068638,0.05
0.075,0.029293,0.09375,0.05
0.06,0.037855,0.089286,0.05
0.025,0.060517,0.082589,0.05
0.02,0.004408,0.007813,0.05
0.095,0.098936,0.165179,0.05
0.07,0.023573,0.071987,0.05
0.085,0.027125,0.091518,1
0.035,0.022771,0.023438,0.125
0.14,0.166193,0.233259,0.5
0.055,0.085966,0.190848,0.05
0.12,0.126863,0.129464,0.125
0.035,0.002478,0.00558,0.05
0.15,0.227566,0.291853,0.05
0.145,0.174026,0.246652,0.05
0.15,0.27677,0.344308,0.05
0.075,0.051918,0.100446,0.05
0.1,0.046417,0.132813,0.25
0.04,0.007177,0.043527,0.05
0.145,0.219131,0.277344,0.25
0.125,0.164426,0.185268,0.05
0.17,0.081138,0.186384,0.25
0.1,0.041079,0.135045,0.05
0.11,0.039002,0.119978,0.05
0.17,0.124531,0.144531,0.05
0.18,0.227894,0.204799,0.25
0.195,0.139833,0.249442,0.05
0.105,0.185867,0.184152,0.5
0.06,0.057493,0.11942,0.25
0.08,0.134241,0.131696,0.25
0.085,0.107698,0.129464,0.25
0.175,0.342442,0.292969,0.75
0.055,0.029821,0.138393,0.25
0.075,0.027016,0.081473,0.05
0.06,0.036798,0.097098,0.05
0.13,0.075855,0.164621,1
0.03,0.006795,0.020089,0.05
0.165,0.103381,0.343192,0.05
0.06,0.026487,0.049107,0.05
0.1,0.042482,0.098214,0.25
0.1,0.025449,0.125,0.05
0.15,0.171585,0.222656,0.5
0.17,0.06252,0.223772,0.05
0.14,0.113728,0.164063,0.5
0.035,0.002878,0.037388,0.05
0.24,0.284822,0.303571,0.571429
0.265,0.230244,0.276786,0.428571
0.195,0.267315,0.318638,0.428571
0.075,0.042591,0.125,0.285714
0.29,0.090483,0.394531,0.285714
0.12,0.014009,0.079799,0.05
0.405,0.381444,0.4375,0.714286
0.415,0.256658,0.440848,0.571429
0.19,0.083579,0.232143,0.428571
0.125,0.046471,0.152902,0.05
0.205,0.060626,0.194754,0.285714
0.3,0.201752,0.303013,0.571429
0.26,0.265038,0.331473,0.571429
0.205,0.155044,0.307478,0.714286
0.285,0.225598,0.256138,0.428571
0.18,0.116297,0.205915,0.428571
0.175,0.180858,0.261161,0.571429
0.17,0.10564,0.214844,0.428571
0.345,0.289594,0.431362,0.857143
0.285,0.105986,0.256138,0.714286
0.15,0.028346,0.107701,0.285714
0.21,0.063504,0.15904,0.285714
0.28,0.145116,0.279018,1
0.05,0.005811,0.03125,0.05
0.25,0.163661,0.282924,0.571429
0.21,0.046544,0.133929,0.142857
0.34,0.08143,0.257254,0.571429
0.3,0.073815,0.239955,0.285714
0.23,0.193154,0.239955,0.571429
0.245,0.127081,0.354353,0.428571
0.36,0.242741,0.508929,0.857143
0.13,0.014938,0.103795,0.142857
0.145,0.15264,0.302455,0.125
0.085,0.112599,0.192522,0.375
0.155,0.216235,0.335379,0.75
0.075,0.034721,0.114397,0.375
0.09,0.031789,0.098772,0.125
0.115,0.011568,0.057478,0.125
0.185,0.229861,0.396205,0.75
0.16,0.147247,0.242188,0.25
0.12,0.053521,0.169085,0.625
0.125,0.050661,0.241629,1
0.04,0.011003,0.095424,0.125
0.095,0.05966,0.207589,0.5
0.11,0.122982,0.199219,0.625
0.055,0.092833,0.237723,0.375
0.115,0.147083,0.220424,1
0.05,0.039731,0.126674,0.75
0.105,0.11167,0.195313,0.625
0.11,0.070263,0.251674,0.75
0.3,0.294841,0.439174,0.875
0.055,0.015412,0.105469,0.25
0.07,0.016013,0.12221,0.05
0.075,0.022261,0.129464,0.125
0.075,0.035851,0.147879,0.25
0.04,0.003844,0.032366,0.05
0.09,0.073779,0.135603,0.375
0.025,0.011294,0.016183,0.25
0.095,0.042482,0.143973,1
0.07,0.022443,0.066964,0.875
0.155,0.095621,0.271205,0.25
0.07,0.04046,0.140067,0.05
0.205,0.137738,0.379464,1
0.055,0.000911,0.05692,0.125
0.155,0.174136,0.25279,0.8
0.115,0.125897,0.193638,0.4
0.12,0.249791,0.293527,1
0.075,0.037782,0.147321,0.4
0.075,0.034139,0.125,0.6
0.055,0.006595,0.059152,0.05
0.17,0.246858,0.276228,1
0.16,0.160345,0.215402,0.8
0.075,0.041826,0.18471,0.8
0.075,0.033774,0.083147,0.05
0.09,0.027234,0.149554,0.2
0.105,0.064251,0.130022,0.6
0.135,0.154971,0.224888,0.6
0.105,0.09338,0.243862,0.8
0.125,0.155718,0.206473,0.8
0.07,0.043611,0.12221,0.4
0.125,0.100412,0.246652,1
0.095,0.077987,0.186942,0.6
0.18,0.245036,0.307478,0.6
0.075,0.030623,0.133371,0.4
0.055,0.018326,0.070871,0.4
0.095,0.029256,0.138951,0.6
0.09,0.042154,0.098772,1
0.035,0.003042,0.030692,0.2
0.13,0.068769,0.166853,0.8
0.1,0.021168,0.083705,0.4
0.105,0.032463,0.106585,1
0.085,0.012916,0.064174,0.2
0.16,0.133348,0.199777,1
0.08,0.053631,0.107143,0.6
0.095,0.104857,0.130022,0.6
0.045,0.00286,0.035714,0.2
0.095,0.201607,0.184152,0.4
0.145,0.181568,0.248884,0.4
0.145,0.304387,0.233259,0.4
0.04,0.052447,0.066964,0.2
0.06,0.042828,0.104911,0.4
0.08,0.005884,0.075335,0.05
0.215,0.301873,0.291853,0.4
0.115,0.143896,0.19308,0.4
0.12,0.110959,0.108817,0.2
0.115,0.052683,0.169643,0.2
0.025,0.040879,0.049107,0.2
0.115,0.115732,0.128348,0.4
0.38,0.39886,0.623326,0.4
0.065,0.123401,0.144531,0.4
0.195,0.229715,0.277344,0.4
0.055,0.051426,0.161272,0.4
0.135,0.1226,0.223772,0.8
0.075,0.097351,0.175223,0.4
0.205,0.376016,0.324219,0.8
0.05,0.040296,0.097656,0.4
0.07,0.038401,0.070313,0.2
0.11,0.037727,0.143973,0.2
0.095,0.092414,0.137277,1
0.06,0.013499,0.044085,0.6
0.115,0.098025,0.232143,0.2
0.045,0.020439,0.048549,0.2
0.12,0.053977,0.069754,0.4
0.1,0.026305,0.111607,0.2
0.22,0.1982,0.296317,0.6
0.06,0.088097,0.118304,0.2
0.12,0.107352,0.185826,0.6
0.04,0.003079,0.024554,0.05
0.265,0.345247,0.277344,0.714286
0.155,0.152457,0.142299,0.428571
0.56,0.665446,0.514509,0.571429
0.165,0.095165,0.185826,0.285714
0.215,0.095147,0.167969,0.142857
0.12,0.013644,0.074777,0.05
0.82,0.579681,0.727679,0.857143
0.345,0.261668,0.258371,0.428571
0.415,0.20627,0.390067,0.714286
0.255,0.083743,0.191406,0.142857
0.11,0.040697,0.09933,0.142857
0.28,0.206908,0.251116,0.428571
0.585,0.521842,0.510045,0.857143
0.23,0.149069,0.323103,0.571429
0.31,0.378894,0.353237,0.857143
0.12,0.067858,0.083705,0.285714
0.25,0.209039,0.271763,1
0.415,0.15825,0.453683,0.714286
1,1,0.811384,0.857143
0.305,0.119649,0.228795,0.428571
0.15,0.040332,0.132254,0.142857
0.345,0.12812,0.210938,0.428571
0.41,0.189037,0.353795,0.571429
0.095,0.017543,0.045201,0.05
0.285,0.207655,0.322545,0.285714
0.1,0.044231,0.056362,0.142857
0.23,0.079098,0.12779,0.571429
0.135,0.041243,0.142299,0.05
0.505,0.341804,0.520089,0.428571
0.175,0.077604,0.226563,0.05
0.365,0.210715,0.418527,0.714286
0.1,0.007888,0.032924,0.05
0.27,0.447699,0.433594,0.888889
0.15,0.147065,0.282924,0.222222
0.335,0.509673,0.493862,0.555556
0.12,0.076165,0.282366,0.333333
0.11,0.038092,0.109375,0.333333
0.075,0.009272,0.071987,0.05
0.235,0.296371,0.359375,0.555556
0.245,0.296244,0.417969,0.555556
0.19,0.09522,0.231027,0.222222
0.17,0.059333,0.216518,0.111111
0.12,0.044668,0.165179,0.333333
0.315,0.231792,0.464286,0.555556
0.345,0.265767,0.526228,0.777778
0.235,0.183754,0.339844,0.444444
0.175,0.224852,0.310268,0.888889
0.075,0.061974,0.144531,0.333333
0.175,0.235344,0.250558,0.777778
0.225,0.175921,0.357143,0.111111
0.345,0.432707,0.606585,1
0.18,0.073159,0.209263,0.222222
0.085,0.032827,0.095424,0.111111
0.14,0.0566,0.154576,0.05
0.145,0.098299,0.15904,0.444444
0.05,0.004809,0.042969,0.111111
0.18,0.114074,0.307478,0.333333
0.16,0.037727,0.161272,0.05
0.235,0.071811,0.208705,0.444444
0.17,0.038492,0.160156,0.111111
0.18,0.15069,0.291853,0.666667
0.12,0.124531,0.230469,0.333333
0.215,0.179,0.348772,0.444444
0.1,0.007578,0.075335,0.05
0.37,0.293074,0.512835,0.571429
0.29,0.215233,0.354911,0.285714
0.335,0.454603,0.328683,0.428571
0.15,0.067384,0.198661,0.05
0.14,0.071447,0.126116,0.142857
0.19,0.023391,0.146763,0.05
0.535,0.546581,0.383929,0.714286
0.365,0.247659,0.382254,0.142857
0.245,0.107298,0.239955,0.142857
0.21,0.06212,0.266741,0.142857
0.12,0.045196,0.131138,0.05
0.205,0.076675,0.262835,0.05
0.36,0.258753,0.330915,0.714286
0.185,0.134787,0.236607,0.285714
0.285,0.228914,0.338728,0.05
0.145,0.088024,0.162388,0.05
0.205,0.163661,0.328125,0.285714
0.2,0.115659,0.248884,0.285714
0.365,0.374431,0.546317,1
0.11,0.045852,0.094866,0.05
0.245,0.061883,0.141183,0.142857
0.16,0.067129,0.203125,0.05
0.225,0.074598,0.271205,0.05
0.04,0.004973,0.016183,0.05
0.255,0.138667,0.227679,0.05
0.165,0.028892,0.143973,0.05
0.13,0.034375,0.119978,0.714286
0.21,0.045779,0.147879,0.05
0.16,0.148122,0.203125,0.285714
0.145,0.096003,0.160714,0.05
0.325,0.18747,0.286272,0.857143
0.085,0.004008,0.053013,0.05
0.09,0.187871,0.159598,0.222222
0.19,0.138813,0.235491,0.333333
0.115,0.250665,0.15904,0.444444
0.055,0.052629,0.094308,0.111111
0.075,0.040132,0.08817,0.222222
0.06,0.00736,0.051339,0.05
0.115,0.198783,0.191406,0.333333
0.16,0.168962,0.233259,0.222222
0.09,0.053886,0.085938,0.111111
0.07,0.033064,0.085379,0.05
0.045,0.033373,0.054688,0.333333
0.125,0.080519,0.190848,0.222222
0.18,0.158396,0.160156,0.444444
0.07,0.124258,0.138951,0.444444
0.09,0.158524,0.155134,0.555556
0.055,0.045852,0.082031,0.333333
0.1,0.133439,0.134487,0.666667
0.085,0.097916,0.162388,0.444444
0.22,0.319088,0.354353,0.888889
0.055,0.028837,0.066964,0.05
0.055,0.021532,0.059152,0.111111
0.085,0.037436,0.078683,0.222222
0.09,0.059806,0.108259,0.444444
0.035,0.002241,0.012277,0.05
0.09,0.079881,0.128906,0.222222
0.06,0.018017,0.050781,0.111111
0.075,0.046508,0.079799,1
0.105,0.024775,0.064174,0.444444
0.13,0.126662,0.211496,0.333333
0.07,0.037035,0.125558,0.05
0.085,0.093653,0.144531,0.444444
0.02,0,0.006138,0.05
