Participant, Doc_id,FD,FFD, RFD,FC,SKIP, RC,SD,RD,NLL,ScaComp_Annotated
adityajo,1,47248,26038,17168,193,0.393258427,74,13723,820,2900.02817397,0.6
adityajo,2,27828,19114,9976,123,0.4266666667,45,8768,526,2416.43298079,0.2
adityajo,3,64462,35338,22716,244,0.318627451,80,21095,986,3793.56107627,0.6
adityajo,4,23836,13236,10628,96,0.414893617,42,3968,551,1997.90739665,0.2
adityajo,5,16772,10408,6394,81,0.3953488372,33,3299,369,1548.20210369,0.05
adityajo,6,10322,7130,3144,48,0.2142857143,17,847,141,554.849473113,0.05
adityajo,7,74780,36718,21992,305,0.2021857924,100,26061,1100,5416.43929098,0.8
adityajo,8,50340,21728,20086,185,0.4146341463,82,10541,877,3384.77631379,0.4
adityajo,9,34466,14548,14434,137,0.3673469388,54,4769,602,2441.14022134,0.4
adityajo,10,28156,13952,9258,107,0.3026315789,40,3581,383,1990.83386062,0.2
adityajo,11,16202,10442,4630,72,0.3835616438,24,2279,266,1340.48512521,0.05
adityajo,12,41338,20772,13906,183,0.2586206897,68,11136,707,3592.41542071,0.2
adityajo,13,59140,27338,21118,232,0.3076923077,86,14586,821,4702.26489382,0.6
adityajo,14,34176,18162,12698,137,0.4932432432,48,7300,621,2338.4597748,0.6
adityajo,15,65254,28430,26546,267,0.303030303,110,17437,1460,4715.77386222,0.8
adityajo,16,21698,12950,5548,84,0.4742268041,26,2984,329,1307.51386681,0.4
adityajo,17,42990,19482,14364,181,0.4142857143,59,8188,748,3009.16070043,1
adityajo,18,36374,18204,13012,171,0.3153846154,65,8796,845,4010.86050792,0.4
adityajo,19,78688,38522,29308,307,0.3688888889,107,26014,1499,6188.16600737,0.6
adityajo,20,26350,14180,10524,109,0.1891891892,39,3347,334,1723.30390915,0.2
adityajo,21,17728,8530,7638,73,0.3492063492,32,1784,283,1043.69162806,0.05
adityajo,22,40050,14568,16682,160,0.225,65,4390,585,2318.88204624,0.4
adityajo,23,34862,14680,13002,151,0.3181818182,61,3898,492,2343.79534928,0.2
adityajo,24,8196,4288,2954,41,0.8230769231,14,631,75,297.284937293,0.05
adityajo,25,28850,19050,10396,102,0.4272727273,39,4151,427,1702.31754224,0.2
adityajo,26,20012,9192,7090,81,0.3442622951,29,2261,305,1091.09787847,0.05
adityajo,27,26322,13256,9130,100,0.253968254,35,2428,360,1675.21721219,0.2
adityajo,28,17188,9326,6818,70,0.2962962963,30,1761,291,1003.6453582,0.05
adityajo,29,44152,22134,16780,167,0.3907284768,60,9309,645,3132.23813188,0.6
adityajo,30,25604,13928,9860,106,0.4684684685,44,4828,569,2552.4159247,0.05
adityajo,31,37170,22738,8786,147,0.28125,41,8005,493,2164.23379611,0.6
adityajo,32,8560,5230,3924,37,0.3947368421,14,642,111,449.29272763,0.05
adtiyasa,1,60562,40662,16022,196,0.2865168539,56,16351,470,2130.55331775,0.5
adtiyasa,2,54114,39888,12266,164,0.2266666667,42,11196,304,2017.77496092,0.25
adtiyasa,3,97010,65136,21612,263,0.1617647059,69,28198,564,2686.26156155,0.875
adtiyasa,4,37820,26306,10776,99,0.2659574468,30,3874,230,1519.58887826,0.25
adtiyasa,5,42638,26720,10196,128,0.2441860465,37,4930,276,1518.21479244,0.5
adtiyasa,6,20662,15832,3260,50,0.2142857143,10,889,80,441.16318382,0.05
adtiyasa,7,84312,57136,19164,237,0.1693989071,67,20849,415,2101.26008614,0.75
adtiyasa,8,70182,44410,18644,196,0.262195122,64,14960,409,2090.2858769,0.375
adtiyasa,9,60484,28600,13972,185,0.1734693878,56,9428,431,2219.0988499,0.875
adtiyasa,10,34884,23824,6228,88,0.2763157895,21,2984,215,1388.87579495,0.25
adtiyasa,11,32828,23306,7054,85,0.2739726027,23,2586,227,1541.93375031,0.5
adtiyasa,12,48180,31464,11772,146,0.2413793103,39,8018,309,1941.23184853,0.375
adtiyasa,13,90498,61198,16458,215,0.1987179487,53,14879,411,2428.93814474,0.75
adtiyasa,14,50020,35632,12890,154,0.3040540541,42,9436,442,1976.27032805,0.375
adtiyasa,15,66390,46718,14856,196,0.2303030303,53,14302,504,2868.49925756,0.875
adtiyasa,16,31182,22290,7076,102,0.2680412371,27,4595,225,1423.0048666,0.25
adtiyasa,17,63520,39492,15568,184,0.2,53,12260,382,2083.99851985,0.875
adtiyasa,18,51600,35454,13550,148,0.2846153846,41,8187,430,1920.75595725,0.375
adtiyasa,19,117078,81154,27872,288,0.1911111111,86,29857,574,2836.1558291,1
adtiyasa,20,38700,20454,9228,113,0.1891891892,34,3769,232,1456.66583729,0.75
adtiyasa,21,39506,20954,12590,104,0.2222222222,38,2857,362,1438.78759077,0.625
adtiyasa,22,35296,23504,7866,99,0.225,27,3359,277,1311.01070935,0.125
adtiyasa,23,46336,31010,10524,115,0.2045454545,31,4440,235,1632.08377321,1
adtiyasa,24,20526,11860,5570,66,0.7230769231,21,1132,94,456.918641809,0.375
adtiyasa,25,48576,36780,8880,129,0.1909090909,30,6241,281,1715.53045073,0.375
adtiyasa,26,27170,19790,5498,77,0.2295081967,23,1941,303,1312.94933099,0.25
adtiyasa,27,45722,21728,13174,145,0.0476190476,49,4594,222,1311.49435915,1
adtiyasa,28,41998,19370,14468,115,0.1481481481,41,2668,266,1280.34433625,0.875
adtiyasa,29,71204,50372,14600,188,0.2119205298,48,12231,377,1938.360448,0.875
adtiyasa,30,41026,34972,7420,108,0.2792792793,28,4801,348,2036.51923739,0.125
adtiyasa,31,62254,40528,12608,176,0.171875,48,9046,333,2215.90792773,0.875
adtiyasa,32,15500,10000,3822,50,0.2105263158,14,817,65,358.267409034,0.05
ajay,1,78194,51866,17472,223,0.1853932584,54,18712,487,2503.44862037,0.2
ajay,2,71814,38362,18476,210,0.2333333333,61,15610,513,2663.68044181,0.05
ajay,3,93840,63796,19732,254,0.2450980392,63,24128,664,2755.59864327,0.4
ajay,4,42294,28668,8790,120,0.2553191489,31,5689,421,1767.07403529,0.05
ajay,5,45502,25110,9696,134,0.1627906977,34,5805,258,1513.62493802,0.05
ajay,6,33990,15254,8468,97,0.119047619,27,1536,133,708.014604517,0.05
ajay,7,94874,57438,19444,267,0.2021857924,74,21204,982,6209.88405273,0.2
ajay,8,79024,51888,14140,222,0.1768292683,51,16682,574,2527.87239904,0.2
ajay,9,73044,35420,20012,190,0.193877551,66,7836,486,2386.34967501,0.05
ajay,10,47210,21554,13604,135,0.1973684211,38,4624,258,1495.72721565,0.05
ajay,11,44456,24218,12802,110,0.1780821918,25,3466,212,1430.93717331,0.05
ajay,12,54700,36914,10850,143,0.224137931,34,9256,293,1526.08330104,0.05
ajay,13,106202,54484,21252,284,0.1602564103,76,17803,525,3455.42716512,0.2
ajay,14,134056,45914,35218,408,0.1418918919,127,26916,997,4584.49042743,0.4
ajay,15,102378,64870,19530,235,0.2,53,16587,487,2225.89919306,1
ajay,16,33882,23848,7168,116,0.2783505155,30,5585,499,1944.55576933,0.2
ajay,17,63270,40420,12310,189,0.2071428571,44,12246,635,2832.2542752,0.2
ajay,18,40884,30094,7392,140,0.2461538462,34,8743,316,1622.61325252,0.05
ajay,19,160036,84068,34450,384,0.2133333333,98,32949,904,4450.23331921,1
ajay,20,48688,16530,15136,154,0.1756756757,47,5341,267,1522.42471828,0.05
ajay,21,43436,19884,11700,120,0.126984127,33,3368,209,1120.1261479,0.2
ajay,22,43116,23316,11380,116,0.2625,30,3207,267,1171.55576933,0.05
ajay,23,38798,21542,7576,138,0.2045454545,32,5287,319,1925.56503508,0.05
ajay,24,14604,8542,3436,57,0.7461538462,14,1106,62,353.253775944,0.05
ajay,25,62290,33100,16188,190,0.1909090909,56,9815,803,5414.56500326,0.05
ajay,26,36626,18088,7598,110,0.0983606557,23,3159,162,778.885060707,0.2
ajay,27,47208,25852,10078,107,0.2222222222,31,2801,240,1347.09935389,0.6
ajay,28,49740,21516,14464,128,0.1851851852,41,2953,233,1102.31901765,0.05
ajay,29,63180,43016,14744,184,0.2119205298,45,12092,548,2293.79006943,0.2
ajay,30,56742,33594,12590,165,0.1891891892,35,8151,404,2798.09061921,0.05
ajay,31,89502,44012,19578,228,0.1796875,65,10830,700,3644.70139307,0.6
ajay,32,16218,9800,3398,48,0.2631578947,10,1000,71,333.167078988,0.4
arpan,1,71868,54562,12556,170,0.3146067416,37,14420,542,2320.60888518,0.5
arpan,2,41794,35782,5338,110,0.3866666667,13,7357,291,1355.10038895,0.05
arpan,3,76262,52116,16322,226,0.2745098039,49,20174,607,2746.8124961,0.5
arpan,4,28226,24022,2956,74,0.3723404255,13,3238,256,1542.69461071,0.05
arpan,5,32694,26624,5230,84,0.2558139535,17,3166,221,1222.77936008,0.05
arpan,6,14464,9932,3884,48,0.2142857143,9,845,102,451.641022685,0.05
arpan,7,74464,55794,12518,208,0.2021857924,41,16898,500,2741.63910219,0.5
arpan,8,63696,47972,11774,163,0.2804878049,35,11969,440,2520.09451438,0.375
arpan,9,38840,27812,8140,116,0.2040816327,27,4888,264,1528.97760042,0.25
arpan,10,25918,17380,4682,83,0.3157894737,16,3027,231,1264.25525136,0.125
arpan,11,32242,21688,5186,87,0.1917808219,18,2955,193,1244.29957363,0.125
arpan,12,37982,30614,7732,102,0.3103448276,23,5905,369,1949.90064164,0.25
arpan,13,61300,47240,11426,160,0.2564102564,37,11945,439,2388.62836102,0.875
arpan,14,50316,40950,6682,134,0.2905405405,23,8681,357,1798.31420996,0.125
arpan,15,81174,55214,16168,197,0.2484848485,47,15830,611,2321.81686344,1
arpan,16,32632,25694,3068,86,0.3092783505,11,3913,219,1486.61912709,0.25
arpan,17,56878,42988,10788,152,0.2571428571,38,9634,686,3438.17194558,0.625
arpan,18,40792,32744,6426,122,0.2769230769,26,7658,366,2032.43985861,0.5
arpan,19,78462,54524,16476,225,0.3066666667,60,21919,887,3048.60106302,0.75
arpan,20,23902,16670,7056,75,0.3108108108,20,2555,238,1281.37505725,0.25
arpan,21,19170,15710,3494,64,0.2380952381,14,1810,85,511.240142854,0.05
arpan,22,31668,23146,7658,88,0.25,21,2756,217,1353.87579495,0.25
arpan,23,29164,24958,4748,78,0.2954545455,16,2965,231,1685.26498928,0.125
arpan,24,15078,12908,3200,44,0.7384615385,11,838,90,388.700925629,0.05
arpan,25,40692,33438,5966,111,0.2454545455,23,5670,223,1737.88311312,0.375
arpan,26,27208,17324,6490,69,0.3114754098,17,1749,118,621.808573843,0.05
arpan,27,29326,21818,2692,71,0.1904761905,10,1948,155,1260.12228455,0.375
arpan,28,24958,17204,4590,64,0.2777777778,15,1440,161,719.766199157,0.05
arpan,29,56678,42300,11214,147,0.3178807947,36,8999,584,2630.12762331,0.125
arpan,30,33208,25262,6224,106,0.2972972973,22,4762,297,1685.36679474,0.125
arpan,31,60576,42938,10274,153,0.1953125,29,8216,322,1921.43354368,0.75
arpan,32,10116,9532,584,31,0.2368421053,2,539,32,210.991737494,0.05
jayasar,1,81944,44606,30300,289,0.191011236,110,26272,736,3010.7792328,0.4
jayasar,2,59496,31410,20562,209,0.2266666667,70,13868,493,2383.89278741,0.2
jayasar,3,86132,46374,27816,305,0.2450980392,107,29647,603,2987.16990254,0.4
jayasar,4,39252,18450,13900,141,0.2446808511,55,5917,466,2118.65848731,0.05
jayasar,5,50138,20980,16674,168,0.2209302326,67,5823,464,1869.91857817,0.05
jayasar,6,23716,11146,7020,76,0.1904761905,28,1215,155,677.581560091,0.05
jayasar,7,86952,41744,33826,300,0.2568306011,123,23757,889,3761.59654132,0.6
jayasar,8,77872,38304,24894,256,0.1951219512,94,18515,537,2274.42660223,0.4
jayasar,9,49052,24886,18398,173,0.1734693878,66,6896,369,2006.38278395,0.2
jayasar,10,44762,15942,19144,168,0.1052631579,72,5599,592,2086.54885969,0.05
jayasar,11,36888,16620,10952,128,0.2054794521,42,4266,211,1478.84507396,0.2
jayasar,12,62608,26938,22560,237,0.1206896552,92,13088,462,2406.41149372,0.2
jayasar,13,89420,40776,29642,281,0.1923076923,103,19148,563,2927.11241935,0.2
jayasar,14,64964,32524,20114,233,0.1756756757,81,13985,497,2653.15677344,0.4
jayasar,15,83594,44198,22704,264,0.1878787879,90,18360,703,2675.30679634,0.2
jayasar,16,31040,16668,10958,120,0.2474226804,39,5725,260,1661.28248572,0.05
jayasar,17,66232,35324,21164,222,0.1857142857,76,14239,471,2911.54791535,0.8
jayasar,18,53704,25952,21562,202,0.2230769231,74,12075,627,2383.01064571,0.4
jayasar,19,81824,41704,33404,301,0.3244444444,125,37154,1824,6868.12454521,0.6
jayasar,20,65612,17198,27018,254,0.0945945946,106,10057,511,2771.26728176,0.2
jayasar,21,39542,16378,13470,135,0.1428571429,48,4063,294,1477.98777869,0.2
jayasar,22,38252,20312,12802,144,0.1125,54,4944,289,1477.12658825,0.2
jayasar,23,54456,24686,17148,186,0.1590909091,69,7582,406,2713.93563426,1
jayasar,24,19504,11818,7446,67,0.7384615385,23,1090,118,513.968806832,0.2
jayasar,25,43418,24068,14702,149,0.2,49,6819,284,1888.48656881,0.05
jayasar,26,27694,15856,8526,103,0.0983606557,36,2876,220,1042.73742574,0.05
jayasar,27,45070,18290,16382,142,0.126984127,53,3770,293,1588.60442711,0.2
jayasar,28,33450,13208,11298,112,0.1851851852,40,2334,350,1286.8241227,0.2
jayasar,29,73864,40468,24698,232,0.1986754967,78,14462,461,2242.0564434,0.4
jayasar,30,32438,20562,11124,145,0.2252252252,52,7107,336,1976.07252806,0.05
jayasar,31,76182,32608,28344,247,0.1640625,91,12414,416,2620.3900703,0.6
jayasar,32,16262,9438,5584,64,0.1578947368,26,999,114,507.552818496,0.05
kevinp,1,45898,32750,11048,169,0.3314606742,47,13910,585,3343.8713958,1
kevinp,2,37118,27834,10110,131,0.3733333333,38,9478,679,4131.73500599,0.285714286
kevinp,3,68360,45294,15800,211,0.362745098,54,20140,696,3608.47199138,0.714285714
kevinp,4,24038,14896,7262,76,0.4574468085,23,3110,275,1268.95127857,0.142857143
kevinp,5,31258,17430,9500,103,0.3488372093,34,3925,364,1772.68531314,0.142857143
kevinp,6,12270,8874,2508,42,0.380952381,11,705,95,407.704820798,0.05
kevinp,7,60256,36638,18350,190,0.3825136612,65,15068,921,3882.77540127,0.285714286
kevinp,8,44102,28832,15166,151,0.4207317073,51,11406,694,2450.48656881,0.285714286
kevinp,9,41950,22236,12368,130,0.3265306122,39,5106,539,2631.26300988,0.571428571
kevinp,10,37780,18932,9962,122,0.2763157895,40,3985,381,1772.80464685,0.285714286
kevinp,11,29084,17384,8874,87,0.3150684932,27,2413,309,1509.03408036,0.05
kevinp,12,42072,27278,8820,116,0.3706896552,31,5908,407,2812.08182563,0.285714286
kevinp,13,62252,37238,14218,177,0.358974359,51,12164,543,3045.43593162,0.857142857
kevinp,14,41674,28066,9582,139,0.3918918919,40,8369,689,3048.72332048,0.142857143
kevinp,15,52988,39576,10498,145,0.3878787879,33,10977,480,2428.55334957,0.571428571
kevinp,16,25994,20114,5554,72,0.4432989691,17,3179,191,1335.80273109,0.05
kevinp,17,43976,26310,12786,158,0.35,51,9032,735,3276.47293572,0.571428571
kevinp,18,33660,25358,7628,115,0.3692307692,32,6307,390,1960.60982952,0.142857143
kevinp,19,65028,45248,16154,189,0.4222222222,55,18436,677,3147.04089454,1
kevinp,20,27906,14188,8256,104,0.2837837838,35,3402,328,1789.20942185,0.142857143
kevinp,21,21810,12676,5908,76,0.3650793651,24,1786,230,908.477334877,0.142857143
kevinp,22,25298,15424,7680,90,0.3125,26,2770,284,1189.5021813,0.428571429
kevinp,23,23168,14418,5962,83,0.4659090909,28,3143,254,1372.567927,0.142857143
kevinp,24,9634,7352,2008,36,0.8,8,672,93,332.138337393,0.05
kevinp,25,31764,23894,6074,105,0.3636363636,27,5216,317,1992.99902384,0.05
kevinp,26,29074,14328,10076,106,0.1639344262,37,2735,376,1403.25763929,0.05
kevinp,27,43710,16646,15348,138,0.2857142857,49,3495,398,2309.50799224,0.428571429
kevinp,28,33452,16302,11700,94,0.2407407407,32,2021,325,1402.65072879,0.05
kevinp,29,55672,40498,10870,152,0.3443708609,40,9384,316,1701.22211061,0.428571429
kevinp,30,33938,22466,9262,109,0.3513513514,30,5152,475,3033.56940242,0.285714286
kevinp,31,52054,33152,13650,155,0.3828125,49,7105,585,2799.95077459,0.285714286
kevinp,32,13668,10576,3160,36,0.3421052632,12,643,67,295.242562607,0.05
lakshya,1,51200,41860,6796,148,0.308988764,14,13184,278,1266.55243705,0.125
lakshya,2,49530,39352,6144,136,0.34,22,8137,276,1420.78425849,0.05
lakshya,3,69360,50528,7378,210,0.2745098039,28,18689,488,2661.79647508,0.125
lakshya,4,35168,28344,5256,72,0.3936170213,11,2718,194,1443.64639327,0.05
lakshya,5,20650,16068,3280,80,0.3023255814,12,3154,195,961.156868898,0.05
lakshya,6,20744,12150,3912,67,0.1904761905,15,1318,182,665.760356404,0.05
lakshya,7,63998,47014,8394,198,0.2295081967,29,16158,473,2709.82179367,0.375
lakshya,8,41074,31408,4386,150,0.3719512195,25,9125,336,1578.33516122,0.05
lakshya,9,44476,24966,8744,129,0.3163265306,30,5829,458,2147.53045073,0.05
lakshya,10,28436,20644,5788,85,0.2894736842,21,2766,240,1164.88163771,0.05
lakshya,11,29040,20280,6266,81,0.2876712329,19,2503,249,1441.83731544,0.05
lakshya,12,36942,31498,4218,85,0.3620689655,9,4867,250,1739.56896232,0.05
lakshya,13,67994,47616,8296,172,0.2948717949,28,11408,360,1764.87048328,0.25
lakshya,14,31736,24830,5988,125,0.3716216216,25,8093,371,1876.85974211,0.125
lakshya,15,61634,50652,7802,154,0.3090909091,27,11460,403,1794.37948349,1
lakshya,16,22060,16024,4776,78,0.4432989691,16,3343,279,1316.26498928,0.05
lakshya,17,33422,27090,3352,128,0.2785714286,19,8675,258,1837.74577898,0.05
lakshya,18,34862,29046,5752,99,0.3846153846,17,5786,242,1416.75014631,0.125
lakshya,19,74422,55954,11942,192,0.36,34,19593,544,2169.98786941,1
lakshya,20,20874,17802,2508,60,0.3378378378,8,2071,155,877.09159537,0.05
lakshya,21,21468,13198,5284,77,0.3015873016,17,2066,200,934.792993168,0.05
lakshya,22,22246,19218,2840,74,0.275,14,2536,192,1177.22066701,0.05
lakshya,23,21626,15980,2926,73,0.3977272727,7,3780,180,1309.54022047,0.05
lakshya,24,8114,6538,1202,36,0.7846153846,6,700,46,233.086224786,0.05
lakshya,25,44494,34686,5588,121,0.2454545455,21,5889,328,2562.81152467,0.05
lakshya,26,19640,13704,4058,66,0.2786885246,16,1752,161,651.288360292,0.05
lakshya,27,30018,21296,4738,72,0.3492063492,19,1947,196,1261.8548437,1
lakshya,28,24688,18504,2614,61,0.2222222222,9,1708,74,425.615704089,0.125
lakshya,29,35692,26178,5334,156,0.3046357616,30,9581,450,2179.95375723,0.5
lakshya,30,29018,22086,4010,87,0.4234234234,13,5177,374,1632.14518339,0.05
lakshya,31,57998,40474,8620,139,0.2734375,26,7422,264,1430.88264095,0.125
lakshya,32,14518,11818,3772,34,0.3421052632,9,594,42,220.668288865,0.05
meghnas,1,58056,43942,10926,167,0.3314606742,32,12950,555,2431.98444641,0.05
meghnas,2,43466,28306,9410,154,0.32,31,10011,474,2382.00781743,0.05
meghnas,3,65766,47902,16326,175,0.362745098,32,15651,649,2367.96886574,0.05
meghnas,4,22552,18820,3600,80,0.329787234,17,3308,212,1314.78715042,0.05
meghnas,5,32646,19060,8940,91,0.3604651163,22,3006,270,1431.39600851,0.25
meghnas,6,16960,10762,4056,54,0.2380952381,10,852,110,531.155393483,0.05
meghnas,7,52646,39630,9826,147,0.393442623,31,12487,529,2164.4973418,0.25
meghnas,8,53808,37708,11532,145,0.3353658537,27,9484,364,1552.39701175,0.05
meghnas,9,46944,23816,11880,132,0.2755102041,36,4912,366,1980.6809458,0.25
meghnas,10,30800,18464,7850,86,0.25,22,2713,274,1185.40574643,0.05
meghnas,11,24936,14700,6086,90,0.2739726027,24,2599,247,1387.4500687,0.05
meghnas,12,38012,22456,10890,132,0.3017241379,36,7294,291,1545.6809458,0.05
meghnas,13,57734,37660,14658,168,0.2692307692,38,12968,399,2032.13883665,0.25
meghnas,14,48308,26706,13916,148,0.4054054054,41,8134,479,1870.75595725,0.05
meghnas,15,54596,42302,9262,139,0.3515151515,23,10661,362,1641.30447204,0.5
meghnas,16,24224,18054,5556,79,0.3505154639,14,3614,246,1238.21092909,0.25
meghnas,17,39404,32460,4602,119,0.3071428571,18,7827,268,1498.71314221,0.25
meghnas,18,32826,25042,5788,110,0.3307692308,19,6370,264,1257.25672677,0.25
meghnas,19,79166,54626,15962,200,0.36,37,19256,557,2080.55045765,0.75
meghnas,20,24924,19258,5398,60,0.3918918919,13,2095,280,1462.72187689,0.25
meghnas,21,21922,12698,6106,68,0.3492063492,17,1941,178,819.810521427,0.05
meghnas,22,24628,15770,5314,84,0.3,14,2478,206,1260.20119117,0.05
meghnas,23,36626,21376,8938,110,0.25,28,4622,327,1765.51534222,1
meghnas,24,12146,8278,2570,42,0.7846153846,8,831,68,327.126651887,0.05
meghnas,25,42444,26332,10624,125,0.3090909091,35,6133,647,3231.16852258,0.05
meghnas,26,23848,16188,4754,68,0.2131147541,14,1912,120,562.232352516,0.05
meghnas,27,33200,19708,7270,93,0.126984127,22,2790,208,1096.39211334,0.25
meghnas,28,32450,15740,9672,87,0.2222222222,22,1855,256,1120.40379884,0.05
meghnas,29,47086,32820,11070,146,0.2649006623,32,9877,431,1975.02534568,0.5
meghnas,30,45770,22922,15858,114,0.4054054054,36,3890,433,1726.1918936,0.05
meghnas,31,58706,31970,13768,148,0.3125,30,6701,326,1740.96933791,0.5
meghnas,32,10690,7986,2854,38,0.2894736842,9,616,99,385.660498528,0.05
pratikm,1,47362,27924,11982,193,0.3483146067,50,16093,576,2426.87871397,0.571428571
pratikm,2,43432,21100,13502,179,0.3533333333,55,13097,528,1845.06037038,0.428571429
pratikm,3,47580,36008,10728,160,0.4411764706,41,15132,603,2239.73258624,0.428571429
pratikm,4,15226,11376,3182,70,0.4468085106,17,2796,256,1079.80662626,0.285714286
pratikm,5,43826,14898,17336,167,0.2674418605,60,5425,739,2980.23813163,0.285714286
pratikm,6,20042,8092,6242,81,0.2142857143,26,1227,175,703.519709562,0.05
pratikm,7,84488,41494,25342,271,0.2677595628,83,21397,816,3352.61076912,0.714285714
pratikm,8,65244,24998,22424,238,0.3536585366,85,14547,822,2818.72715201,0.571428571
pratikm,9,42618,19318,11892,139,0.3163265306,40,5046,448,2296.77153792,0.428571429
pratikm,10,24072,16110,6764,84,0.3157894737,27,3009,306,1434.03992311,0.05
pratikm,11,32870,13806,9906,139,0.1780821918,43,3786,381,1839.34970683,0.285714286
pratikm,12,46676,18920,14598,205,0.25,62,11533,575,2544.21623603,0.571428571
pratikm,13,57583,34367,13907,199,0.2820512821,54,15007,626,2974.49536239,0.571428571
pratikm,14,40770,20978,10060,150,0.3986486486,43,8969,583,2804.80417469,0.714285714
pratikm,15,60930,29266,13706,226,0.3575757576,59,12842,491,2641.07305913,0.428571429
pratikm,16,36542,19766,8424,159,0.1649484536,38,6842,401,2492.68047363,0.428571429
pratikm,17,38878,26734,9916,137,0.3571428571,37,10386,500,2585.19726418,0.571428571
pratikm,18,27138,17322,8288,123,0.3923076923,36,6257,417,2106.69847406,0.428571429
pratikm,19,63334,29808,20976,229,0.5555555556,71,16355,805,3786.90400074,0.857142857
pratikm,20,44380,14458,13224,184,0.1756756757,59,6276,491,2393.67896639,0.714285714
pratikm,21,21186,10382,6660,88,0.380952381,32,2014,225,925.662414293,0.285714286
pratikm,22,37508,16540,10262,148,0.225,44,3944,317,1626.85823488,0.285714286
pratikm,23,58356,22814,15380,202,0.1818181818,58,8424,532,2558.11785357,1
pratikm,24,7938,4950,2362,38,0.8076923077,12,777,88,364.238667438,0.05
pratikm,25,56764,23842,13636,208,0.2272727273,52,9442,539,2275.90161281,0.571428571
pratikm,26,32748,13068,12486,122,0.1475409836,44,3013,272,1117.90887207,0.142857143
pratikm,27,49738,14788,16028,195,0.1111111111,70,4928,493,2741.44416231,0.571428571
pratikm,28,40676,11140,12978,177,0.1111111111,62,4510,462,1703.2707684,0.285714286
pratikm,29,47612,24982,13366,176,0.3443708609,48,11061,462,2347.38381901,0.571428571
pratikm,30,37546,18396,13378,146,0.3243243243,51,7434,667,2934.54452417,0.428571429
pratikm,31,86850,32274,20470,274,0.1875,74,13783,944,4236.34631092,0.857142857
pratikm,32,22774,6464,7044,85,0.2631578947,28,1278,218,830.564031832,0.142857143
prerana,1,40936,28022,9810,118,0.5168539326,31,8837,574,2071.55382174,0.125
prerana,2,32874,27792,6016,98,0.46,19,6639,377,1495.28009779,0.375
prerana,3,44344,36492,9950,138,0.4509803922,33,12328,633,2550.04287394,0.75
prerana,4,19874,13896,5886,62,0.5,17,2364,237,1107.82220693,0.375
prerana,5,26034,16142,7926,71,0.4534883721,20,2203,209,1124.38284758,0.125
prerana,6,22442,9608,7196,68,0.3095238095,25,1093,135,561.018971855,0.125
prerana,7,59322,39916,13506,174,0.4098360656,39,13076,742,2936.12909873,0.75
prerana,8,42790,32952,10064,126,0.4207317073,34,8541,466,1712.11640998,0.25
prerana,9,32176,22094,10048,84,0.4591836735,26,3396,335,1803.51386681,0.625
prerana,10,37080,17994,10380,95,0.3157894737,27,3239,465,1978.01849969,1
prerana,11,14648,11614,3310,44,0.5479452055,10,1062,203,1025.17486933,0.125
prerana,12,26508,21362,7124,81,0.4568965517,21,3733,404,1963.88942804,0.5
prerana,13,36818,28406,6824,110,0.4615384615,24,7209,389,1957.88700829,0.625
prerana,14,34714,26000,5250,100,0.4864864865,13,5554,458,2016.59575608,0.375
prerana,15,38480,30988,6774,119,0.4606060606,25,8532,427,2152.91964506,1
prerana,16,24506,15972,4742,69,0.5257731959,12,2639,259,1154.17829233,0.75
prerana,17,43030,31432,7336,113,0.4071428571,23,6588,382,2213.87921795,0.625
prerana,18,30700,23620,7672,91,0.4769230769,24,4315,483,1846.92401239,0.75
prerana,19,63490,44392,19152,190,0.4355555556,62,16643,819,2936.72134108,0.875
prerana,20,22448,18546,4580,46,0.5135135135,13,1304,221,1081.74914307,0.25
prerana,21,15698,10272,3862,51,0.4761904762,16,1337,251,1019.31757406,0.05
prerana,22,20440,14772,5104,63,0.4625,17,1680,264,1187.82025935,0.125
prerana,23,20220,16588,5060,61,0.4545454545,17,2426,297,1705.82415452,0.25
prerana,24,11750,9108,2896,37,0.7923076923,10,669,90,352.188502416,0.05
prerana,25,33142,27922,6738,88,0.3454545455,20,4508,275,1710.34973865,0.375
prerana,26,17220,15584,2354,40,0.4262295082,7,1078,61,291.604490752,0.25
prerana,27,36906,18846,8762,99,0.1587301587,21,2790,290,1729.85437153,1
prerana,28,27584,19390,5502,63,0.1851851852,16,1690,152,693.294203045,0.875
prerana,29,34974,23248,10016,110,0.5099337748,33,5707,518,2101.62151502,0.25
prerana,30,20088,15904,4320,68,0.5225225225,16,2679,283,1710.28446512,0.05
prerana,31,51762,28798,12662,166,0.296875,43,8019,712,2880.24890462,1
prerana,32,13698,8420,4470,38,0.4210526316,13,508,134,502.764723742,0.125
prtk,1,36564,28310,8386,135,0.4325842697,33,10017,485,1881.57282542,0.8
prtk,2,30002,24750,7190,107,0.4333333333,25,7369,379,1832.94301607,0.4
prtk,3,40592,32630,6010,150,0.4117647059,26,14170,558,2172.81300009,1
prtk,4,15312,11676,3678,66,0.4574468085,17,2532,296,1569.8144166,0.4
prtk,5,17144,11582,3968,69,0.4418604651,17,2332,256,1482.80857384,0.6
prtk,6,12474,8176,3134,54,0.2380952381,13,820,138,572.733562393,0.05
prtk,7,49616,37490,11102,165,0.3169398907,36,14009,527,2910.0925668,1
prtk,8,42008,28978,9232,136,0.4085365854,34,9260,418,2330.62104285,0.8
prtk,9,22396,15484,5468,73,0.4897959184,17,2754,363,2081.80078351,0.8
prtk,10,21250,12680,5328,71,0.3684210526,17,2312,181,1084.80467867,0.05
prtk,11,23082,11696,4666,84,0.4246575342,20,1953,300,1739.35752899,0.2
prtk,12,32090,19016,10658,98,0.4310344828,23,3985,265,1644.90843172,0.6
prtk,13,39666,30200,8272,134,0.3653846154,29,8965,435,1995.47054779,0.6
prtk,14,25696,21088,6478,95,0.5067567568,23,5584,469,2536.91427447,0.8
prtk,15,36502,27320,7570,130,0.4181818182,27,9006,402,2161.95033424,0.8
prtk,16,18650,13976,4152,72,0.4432989691,16,2852,251,1567.27667479,0.4
prtk,17,32990,22616,6622,110,0.4642857143,27,5970,474,2484.98928592,1
prtk,18,25940,20118,5556,96,0.4384615385,21,4739,367,1335.33610556,0.6
prtk,19,46552,36796,9870,168,0.4266666667,38,13909,583,2302.13883665,0.6
prtk,20,20584,13004,5644,73,0.3783783784,17,2139,271,1392.80078351,0.4
prtk,21,15982,10624,3626,58,0.3650793651,13,1464,159,876.725772056,0.4
prtk,22,20770,13794,6470,74,0.4125,21,2064,281,1435.90306114,0.6
prtk,23,23062,16082,5750,82,0.3181818182,20,2772,209,1269.36142416,1
prtk,24,9846,7386,2096,38,0.7692307692,9,625,87,343.660498528,0.2
prtk,25,33756,21792,8038,112,0.3454545455,28,4233,331,1396.98733834,0.8
prtk,26,15654,9008,5574,65,0.3114754098,22,1620,182,655.446645697,0.4
prtk,27,19830,12020,5862,82,0.2063492063,23,2240,223,1330.93959307,1
prtk,28,14518,9632,4318,58,0.3333333333,19,1167,147,512.882109877,0.2
prtk,29,38590,27166,8884,125,0.3841059603,34,7778,390,1791.11835756,1
prtk,30,18756,13160,4812,81,0.4774774775,18,3402,224,1439.31125913,0.6
prtk,31,32972,23728,5266,116,0.3359375,21,6214,265,1472.29715388,0.6
prtk,32,10700,5276,3606,42,0.3684210526,11,615,96,413.704820798,0.2
rajitas,1,36428,29080,5224,138,0.3483146067,21,11525,362,1913.77841574,0.4
rajitas,2,37358,22432,6808,165,0.2933333333,31,10425,478,1942.46228528,0.4
rajitas,3,49754,36292,8166,195,0.2941176471,31,17167,450,2604.40385775,0.4
rajitas,4,15248,12612,2030,70,0.3510638298,10,3337,152,783.124232134,0.2
rajitas,5,17738,14754,2448,75,0.2906976744,14,2809,220,1191.21871943,0.4
rajitas,6,12250,7362,4762,55,0.3333333333,18,781,167,638.361896326,0.05
rajitas,7,49746,33040,11190,190,0.2950819672,45,17029,555,2999.77838392,0.4
rajitas,8,33104,24992,4570,122,0.3963414634,25,8357,378,1486.38969358,0.4
rajitas,9,32048,19166,6520,122,0.2551020408,26,6549,227,1519.43985861,0.2
rajitas,10,30838,18438,7152,105,0.2105263158,25,3350,336,1349.94691124,0.2
rajitas,11,21014,16076,2724,75,0.2465753425,7,2702,120,900.536325302,0.2
rajitas,12,38778,25428,6994,135,0.275862069,25,6811,262,1395.88848371,0.4
rajitas,13,80252,34314,19592,308,0.1602564103,78,22353,1149,4910.38431827,0.4
rajitas,14,21734,19162,2468,114,0.3378378378,15,7232,291,1517.14471122,0.4
rajitas,15,46356,33122,9704,171,0.2787878788,41,13068,529,1963.71116281,0.4
rajitas,16,21412,16576,4086,79,0.3402061856,13,3281,321,1868.68487279,0.4
rajitas,17,37944,24484,6454,144,0.3357142857,29,7188,433,2028.92696322,0.8
rajitas,18,28454,21568,4584,107,0.3769230769,17,5802,346,1297.21045692,0.4
rajitas,19,66826,46754,8586,245,0.2755555556,43,21099,613,3192.61915418,0.8
rajitas,20,19326,13584,3676,79,0.2162162162,12,2670,207,1458.15881648,0.4
rajitas,21,22604,13022,5438,81,0.1746031746,16,2566,158,764.259146527,0.2
rajitas,22,23944,14114,6924,88,0.3375,24,2529,290,1346.45396387,0.2
rajitas,23,37010,17536,4356,149,0.1704545455,21,5531,278,2053.75699231,1
rajitas,24,19848,8762,3584,71,0.7538461538,14,1199,111,621.226509763,0.6
rajitas,25,34114,21836,7548,126,0.2545454545,25,5839,448,1830.85779453,0.2
rajitas,26,15976,12298,3278,60,0.2459016393,11,1580,119,660.66976428,0.2
rajitas,27,28954,15934,6316,106,0.126984127,26,3421,157,908.471019955,0.4
rajitas,28,19990,10942,6030,80,0.1851851852,22,1902,232,1041.41743193,0.2
rajitas,29,52858,28184,12128,198,0.2251655629,46,11338,563,2908.28885955,0.6
rajitas,30,25606,18958,3160,101,0.3333333333,14,5294,244,1361.16808223,0.2
rajitas,31,35748,24056,6594,128,0.2890625,26,6351,365,2052.4281731,0.6
rajitas,32,10012,5474,3082,44,0.2631578947,10,627,76,404.174869326,0.05
rajkumar,1,62154,39248,14918,216,0.2471910112,55,19410,529,2977.98830976,0.714285714
rajkumar,2,36514,28548,9020,129,0.34,33,8827,287,1839.10861964,0.428571429
rajkumar,3,106228,43966,33226,353,0.2647058824,114,36987,954,4373.2347039,0.571428571
rajkumar,4,35360,19870,7874,124,0.2553191489,35,5682,365,1664.17047017,0.285714286
rajkumar,5,39384,17886,11578,149,0.1976744186,45,5681,333,1662.3823436,0.142857143
rajkumar,6,22054,9656,9386,72,0.1904761905,26,1207,166,747.537237821,0.05
rajkumar,7,150650,52110,51086,485,0.1256830601,166,32279,1336,6896.85665927,0.857142857
rajkumar,8,62680,33626,20212,215,0.25,71,14822,495,2779.93126692,0.428571429
rajkumar,9,83116,30362,25944,258,0.112244898,85,11781,731,3533.21230905,0.714285714
rajkumar,10,47574,19294,15106,165,0.1447368421,53,5055,375,1914.55963268,0.142857143
rajkumar,11,24792,16088,6128,86,0.2602739726,24,2692,210,1326.45785903,0.142857143
rajkumar,12,49714,25386,13918,190,0.2068965517,58,11816,482,2268.14122459,0.428571429
rajkumar,13,124974,41072,35148,398,0.1282051282,119,29104,946,4336.77734413,0.857142857
rajkumar,14,45908,28604,14372,152,0.3716216216,48,8641,611,2390.43056103,0.571428571
rajkumar,15,76214,44370,17326,235,0.2060606061,64,21257,665,3189.20992111,0.857142857
rajkumar,16,29532,17344,10818,89,0.3608247423,26,4183,182,1027.50412889,0.285714286
rajkumar,17,56988,35006,13830,181,0.2428571429,52,11933,519,3093.4783063,1
rajkumar,18,64192,25100,23048,230,0.2692307692,85,9145,845,3566.26684141,0.714285714
rajkumar,19,148994,59626,52442,543,0.1466666667,202,55352,1486,6685.68172631,0.857142857
rajkumar,20,56680,19794,16516,187,0.1081081081,63,7026,442,2286.77734886,0.428571429
rajkumar,21,29728,14022,9194,95,0.3174603175,32,2672,269,1120.6487812,0.142857143
rajkumar,22,61044,23050,21416,195,0.1125,71,7491,410,1814.97021861,0.428571429
rajkumar,23,68476,23588,20616,244,0.0681818182,84,10835,666,3633.71351892,0.571428571
rajkumar,24,19226,8996,5522,72,0.7461538462,21,1421,113,531.906956304,0.05
rajkumar,25,71740,31846,16292,239,0.0909090909,59,11857,610,3755.04774054,0.285714286
rajkumar,26,25348,13694,6348,93,0.1475409836,22,2886,133,763.392113337,0.142857143
rajkumar,27,47938,19596,13364,149,0.126984127,48,4800,261,1525.96051251,0.571428571
rajkumar,28,36020,16090,9480,104,0.1111111111,29,2722,287,1116.05308403,0.05
rajkumar,29,91396,37998,29488,308,0.1655629139,103,19221,964,4252.58394329,0.428571429
rajkumar,30,32308,19116,12252,112,0.3333333333,37,4718,438,1872.24595379,0.05
rajkumar,31,82564,34328,23080,253,0.1953125,75,12025,782,3405.9132665,0.714285714
rajkumar,32,17700,7604,5626,63,0.2631578947,22,891,91,437.450540866,0.05
shehzaad,1,56150,27984,13232,233,0.3314606742,56,25034,809,3845.48125713,0.888888889
shehzaad,2,26682,20224,7328,120,0.4066666667,32,8531,539,2259.07598288,0.222222222
shehzaad,3,68698,36324,16462,284,0.2549019608,69,28436,917,4513.69655356,0.555555556
shehzaad,4,21216,13638,6682,93,0.3617021277,26,4639,538,2386.49633855,0.333333333
shehzaad,5,20070,12364,5440,82,0.4069767442,24,2549,228,1032.46564937,0.333333333
shehzaad,6,13470,8110,3770,57,0.2380952381,17,967,161,658.831944854,0.05
shehzaad,7,50526,32062,12334,200,0.3005464481,49,16727,676,3784.38724201,0.555555556
shehzaad,8,52364,28942,14042,214,0.262195122,51,16720,781,2834.363871,0.555555556
shehzaad,9,31170,16948,10910,122,0.2959183673,40,5685,446,2001.80464685,0.222222222
shehzaad,10,26214,14172,10734,99,0.2236842105,36,3715,420,1819.74521608,0.111111111
shehzaad,11,24496,12296,6316,92,0.3287671233,26,2910,328,1393.49828614,0.333333333
shehzaad,12,51042,21846,16816,212,0.1896551724,65,13182,864,4066.78077425,0.555555556
shehzaad,13,51966,25162,18670,218,0.3141025641,71,15047,975,4149.40131545,0.777777778
shehzaad,14,41738,21880,14034,171,0.3716216216,49,10545,641,3453.91961324,0.444444444
shehzaad,15,41850,26572,10808,167,0.3696969697,37,12801,588,2348.09061921,0.888888889
shehzaad,16,21156,12584,4334,85,0.4432989691,17,3860,291,1641.77741249,0.333333333
shehzaad,17,48618,28168,7760,202,0.2214285714,37,13377,481,2644.54656248,0.777777778
shehzaad,18,36756,19770,12322,154,0.3384615385,47,10115,672,2753.90060956,0.111111111
shehzaad,19,72796,41212,18426,258,0.3511111111,71,24211,1119,4268.79930336,1
shehzaad,20,32730,13884,9586,140,0.2027027027,38,4474,407,1903.71747773,0.222222222
shehzaad,21,14618,9658,4860,65,0.3333333333,19,2260,203,846.868476787,0.111111111
shehzaad,22,30116,15968,11354,102,0.3,30,3565,309,1356.58303551,0.05
shehzaad,23,31510,14162,6986,141,0.2272727273,31,5854,317,1571.03313602,0.444444444
shehzaad,24,10580,8084,3372,40,0.7692307692,12,722,109,392.23477227,0.111111111
shehzaad,25,34520,20346,11072,137,0.2636363636,38,6720,583,3117.19921176,0.333333333
shehzaad,26,23320,9332,9344,89,0.3114754098,34,2529,321,1011.71257932,0.05
shehzaad,27,36268,14170,13992,138,0.1428571429,49,4400,406,1818.50799224,0.444444444
shehzaad,28,26442,12126,9174,99,0.1666666667,36,2571,319,1198.74521608,0.111111111
shehzaad,29,32060,21324,10988,130,0.4238410596,38,8730,555,2391.21284485,0.666666667
shehzaad,30,27146,15098,8368,114,0.3783783784,26,7294,445,2417.45543928,0.333333333
shehzaad,31,36938,19992,11218,161,0.2734375,45,10284,657,3922.83486387,0.444444444
shehzaad,32,12170,5374,5400,54,0.3421052632,22,874,167,555.468069125,0.05
srijay,1,76812,38052,24766,223,0.3314606742,76,16546,951,3933.49775033,0.571428571
srijay,2,51004,26940,19442,166,0.38,60,12273,668,2826.24007922,0.285714286
srijay,3,75640,46762,22930,240,0.2990196078,69,25413,621,3101.30635599,0.428571429
srijay,4,31178,18498,11386,92,0.4255319149,32,4157,388,1645.65462396,0.05
srijay,5,29388,19306,9106,94,0.3139534884,30,4380,258,1419.59861618,0.142857143
srijay,6,29978,11468,12732,95,0.1666666667,40,1742,295,1069.85723163,0.05
srijay,7,95292,44742,32144,298,0.2349726776,109,30462,720,3383.23564824,0.714285714
srijay,8,63242,32424,23920,193,0.3475609756,75,14053,717,2537.55423027,0.142857143
srijay,9,37632,19494,13362,132,0.2857142857,51,6348,462,2295.57179035,0.142857143
srijay,10,32586,15958,12872,111,0.2763157895,44,3868,510,2092.9302955,0.142857143
srijay,11,27278,13880,9082,82,0.3424657534,26,2939,267,1408.51776198,0.05
srijay,12,31268,19162,11522,111,0.4137931034,43,4667,503,2380.40423919,0.05
srijay,13,57860,29398,20134,199,0.3333333333,74,14662,625,2672.01648846,0.714285714
srijay,14,41536,24420,13190,139,0.4459459459,39,7857,456,1970.7213729,0.285714286
srijay,15,53396,30574,17148,181,0.3575757576,59,13024,639,3213.68480915,0.05
srijay,16,27282,15810,9344,90,0.4020618557,31,5290,323,1630.13246282,0.05
srijay,17,48194,28098,14122,154,0.3714285714,43,9442,620,2695.79638435,0.285714286
srijay,18,32048,21706,10018,118,0.3846153846,42,6807,478,1637.34044108,0.285714286
srijay,19,79916,46162,23850,231,0.4,75,21012,1011,4832.95611335,1
srijay,20,22230,13764,5856,83,0.3108108108,24,2975,202,829.463701787,0.05
srijay,21,42748,21020,15652,121,0.2063492063,51,3855,285,1231.59321378,0.142857143
srijay,22,35104,19652,11904,103,0.2875,34,4143,396,1789.68531314,0.05
srijay,23,37842,16038,13752,121,0.3181818182,47,4553,518,2189.48898856,0.05
srijay,24,10128,8034,2846,37,0.7846153846,10,731,61,260.188502416,0.05
srijay,25,49380,26238,15920,154,0.2545454545,53,8070,440,2049.5810561,0.05
srijay,26,23062,11382,10194,83,0.3114754098,35,2044,290,951.250321125,0.05
srijay,27,22946,13174,9108,75,0.2857142857,28,2345,247,1398.58350768,0.714285714
srijay,28,34858,11798,10814,124,0.0925925926,44,2971,297,1193.9049769,0.05
srijay,29,45466,30100,14734,124,0.4238410596,34,8589,396,1864.12030515,0.285714286
srijay,30,31444,21312,8966,105,0.3963963964,31,5728,320,1738.10324906,0.05
srijay,31,57036,30496,18724,183,0.265625,67,10749,545,2846.88936441,0.857142857
srijay,32,12520,6236,4942,45,0.3947368421,19,678,127,482.907428473,0.05
vaibhavt,1,36630,28870,5718,131,0.3876404494,20,10771,318,1593.74188381,0.222222222
vaibhavt,2,36212,22162,10492,146,0.4,40,8078,454,1774.75790483,0.333333333
vaibhavt,3,47068,37960,6720,163,0.3774509804,25,14218,317,1727.78573391,0.444444444
vaibhavt,4,17410,12510,3386,72,0.4361702128,13,3347,201,934.698505876,0.111111111
vaibhavt,5,21970,13994,4982,83,0.3604651163,17,2661,190,1004.78130766,0.222222222
vaibhavt,6,15068,9190,4808,53,0.2142857143,14,862,124,504.261566281,0.05
vaibhavt,7,39210,30262,5754,147,0.3661202186,25,11370,375,1834.34100398,0.333333333
vaibhavt,8,36670,24936,9864,133,0.4146341463,34,9733,450,2036.62688561,0.222222222
vaibhavt,9,25488,18328,4802,89,0.3979591837,20,3416,186,919.347791067,0.111111111
vaibhavt,10,20692,13048,5072,72,0.3552631579,16,2273,185,867.276674786,0.05
vaibhavt,11,17580,12868,3364,67,0.3287671233,11,2290,130,850.65613119,0.333333333
vaibhavt,12,24724,18222,5546,94,0.4310344828,27,4878,374,1221.02044727,0.222222222
vaibhavt,13,50540,30658,9960,167,0.3269230769,38,9153,319,2430.66489295,0.444444444
vaibhavt,14,25852,23438,3504,107,0.3581081081,16,7279,281,1784.20850934,0.444444444
vaibhavt,15,38630,32152,6368,120,0.4060606061,20,9160,310,1561.76330723,0.555555556
vaibhavt,16,19002,15066,4216,71,0.4020618557,13,2975,179,922.70045346,0.333333333
vaibhavt,17,32204,25850,4952,116,0.3642857143,22,7783,273,1676.3473189,0.666666667
vaibhavt,18,25778,19792,5984,97,0.4076923077,19,5833,323,1783.80615409,0.444444444
vaibhavt,19,61780,44700,12220,199,0.3822222222,46,17974,667,2551.28691197,0.888888889
vaibhavt,20,15396,13756,2818,61,0.3108108108,13,2041,152,840.719929303,0.05
vaibhavt,21,16246,10818,4192,58,0.3650793651,13,1640,138,599.725772056,0.111111111
vaibhavt,22,19252,14024,5424,76,0.3125,19,2513,173,773.847053359,0.222222222
vaibhavt,23,23704,17030,5394,91,0.2613636364,20,3741,226,1212.3438959,0.444444444
vaibhavt,24,9448,7104,1970,35,0.8076923077,9,581,54,249.666341281,0.05
vaibhavt,25,32770,22332,6708,112,0.3,20,4843,263,1658.30299663,0.222222222
vaibhavt,26,12250,8524,3296,50,0.4262295082,14,1447,123,575.267409034,0.111111111
vaibhavt,27,23838,15162,3898,88,0.1904761905,17,3011,175,1052.77156974,1
vaibhavt,28,21308,11570,5124,80,0.2407407407,23,1818,147,679.943488236,0.444444444
vaibhavt,29,30784,22186,7716,117,0.4304635762,28,7411,411,2291.50170939,0.333333333
vaibhavt,30,16244,11020,4778,68,0.5585585586,16,2491,257,1365.28446512,0.05
vaibhavt,31,33156,27476,5446,103,0.359375,19,5599,291,1851.79446858,0.444444444
vaibhavt,32,7874,5826,1536,30,0.4210526316,6,458,43,231.097910292,0.05
